;LAYER:3
G92 E0
G1 Z0.800 F15000.000
G1 X-0.117 Y8.914 F15000.000
G1 F1200
G1 X-0.183 Y8.869 E0.00345
G1 X-0.314 Y8.705 E0.01248
G1 X-10.186 Y-8.394 E0.86136
G1 X-10.263 Y-8.589 E0.87039
G1 X-10.251 Y-8.748 E0.87722
G1 X-10.152 Y-8.872 E0.88405
G1 X-10.079 Y-8.907 E0.88750
G1 X-9.872 Y-8.938 E0.89653
G1 X9.872 Y-8.938 E1.74541
G1 X10.079 Y-8.907 E1.75444
G1 X10.152 Y-8.872 E1.75789
G1 X10.211 Y-8.817 E1.76135
G1 X10.269 Y-8.669 E1.76818
G1 X10.263 Y-8.589 E1.77163
G1 X10.186 Y-8.394 E1.78066
G1 X0.314 Y8.705 E2.62954
G1 X0.183 Y8.869 E2.63857
G1 X0.117 Y8.914 E2.64202
G1 X0.040 Y8.938 E2.64547
G1 X-0.060 Y8.932 E2.64977
G1 X10.738 Y-8.939 F15000.000
G1 F1200
G1 X10.790 Y-8.708 E2.65992
G1 X10.772 Y-8.473 E2.67008
G1 X10.653 Y-8.169 E2.68412
G1 X0.743 Y8.997 E3.53634
G1 X0.539 Y9.252 E3.55038
G1 X0.344 Y9.385 E3.56054
G1 X0.118 Y9.455 E3.57069
G1 X-0.118 Y9.455 E3.58085
G1 X-0.344 Y9.385 E3.59100
G1 X-0.539 Y9.252 E3.60116
G1 X-0.743 Y8.997 E3.61520
G1 X-10.653 Y-8.169 E4.46742
G1 X-10.772 Y-8.473 E4.48146
G1 X-10.790 Y-8.708 E4.49162
G1 X-10.738 Y-8.939 E4.50177
G1 X-10.619 Y-9.143 E4.51193
G1 X-10.446 Y-9.304 E4.52208
G1 X-10.234 Y-9.406 E4.53224
G1 X-9.911 Y-9.455 E4.54628
G1 X9.911 Y-9.455 E5.39849
G1 X10.234 Y-9.406 E5.41254
G1 X10.446 Y-9.304 E5.42270
G1 X10.619 Y-9.143 E5.43285
G1 X10.708 Y-8.991 E5.44043
G1 X0.000 Y9.972 F15000.000
G1 F1200
G1 X-0.196 Y9.972 E5.44885
G1 X-0.571 Y9.856 E5.46571
G1 X-0.895 Y9.636 E5.48257
G1 X-1.171 Y9.289 E5.50163
G1 X-11.120 Y-7.944 E6.35717
G1 X-11.282 Y-8.356 E6.37624
G1 X-11.312 Y-8.747 E6.39309
G1 X-11.224 Y-9.130 E6.40995
G1 X-11.028 Y-9.469 E6.42681
G1 X-10.741 Y-9.736 E6.44367
G1 X-10.388 Y-9.906 E6.46052
G1 X-9.949 Y-9.972 E6.47959
G1 X9.949 Y-9.972 E7.33513
G1 X10.388 Y-9.906 E7.35419
G1 X10.741 Y-9.736 E7.37105
G1 X11.028 Y-9.469 E7.38791
G1 X11.224 Y-9.130 E7.40476
G1 X11.312 Y-8.747 E7.42162
G1 X11.282 Y-8.356 E7.43848
G1 X11.120 Y-7.944 E7.45754
G1 X1.171 Y9.289 E8.31308
G1 X0.895 Y9.636 E8.33215
G1 X0.571 Y9.856 E8.34900
G1 X0.196 Y9.972 E8.36586
G1 X0.060 Y9.972 E8.37171
G1 X0.000 Y10.429 F15000.000
G1 F1200
G1 X-0.265 Y10.429 E8.38046
G1 X-0.771 Y10.273 E8.39795
G1 X-1.209 Y9.974 E8.41545
G1 X-1.550 Y9.547 E8.43349
G1 X-11.533 Y-7.745 E9.09275
G1 X-11.733 Y-8.254 E9.11079
G1 X-11.773 Y-8.782 E9.12829
G1 X-11.655 Y-9.298 E9.14578
G1 X-11.390 Y-9.757 E9.16327
G1 X-11.001 Y-10.118 E9.18077
G1 X-10.524 Y-10.348 E9.19826
G1 X-9.984 Y-10.429 E9.21631
G1 X9.984 Y-10.429 E9.87557
G1 X10.524 Y-10.348 E9.89361
G1 X11.001 Y-10.118 E9.91110
G1 X11.390 Y-9.757 E9.92860
G1 X11.655 Y-9.298 E9.94609
G1 X11.773 Y-8.782 E9.96359
G1 X11.733 Y-8.254 E9.98108
G1 X11.533 Y-7.745 E9.99913
G1 X1.550 Y9.547 E10.65838
G1 X1.209 Y9.974 E10.67643
G1 X0.771 Y10.273 E10.69392
G1 X0.265 Y10.429 E10.71142
G1 X0.060 Y10.429 E10.71818
G1 X-0.147 Y10.209 F15000.000
G1 X0.201 Y8.416 F15000.000
G1 F1200
G1 X-0.201 Y8.013 E10.74324
G1 X-1.225 Y6.240 E10.83345
G1 X0.475 Y7.941 E10.93940
G1 X0.750 Y7.466 E10.96357
G1 X-2.249 Y4.467 E11.15041
G1 X-3.272 Y2.694 E11.24061
G1 X1.024 Y6.991 E11.50832
G1 X1.298 Y6.515 E11.53249
G1 X-4.296 Y0.921 E11.88108
G1 X-5.320 Y-0.852 E11.97128
G1 X1.573 Y6.040 E12.40075
G1 X1.847 Y5.565 E12.42492
G1 X-6.343 Y-2.625 E12.93526
G1 X-7.367 Y-4.398 E13.02546
G1 X2.121 Y5.090 E13.61668
G1 X2.395 Y4.615 E13.64085
G1 X-8.391 Y-6.171 E14.31295
G1 X-9.414 Y-7.944 E14.40315
G1 X2.670 Y4.140 E15.15612
G1 X2.944 Y3.665 E15.18030
G1 X-9.343 Y-8.622 E15.94588
G1 X-8.593 Y-8.621 E15.97892
G1 X3.218 Y3.190 E16.71488
G1 X3.493 Y2.715 E16.73905
G1 X-7.843 Y-8.621 E17.44540
G1 X-7.094 Y-8.621 E17.47843
G1 X3.767 Y2.240 E18.15516
G1 X4.041 Y1.765 E18.17933
G1 X-6.344 Y-8.620 E18.82644
G1 X-5.594 Y-8.620 E18.85947
G1 X4.316 Y1.290 E19.47695
G1 X4.590 Y0.814 E19.50112
G1 X-4.845 Y-8.620 E20.08899
G1 X-4.095 Y-8.620 E20.12202
G1 X4.864 Y0.339 E20.68026
G1 X5.138 Y-0.136 E20.70443
G1 X-3.345 Y-8.619 E21.23305
G1 X-2.596 Y-8.619 E21.26608
G1 X5.413 Y-0.611 E21.76509
G1 X5.687 Y-1.086 E21.78926
G1 X-1.846 Y-8.619 E22.25864
G1 X-1.096 Y-8.618 E22.29167
G1 X5.961 Y-1.561 E22.73143
G1 X6.236 Y-2.036 E22.75560
G1 X-0.347 Y-8.618 E23.16574
G1 X0.403 Y-8.618 E23.19877
G1 X6.510 Y-2.511 E23.57928
G1 X6.784 Y-2.986 E23.60346
G1 X1.153 Y-8.618 E23.95435
G1 X1.902 Y-8.617 E23.98738
G1 X7.058 Y-3.461 E24.30866
G1 X7.333 Y-3.936 E24.33283
G1 X2.652 Y-8.617 E24.62448
G1 X3.402 Y-8.617 E24.65751
G1 X7.607 Y-4.411 E24.91955
G1 X7.881 Y-4.887 E24.94372
G1 X4.151 Y-8.616 E25.17613
G1 X4.901 Y-8.616 E25.20916
G1 X8.156 Y-5.362 E25.41196
G1 X8.430 Y-5.837 E25.43613
G1 X5.651 Y-8.616 E25.60930
G1 X6.400 Y-8.616 E25.64233
G1 X8.704 Y-6.312 E25.78588
G1 X8.978 Y-6.787 E25.81005
G1 X7.150 Y-8.615 E25.92398
G1 X7.900 Y-8.615 E25.95701
G1 X9.253 Y-7.262 E26.04132
G1 X9.527 Y-7.737 E26.06549
G1 X8.649 Y-8.615 E26.12018
G1 X9.399 Y-8.614 E26.15321
G1 X9.801 Y-8.212 E26.17827
;LAYER:4
G92 E0
G1 Z1.000 F15000.000
G1 X-0.000 Y8.215 F15000.000
G1 F1200
G1 X-9.604 Y-8.421 E0.82589
G1 X9.600 Y-8.412 E1.65157
G1 X0.030 Y8.163 E2.47447
G1 X-0.117 Y8.914 F15000.000
G1 F1200
G1 X-0.183 Y8.869 E2.47792
G1 X-0.314 Y8.705 E2.48695
G1 X-10.186 Y-8.394 E3.33583
G1 X-10.263 Y-8.589 E3.34486
G1 X-10.269 Y-8.669 E3.34831
G1 X-10.211 Y-8.817 E3.35514
G1 X-10.079 Y-8.907 E3.36197
G1 X-9.872 Y-8.938 E3.37098
G1 X9.930 Y-8.929 E4.22240
G1 X10.079 Y-8.907 E4.22888
G1 X10.152 Y-8.872 E4.23233
G1 X10.211 Y-8.817 E4.23578
G1 X10.269 Y-8.669 E4.24261
G1 X10.263 Y-8.589 E4.24607
G1 X10.186 Y-8.394 E4.25510
G1 X0.314 Y8.705 E5.10397
G1 X0.183 Y8.869 E5.11300
G1 X0.117 Y8.914 E5.11646
G1 X0.040 Y8.938 E5.11991
G1 X-0.060 Y8.932 E5.12421
G92 E0
G1 X10.738 Y-8.939 F15000.000
G1 F1200
G1 X10.790 Y-8.708 E0.01015
G1 X10.772 Y-8.473 E0.02031
G1 X10.653 Y-8.169 E0.03436
G1 X0.743 Y8.997 E0.88657
G1 X0.539 Y9.252 E0.90061
G1 X0.344 Y9.385 E0.91077
G1 X0.118 Y9.455 E0.92092
G1 X-0.118 Y9.455 E0.93108
G1 X-0.344 Y9.385 E0.94123
G1 X-0.539 Y9.252 E0.95139
G1 X-0.743 Y8.997 E0.96544
G1 X-10.653 Y-8.169 E1.81765
G1 X-10.772 Y-8.473 E1.83169
G1 X-10.790 Y-8.708 E1.84185
G1 X-10.738 Y-8.939 E1.85200
G1 X-10.619 Y-9.143 E1.86216
G1 X-10.446 Y-9.304 E1.87231
G1 X-10.234 Y-9.406 E1.88247
G1 X-9.911 Y-9.455 E1.89650
G1 X9.969 Y-9.446 E2.75125
G1 X10.234 Y-9.406 E2.76274
G1 X10.446 Y-9.304 E2.77290
G1 X10.619 Y-9.143 E2.78305
G1 X10.708 Y-8.991 E2.79063
G92 E0
G1 X0.000 Y9.972 F15000.000
G1 F1200
G1 X-0.196 Y9.972 E0.00843
G1 X-0.571 Y9.856 E0.02529
G1 X-0.895 Y9.636 E0.04214
G1 X-1.171 Y9.289 E0.06121
G1 X-11.120 Y-7.944 E0.91675
G1 X-11.282 Y-8.356 E0.93581
G1 X-11.312 Y-8.747 E0.95267
G1 X-11.224 Y-9.130 E0.96953
G1 X-11.028 Y-9.469 E0.98638
G1 X-10.741 Y-9.736 E1.00324
G1 X-10.388 Y-9.906 E1.02010
G1 X-9.949 Y-9.972 E1.03915
G1 X10.008 Y-9.963 E1.89723
G1 X10.388 Y-9.906 E1.91374
G1 X10.741 Y-9.736 E1.93060
G1 X11.028 Y-9.469 E1.94745
G1 X11.224 Y-9.130 E1.96431
G1 X11.312 Y-8.747 E1.98117
G1 X11.282 Y-8.356 E1.99802
G1 X11.120 Y-7.944 E2.01709
G1 X1.171 Y9.289 E2.87263
G1 X0.895 Y9.636 E2.89169
G1 X0.571 Y9.856 E2.90855
G1 X0.196 Y9.972 E2.92541
G1 X0.060 Y9.972 E2.93126
G1 X0.000 Y10.429 F15000.000
G1 F1200
G1 X-0.265 Y10.429 E2.94000
G1 X-0.771 Y10.273 E2.95750
G1 X-1.209 Y9.974 E2.97499
G1 X-1.550 Y9.547 E2.99304
G1 X-11.533 Y-7.745 E3.65229
G1 X-11.733 Y-8.254 E3.67034
G1 X-11.773 Y-8.782 E3.68783
G1 X-11.655 Y-9.298 E3.70533
G1 X-11.390 Y-9.757 E3.72282
G1 X-11.001 Y-10.118 E3.74031
G1 X-10.524 Y-10.348 E3.75781
G1 X-9.984 Y-10.429 E3.77585
G1 X10.042 Y-10.420 E4.43706
G1 X10.524 Y-10.348 E4.45313
G1 X11.001 Y-10.118 E4.47063
G1 X11.390 Y-9.757 E4.48812
G1 X11.655 Y-9.298 E4.50562
G1 X11.773 Y-8.782 E4.52311
G1 X11.733 Y-8.254 E4.54060
G1 X11.533 Y-7.745 E4.55865
G1 X1.550 Y9.547 E5.21791
G1 X1.209 Y9.974 E5.23595
G1 X0.771 Y10.273 E5.25345
G1 X0.265 Y10.429 E5.27094
G1 X0.060 Y10.429 E5.27771
G1 X-0.147 Y10.209 F15000.000
G92 E0
G1 X-0.481 Y-3.151 F15000.000
G1 F1200
G1 X0.481 Y-3.150 E0.04221
G1 X-0.000 Y-2.317 E0.08440
G1 X-0.451 Y-3.099 E0.12399
G1 X-1.395 Y-3.679 F15000.000
G1 F1200
G1 X1.395 Y-3.677 E0.24640
G1 X-0.000 Y-1.262 E0.36877
G1 X-1.365 Y-3.627 E0.48858
G1 X-2.309 Y-4.207 F15000.000
G1 F1200
G1 X2.308 Y-4.205 E0.69118
G1 X-0.000 Y-0.207 E0.89373
G1 X-2.279 Y-4.155 E1.09376
G1 X-2.366 Y-3.248 F15000.000
G1 F1200
G1 X-3.224 Y-4.735 E1.16906
G1 X3.222 Y-4.732 E1.45186
G1 X-0.000 Y0.849 E1.73459
G1 X-2.336 Y-3.196 E1.93953
G1 X-2.820 Y-2.980 F15000.000
G1 F1200
G1 X-4.138 Y-5.263 E2.05520
G1 X4.136 Y-5.259 E2.41820
G1 X-0.000 Y1.904 E2.78111
G1 X-2.790 Y-2.928 E3.02590
G1 X-3.277 Y-2.716 F15000.000
G1 F1200
G1 X-5.052 Y-5.791 E3.18169
G1 X5.049 Y-5.786 E3.62489
G1 X-0.000 Y2.959 E4.06797
G1 X-3.247 Y-2.664 E4.35287
G1 X-3.734 Y-2.452 F15000.000
G1 F1200
G1 X-5.966 Y-6.319 E4.54877
G1 X5.963 Y-6.314 E5.07217
G1 X-0.000 Y4.015 E5.59543
G1 X-3.704 Y-2.400 E5.92042
G1 X-4.191 Y-2.188 F15000.000
G1 F1200
G1 X-6.880 Y-6.847 E6.15645
G1 X6.877 Y-6.841 E6.76005
G1 X-0.000 Y5.070 E7.36349
G1 X-4.161 Y-2.136 E7.72858
G1 X-4.648 Y-1.924 F15000.000
G1 F1200
G1 X-7.794 Y-7.375 E8.00472
G1 X7.790 Y-7.368 E8.68852
G1 X-0.000 Y6.125 E9.37214
G1 X-4.618 Y-1.872 E9.77732
G1 X-5.104 Y-1.661 F15000.000
G1 F1200
G1 X-8.709 Y-7.903 E10.09359
G1 X8.704 Y-7.895 E10.85758
G1 X-0.000 Y7.181 E11.62138
G1 X-5.074 Y-1.609 E12.06667
;LAYER:5
G92 E0
G1 Z1.200 F15000.000
G1 X-0.000 Y7.317 F15000.000
G1 F1200
G1 X-0.577 Y6.319 E0.04958
G1 X0.576 Y6.320 E0.09913
G1 X0.030 Y7.265 E0.14607
G1 X-0.000 Y8.231 F15000.000
G1 F1200
G1 X-1.369 Y5.861 E0.23646
G1 X1.367 Y5.864 E0.32679
G1 X0.030 Y8.179 E0.41508
G1 X0.400 Y8.231 F15000.000
G92 E0
G1 X-3.169 Y2.742 F15000.000
G1 F1200
G1 X-3.949 Y1.391 E0.05150
G1 X-3.017 Y0.855 E0.08701
G1 X-2.238 Y2.204 E0.13845
G1 X-3.118 Y2.712 E0.17198
G1 X-3.296 Y2.362 F15000.000
G92 E0
G1 X-4.681 Y0.124 F15000.000
G1 F1200
G1 X-5.113 Y-0.624 E0.02852
G1 X-4.180 Y-1.160 E0.06403
G1 X-3.761 Y-0.434 E0.09170
G1 X-4.630 Y0.093 E0.12524
G1 X-4.770 Y-0.266 F15000.000
G1 X-5.669 Y-1.588 F15000.000
G1 F1200
G1 X-6.449 Y-2.939 E0.17674
G1 X-5.517 Y-3.475 E0.21225
G1 X-4.738 Y-2.126 E0.26369
G1 X-5.618 Y-1.618 E0.29722
G1 X-5.796 Y-1.968 F15000.000
G92 E0
G1 X-8.250 Y-6.972 F15000.000
G1 F1200
G1 X-8.827 Y-7.971 E0.04958
G1 X-7.674 Y-7.970 E0.09913
G1 X-8.220 Y-7.024 E0.14607
G1 X-8.250 Y-6.058 F15000.000
G1 F1200
G1 X-9.619 Y-8.429 E0.23646
G1 X-6.883 Y-8.426 E0.32679
G1 X-8.220 Y-6.110 E0.41508
G1 X-7.850 Y-6.058 F15000.000
G92 E0
G1 X8.250 Y-6.972 F15000.000
G1 F1200
G1 X7.673 Y-7.971 E0.04958
G1 X8.826 Y-7.970 E0.09913
G1 X8.280 Y-7.024 E0.14607
G1 X8.250 Y-6.058 F15000.000
G1 F1200
G1 X6.881 Y-8.429 E0.23646
G1 X9.617 Y-8.426 E0.32679
G1 X8.280 Y-6.110 E0.41508
G1 X8.650 Y-6.058 F15000.000
;LAYER:6
G92 E0
G1 Z1.400 F15000.000
G1 X-0.000 Y7.317 F15000.000
G1 F1200
G1 X-0.575 Y6.321 E0.04946
G1 X0.573 Y6.325 E0.09883
G1 X0.030 Y7.265 E0.14554
G1 X-0.000 Y8.231 F15000.000
G1 F1200
G1 X-1.368 Y5.862 E0.23589
G1 X1.363 Y5.870 E0.32609
G1 X0.030 Y8.179 E0.41414
G1 X0.400 Y8.231 F15000.000
G92 E0
G1 X-3.169 Y2.742 F15000.000
G1 F1200
G1 X-3.949 Y1.392 E0.05147
G1 X-3.015 Y0.858 E0.08699
G1 X-2.238 Y2.204 E0.13829
G1 X-3.118 Y2.712 E0.17182
G1 X-3.296 Y2.362 F15000.000
G92 E0
G1 X-4.485 Y0.463 F15000.000
G1 F1200
G1 X-5.299 Y-0.947 E0.05377
G1 X-4.368 Y-1.485 E0.08928
G1 X-3.558 Y-0.082 E0.14280
G1 X-4.433 Y0.433 E0.17633
G1 X-4.614 Y0.085 F15000.000
G1 X-4.463 Y-0.066 F15000.000
G1 F1200
G1 X-4.061 Y-0.468 E0.20380
G1 X-4.392 Y-0.959 F15000.000
G1 F1200
G1 X-4.794 Y-0.557 E0.23128
G1 X-5.669 Y-1.588 F15000.000
G1 F1200
G1 X-6.449 Y-2.939 E0.28276
G1 X-5.515 Y-3.472 E0.31827
G1 X-4.738 Y-2.126 E0.36958
G1 X-5.618 Y-1.618 E0.40311
G1 X-5.796 Y-1.968 F15000.000
G92 E0
G1 X-8.250 Y-6.972 F15000.000
G1 F1200
G1 X-8.825 Y-7.968 E0.04946
G1 X-7.677 Y-7.965 E0.09883
G1 X-8.220 Y-7.024 E0.14554
G1 X-8.250 Y-6.058 F15000.000
G1 F1200
G1 X-9.618 Y-8.428 E0.23589
G1 X-6.887 Y-8.420 E0.32609
G1 X-8.220 Y-6.110 E0.41414
G1 X-7.850 Y-6.058 F15000.000
G92 E0
G1 X8.250 Y-6.972 F15000.000
G1 F1200
G1 X7.675 Y-7.968 E0.04946
G1 X8.823 Y-7.965 E0.09883
G1 X8.280 Y-7.024 E0.14554
G1 X8.250 Y-6.058 F15000.000
G1 F1200
G1 X6.882 Y-8.428 E0.23589
G1 X9.613 Y-8.420 E0.32609
G1 X8.280 Y-6.110 E0.41414
G1 X8.650 Y-6.058 F15000.000
;LAYER:7
G92 E0
G1 Z1.600 F15000.000
G1 X-0.000 Y7.317 F15000.000
G1 F1200
G1 X-0.577 Y6.317 E0.04964
G1 X0.577 Y6.317 E0.09928
G1 X0.030 Y7.265 E0.14634
G1 X-0.000 Y8.231 F15000.000
G1 F1200
G1 X-1.369 Y5.860 E0.23674
G1 X1.369 Y5.860 E0.32713
G1 X0.030 Y8.179 E0.41555
G1 X0.400 Y8.231 F15000.000
G92 E0
G1 X-3.169 Y2.742 F15000.000
G1 F1200
G1 X-3.949 Y1.392 E0.05145
G1 X-3.013 Y0.862 E0.08696
G1 X-2.238 Y2.204 E0.13814
G1 X-3.118 Y2.712 E0.17167
G1 X-3.296 Y2.362 F15000.000
G92 E0
G1 X-4.378 Y0.648 F15000.000
G1 F1200
G1 X-6.449 Y-2.938 E0.13672
G1 X-5.513 Y-3.468 E0.17223
G1 X-3.450 Y0.104 E0.30843
G1 X-4.326 Y0.618 E0.34196
G1 X-4.548 Y0.286 F15000.000
G1 X-4.029 Y0.178 F15000.000
G1 F1200
G1 X-5.867 Y-3.005 E0.51788
G92 E0
G1 X-8.250 Y-6.972 F15000.000
G1 F1200
G1 X-8.827 Y-7.972 E0.04964
G1 X-7.673 Y-7.972 E0.09928
G1 X-8.220 Y-7.024 E0.14634
G1 X-8.250 Y-6.058 F15000.000
G1 F1200
G1 X-9.619 Y-8.429 E0.23674
G1 X-6.881 Y-8.429 E0.32713
G1 X-8.220 Y-6.110 E0.41555
G1 X-7.850 Y-6.058 F15000.000
G92 E0
G1 X8.250 Y-6.972 F15000.000
G1 F1200
G1 X7.673 Y-7.972 E0.04964
G1 X8.827 Y-7.972 E0.09928
G1 X8.280 Y-7.024 E0.14634
G1 X8.250 Y-6.058 F15000.000
G1 F1200
G1 X6.881 Y-8.429 E0.23674
G1 X9.619 Y-8.429 E0.32713
G1 X8.280 Y-6.110 E0.41555
G1 X8.650 Y-6.058 F15000.000
;LAYER:8
G92 E0
G1 Z1.800 F15000.000
G1 X-0.000 Y7.317 F15000.000
G1 F1200
G1 X-0.577 Y6.317 E0.04964
G1 X0.577 Y6.317 E0.09928
G1 X0.030 Y7.265 E0.14634
G1 X-0.000 Y8.231 F15000.000
G1 F1200
G1 X-1.369 Y5.860 E0.23674
G1 X1.369 Y5.860 E0.32713
G1 X0.030 Y8.179 E0.41555
G1 X0.400 Y8.231 F15000.000
G92 E0
G1 X-3.169 Y2.742 F15000.000
G1 F1200
G1 X-3.949 Y1.391 E0.05151
G1 X-3.018 Y0.853 E0.08702
G1 X-2.238 Y2.204 E0.13853
G1 X-3.118 Y2.712 E0.17206
G1 X-3.296 Y2.362 F15000.000
G1 X-3.146 Y2.216 F15000.000
G1 F1200
G1 X-2.743 Y1.814 E0.19659
G1 X-3.006 Y1.358 E0.21926
G1 X-3.444 Y1.781 E0.24549
G1 X-4.306 Y0.774 F15000.000
G1 F1200
G1 X-6.449 Y-2.939 E0.38705
G1 X-5.518 Y-3.477 E0.42257
G1 X-3.375 Y0.235 E0.56409
G1 X-4.254 Y0.744 E0.59762
G1 X-4.477 Y0.412 F15000.000
G1 X-3.955 Y0.306 F15000.000
G1 F1200
G1 X-5.869 Y-3.010 E0.78090
G92 E0
G1 X-8.250 Y-6.972 F15000.000
G1 F1200
G1 X-8.827 Y-7.972 E0.04964
G1 X-7.673 Y-7.972 E0.09928
G1 X-8.220 Y-7.024 E0.14634
G1 X-8.250 Y-6.058 F15000.000
G1 F1200
G1 X-9.619 Y-8.429 E0.23674
G1 X-6.881 Y-8.429 E0.32713
G1 X-8.220 Y-6.110 E0.41555
G1 X-7.850 Y-6.058 F15000.000
G92 E0
G1 X8.250 Y-6.972 F15000.000
G1 F1200
G1 X7.673 Y-7.972 E0.04964
G1 X8.827 Y-7.972 E0.09928
G1 X8.280 Y-7.024 E0.14634
G1 X8.250 Y-6.058 F15000.000
G1 F1200
G1 X6.881 Y-8.429 E0.23674
G1 X9.619 Y-8.429 E0.32713
G1 X8.280 Y-6.110 E0.41555
G1 X8.650 Y-6.058 F15000.000
;LAYER:9
G92 E0
G1 Z2.000 F15000.000
G1 X-0.000 Y7.317 F15000.000
G1 F1200
G1 X-0.577 Y6.317 E0.04964
G1 X0.577 Y6.317 E0.09928
G1 X0.030 Y7.265 E0.14634
G1 X-0.000 Y8.231 F15000.000
G1 F1200
G1 X-1.369 Y5.860 E0.23674
G1 X1.369 Y5.860 E0.32713
G1 X0.030 Y8.179 E0.41555
G1 X0.400 Y8.231 F15000.000
G92 E0
G1 X-3.169 Y2.742 F15000.000
G1 F1200
G1 X-3.949 Y1.391 E0.05151
G1 X-3.018 Y0.853 E0.08702
G1 X-2.238 Y2.204 E0.13853
G1 X-3.118 Y2.712 E0.17206
G1 X-3.296 Y2.362 F15000.000
G92 E0
G1 X-4.257 Y0.858 F15000.000
G1 F1200
G1 X-4.641 Y0.194 E0.02531
G1 X-3.710 Y-0.345 E0.06083
G1 X-3.327 Y0.318 E0.08611
G1 X-4.205 Y0.827 E0.11964
G1 X-4.339 Y0.466 F15000.000
G1 X-5.139 Y-0.670 F15000.000
G1 F1200
G1 X-6.449 Y-2.939 E0.20617
G1 X-5.518 Y-3.477 E0.24168
G1 X-4.207 Y-1.206 E0.32827
G1 X-5.087 Y-0.700 E0.36181
G1 X-5.293 Y-1.039 F15000.000
G1 X-4.787 Y-1.136 F15000.000
G1 F1200
G1 X-5.869 Y-3.010 E0.46540
G92 E0
G1 X-8.250 Y-6.972 F15000.000
G1 F1200
G1 X-8.827 Y-7.972 E0.04964
G1 X-7.673 Y-7.972 E0.09928
G1 X-8.220 Y-7.024 E0.14634
G1 X-8.250 Y-6.058 F15000.000
G1 F1200
G1 X-9.619 Y-8.429 E0.23674
G1 X-6.881 Y-8.429 E0.32713
G1 X-8.220 Y-6.110 E0.41555
G1 X-7.850 Y-6.058 F15000.000
G92 E0
G1 X8.250 Y-6.972 F15000.000
G1 F1200
G1 X7.673 Y-7.972 E0.04964
G1 X8.827 Y-7.972 E0.09928
G1 X8.280 Y-7.024 E0.14634
G1 X8.250 Y-6.058 F15000.000
G1 F1200
G1 X6.881 Y-8.429 E0.23674
G1 X9.619 Y-8.429 E0.32713
G1 X8.280 Y-6.110 E0.41555
G1 X8.650 Y-6.058 F15000.000
;LAYER:10
G92 E0
G1 Z2.200 F15000.000
G1 X-0.000 Y7.317 F15000.000
G1 F1200
G1 X-0.577 Y6.317 E0.04964
G1 X0.577 Y6.317 E0.09928
G1 X0.030 Y7.265 E0.14634
G1 X-0.000 Y8.231 F15000.000
G1 F1200
G1 X-1.369 Y5.860 E0.23674
G1 X1.369 Y5.860 E0.32713
G1 X0.030 Y8.179 E0.41555
G1 X0.400 Y8.231 F15000.000
G92 E0
G1 X-3.169 Y2.742 F15000.000
G1 F1200
G1 X-3.949 Y1.391 E0.05151
G1 X-3.018 Y0.853 E0.08702
G1 X-2.238 Y2.204 E0.13853
G1 X-3.118 Y2.712 E0.17206
G1 X-3.296 Y2.362 F15000.000
G1 X-3.146 Y2.216 F15000.000
G1 F1200
G1 X-2.743 Y1.814 E0.19659
G1 X-3.006 Y1.358 E0.21926
G1 X-3.444 Y1.781 E0.24549
G1 X-4.223 Y0.917 F15000.000
G1 F1200
G1 X-4.572 Y0.312 E0.26856
G1 X-3.641 Y-0.226 E0.30407
G1 X-3.293 Y0.376 E0.32705
G1 X-4.171 Y0.887 E0.36058
G1 X-4.266 Y0.519 F15000.000
G1 X-4.200 Y0.500 F15000.000
G1 F1200
G1 X-3.769 Y0.250 E0.36874
G1 X-3.725 Y0.086 E0.37151
G1 X-5.210 Y-0.792 F15000.000
G1 F1200
G1 X-6.449 Y-2.939 E0.45337
G1 X-5.518 Y-3.477 E0.48888
G1 X-4.278 Y-1.330 E0.57076
G1 X-5.158 Y-0.822 E0.60429
G1 X-5.361 Y-1.163 F15000.000
G1 X-4.858 Y-1.259 F15000.000
G1 F1200
G1 X-5.869 Y-3.010 E0.70108
G92 E0
G1 X-8.250 Y-6.972 F15000.000
G1 F1200
G1 X-8.827 Y-7.972 E0.04964
G1 X-7.673 Y-7.972 E0.09928
G1 X-8.220 Y-7.024 E0.14634
G1 X-8.250 Y-6.058 F15000.000
G1 F1200
G1 X-9.619 Y-8.429 E0.23674
G1 X-6.881 Y-8.429 E0.32713
G1 X-8.220 Y-6.110 E0.41555
G1 X-7.850 Y-6.058 F15000.000
G92 E0
G1 X8.250 Y-6.972 F15000.000
G1 F1200
G1 X7.673 Y-7.972 E0.04964
G1 X8.827 Y-7.972 E0.09928
G1 X8.280 Y-7.024 E0.14634
G1 X8.250 Y-6.058 F15000.000
G1 F1200
G1 X6.881 Y-8.429 E0.23674
G1 X9.619 Y-8.429 E0.32713
G1 X8.280 Y-6.110 E0.41555
G1 X8.650 Y-6.058 F15000.000
;LAYER:11
G92 E0
G1 Z2.400 F15000.000
G1 X-0.000 Y7.317 F15000.000
G1 F1200
G1 X-0.577 Y6.317 E0.04964
G1 X0.577 Y6.317 E0.09928
G1 X0.030 Y7.265 E0.14634
G1 X-0.000 Y8.231 F15000.000
G1 F1200
G1 X-1.369 Y5.860 E0.23674
G1 X1.369 Y5.860 E0.32713
G1 X0.030 Y8.179 E0.41555
G1 X0.400 Y8.231 F15000.000
G92 E0
G1 X-3.169 Y2.742 F15000.000
G1 F1200
G1 X-4.545 Y0.359 E0.09085
G1 X-3.617 Y-0.185 E0.12636
G1 X-2.238 Y2.204 E0.21744
G1 X-3.118 Y2.712 E0.25097
G1 X-3.325 Y2.373 F15000.000
G1 X-2.818 Y2.275 F15000.000
G1 F1200
G1 X-3.967 Y0.285 E0.36094
G1 X-5.242 Y-0.847 F15000.000
G1 F1200
G1 X-6.449 Y-2.939 E0.44070
G1 X-5.518 Y-3.477 E0.47621
G1 X-4.310 Y-1.385 E0.55597
G1 X-5.190 Y-0.877 E0.58950
G1 X-5.334 Y-1.237 F15000.000
G1 X-4.890 Y-1.314 F15000.000
G1 F1200
G1 X-5.869 Y-3.010 E0.68323
G92 E0
G1 X-8.250 Y-6.972 F15000.000
G1 F1200
G1 X-8.827 Y-7.972 E0.04964
G1 X-7.673 Y-7.972 E0.09928
G1 X-8.220 Y-7.024 E0.14634
G1 X-8.250 Y-6.058 F15000.000
G1 F1200
G1 X-9.619 Y-8.429 E0.23674
G1 X-6.881 Y-8.429 E0.32714
G1 X-8.220 Y-6.110 E0.41555
G1 X-7.850 Y-6.058 F15000.000
G92 E0
G1 X8.250 Y-6.972 F15000.000
G1 F1200
G1 X7.673 Y-7.972 E0.04964
G1 X8.827 Y-7.972 E0.09928
G1 X8.280 Y-7.024 E0.14634
G1 X8.250 Y-6.058 F15000.000
G1 F1200
G1 X6.881 Y-8.429 E0.23674
G1 X9.619 Y-8.429 E0.32714
G1 X8.280 Y-6.110 E0.41555
G1 X8.650 Y-6.058 F15000.000
;LAYER:12
G92 E0
G1 Z2.600 F15000.000
G1 X-0.000 Y7.317 F15000.000
G1 F1200
G1 X-0.577 Y6.317 E0.04964
G1 X0.577 Y6.317 E0.09928
G1 X0.030 Y7.265 E0.14634
G1 X-0.000 Y8.231 F15000.000
G1 F1200
G1 X-1.369 Y5.860 E0.23674
G1 X1.369 Y5.860 E0.32713
G1 X0.030 Y8.179 E0.41555
G1 X0.400 Y8.231 F15000.000
G92 E0
G1 X-3.169 Y2.742 F15000.000
G1 F1200
G1 X-4.525 Y0.394 E0.08949
G1 X-3.595 Y-0.146 E0.12501
G1 X-2.238 Y2.204 E0.21458
G1 X-3.118 Y2.712 E0.24811
G1 X-3.324 Y2.373 F15000.000
G1 X-2.818 Y2.275 F15000.000
G1 F1200
G1 X-3.945 Y0.322 E0.35601
G1 X-5.255 Y-0.871 F15000.000
G1 F1200
G1 X-6.449 Y-2.939 E0.43487
G1 X-5.518 Y-3.477 E0.47038
G1 X-4.319 Y-1.400 E0.54958
G1 X-5.203 Y-0.901 E0.58311
G1 X-5.405 Y-1.242 F15000.000
G1 X-4.901 Y-1.333 F15000.000
G1 F1200
G1 X-5.869 Y-3.010 E0.67578
G92 E0
G1 X-8.250 Y-6.972 F15000.000
G1 F1200
G1 X-8.827 Y-7.972 E0.04964
G1 X-7.673 Y-7.972 E0.09928
G1 X-8.220 Y-7.024 E0.14634
G1 X-8.250 Y-6.058 F15000.000
G1 F1200
G1 X-9.619 Y-8.429 E0.23674
G1 X-6.881 Y-8.429 E0.32713
G1 X-8.220 Y-6.110 E0.41555
G1 X-7.850 Y-6.058 F15000.000
G92 E0
G1 X8.250 Y-6.972 F15000.000
G1 F1200
G1 X7.673 Y-7.972 E0.04964
G1 X8.827 Y-7.972 E0.09928
G1 X8.280 Y-7.024 E0.14634
G1 X8.250 Y-6.058 F15000.000
G1 F1200
G1 X6.881 Y-8.429 E0.23674
G1 X9.619 Y-8.429 E0.32713
G1 X8.280 Y-6.110 E0.41555
G1 X8.650 Y-6.058 F15000.000
;LAYER:13
G92 E0
G1 Z2.800 F15000.000
G1 X-0.000 Y7.317 F15000.000
G1 F1200
G1 X-0.577 Y6.317 E0.04964
G1 X0.577 Y6.317 E0.09928
G1 X0.030 Y7.265 E0.14634
G1 X-0.000 Y8.231 F15000.000
G1 F1200
G1 X-1.369 Y5.860 E0.23674
G1 X1.369 Y5.860 E0.32713
G1 X0.030 Y8.179 E0.41555
G1 X0.400 Y8.231 F15000.000
G92 E0
G1 X-3.169 Y2.742 F15000.000
G1 F1200
G1 X-4.512 Y0.416 E0.08866
G1 X-3.582 Y-0.124 E0.12417
G1 X-2.238 Y2.204 E0.21293
G1 X-3.118 Y2.712 E0.24646
G1 X-3.324 Y2.373 F15000.000
G1 X-2.818 Y2.275 F15000.000
G1 F1200
G1 X-3.933 Y0.344 E0.35316
G1 X-5.265 Y-0.888 F15000.000
G1 F1200
G1 X-6.449 Y-2.939 E0.43137
G1 X-5.518 Y-3.477 E0.46688
G1 X-4.326 Y-1.413 E0.54557
G1 X-5.213 Y-0.917 E0.57910
G1 X-5.414 Y-1.259 F15000.000
G1 X-4.910 Y-1.349 F15000.000
G1 F1200
G1 X-5.869 Y-3.010 E0.67093
G92 E0
G1 X-8.250 Y-6.972 F15000.000
G1 F1200
G1 X-8.827 Y-7.972 E0.04964
G1 X-7.673 Y-7.972 E0.09928
G1 X-8.220 Y-7.024 E0.14634
G1 X-8.250 Y-6.058 F15000.000
G1 F1200
G1 X-9.619 Y-8.429 E0.23674
G1 X-6.881 Y-8.429 E0.32713
G1 X-8.220 Y-6.110 E0.41555
G1 X-7.850 Y-6.058 F15000.000
G92 E0
G1 X8.250 Y-6.972 F15000.000
G1 F1200
G1 X7.673 Y-7.972 E0.04964
G1 X8.827 Y-7.972 E0.09928
G1 X8.280 Y-7.024 E0.14634
G1 X8.250 Y-6.058 F15000.000
G1 F1200
G1 X6.881 Y-8.429 E0.23674
G1 X9.619 Y-8.429 E0.32713
G1 X8.280 Y-6.110 E0.41555
G1 X8.650 Y-6.058 F15000.000
;LAYER:14
G92 E0
G1 Z3.000 F15000.000
G1 X-0.000 Y7.317 F15000.000
G1 F1200
G1 X-0.577 Y6.317 E0.04964
G1 X0.577 Y6.317 E0.09928
G1 X0.030 Y7.265 E0.14634
G1 X-0.000 Y8.231 F15000.000
G1 F1200
G1 X-1.369 Y5.860 E0.23674
G1 X1.369 Y5.860 E0.32713
G1 X0.030 Y8.179 E0.41555
G1 X0.400 Y8.231 F15000.000
G92 E0
G1 X-3.169 Y2.742 F15000.000
G1 F1200
G1 X-4.507 Y0.426 E0.08831
G1 X-3.578 Y-0.117 E0.12382
G1 X-2.238 Y2.204 E0.21232
G1 X-3.118 Y2.712 E0.24585
G1 X-3.317 Y2.370 F15000.000
G1 X-2.818 Y2.275 F15000.000
G1 F1200
G1 X-3.928 Y0.352 E0.35211
G1 X-5.270 Y-0.896 F15000.000
G1 F1200
G1 X-6.449 Y-2.939 E0.43001
G1 X-5.518 Y-3.477 E0.46552
G1 X-4.333 Y-1.425 E0.54375
G1 X-5.218 Y-0.926 E0.57729
G1 X-5.419 Y-1.267 F15000.000
G1 X-4.916 Y-1.359 F15000.000
G1 F1200
G1 X-5.869 Y-3.010 E0.66857
G92 E0
G1 X-8.250 Y-6.972 F15000.000
G1 F1200
G1 X-8.827 Y-7.972 E0.04964
G1 X-7.673 Y-7.972 E0.09928
G1 X-8.220 Y-7.024 E0.14634
G1 X-8.250 Y-6.058 F15000.000
G1 F1200
G1 X-9.619 Y-8.429 E0.23674
G1 X-6.881 Y-8.429 E0.32713
G1 X-8.220 Y-6.110 E0.41555
G1 X-7.850 Y-6.058 F15000.000
G92 E0
G1 X8.250 Y-6.972 F15000.000
G1 F1200
G1 X7.673 Y-7.972 E0.04964
G1 X8.827 Y-7.972 E0.09928
G1 X8.280 Y-7.024 E0.14634
G1 X8.250 Y-6.058 F15000.000
G1 F1200
G1 X6.881 Y-8.429 E0.23674
G1 X9.619 Y-8.429 E0.32713
G1 X8.280 Y-6.110 E0.41555
G1 X8.650 Y-6.058 F15000.000
;LAYER:15
G92 E0
G1 Z3.200 F15000.000
G1 X-0.000 Y7.317 F15000.000
G1 F1200
G1 X-0.577 Y6.317 E0.04964
G1 X0.577 Y6.317 E0.09928
G1 X0.030 Y7.265 E0.14634
G1 X-0.000 Y8.231 F15000.000
G1 F1200
G1 X-1.369 Y5.860 E0.23674
G1 X1.369 Y5.860 E0.32713
G1 X0.030 Y8.179 E0.41555
G1 X0.400 Y8.231 F15000.000
G92 E0
G1 X-3.169 Y2.742 F15000.000
G1 F1200
G1 X-4.506 Y0.427 E0.08825
G1 X-3.575 Y-0.112 E0.12376
G1 X-2.238 Y2.204 E0.21205
G1 X-3.118 Y2.712 E0.24558
G1 X-3.307 Y2.366 F15000.000
G1 X-2.818 Y2.275 F15000.000
G1 F1200
G1 X-3.926 Y0.355 E0.35166
G1 X-5.272 Y-0.899 F15000.000
G1 F1200
G1 X-6.449 Y-2.939 E0.42944
G1 X-5.518 Y-3.477 E0.46495
G1 X-4.340 Y-1.436 E0.54276
G1 X-5.220 Y-0.929 E0.57629
G1 X-5.420 Y-1.271 F15000.000
G1 X-4.920 Y-1.366 F15000.000
G1 F1200
G1 X-5.869 Y-3.010 E0.66718
G92 E0
G1 X-8.250 Y-6.972 F15000.000
G1 F1200
G1 X-8.827 Y-7.972 E0.04964
G1 X-7.673 Y-7.972 E0.09928
G1 X-8.220 Y-7.024 E0.14634
G1 X-8.250 Y-6.058 F15000.000
G1 F1200
G1 X-9.619 Y-8.429 E0.23674
G1 X-6.881 Y-8.429 E0.32713
G1 X-8.220 Y-6.110 E0.41555
G1 X-7.850 Y-6.058 F15000.000
G92 E0
G1 X8.250 Y-6.972 F15000.000
G1 F1200
G1 X7.673 Y-7.972 E0.04964
G1 X8.827 Y-7.972 E0.09928
G1 X8.280 Y-7.024 E0.14634
G1 X8.250 Y-6.058 F15000.000
G1 F1200
G1 X6.881 Y-8.429 E0.23674
G1 X9.619 Y-8.429 E0.32713
G1 X8.280 Y-6.110 E0.41555
G1 X8.650 Y-6.058 F15000.000
;LAYER:16
G92 E0
G1 Z3.400 F15000.000
G1 X-0.000 Y7.317 F15000.000
G1 F1200
G1 X-0.577 Y6.317 E0.04964
G1 X0.577 Y6.317 E0.09928
G1 X0.030 Y7.265 E0.14634
G1 X-0.000 Y8.231 F15000.000
G1 F1200
G1 X-1.369 Y5.860 E0.23674
G1 X1.369 Y5.860 E0.32713
G1 X0.030 Y8.179 E0.41555
G1 X0.400 Y8.231 F15000.000
G92 E0
G1 X-3.169 Y2.742 F15000.000
G1 F1200
G1 X-4.506 Y0.426 E0.08827
G1 X-3.576 Y-0.114 E0.12379
G1 X-2.238 Y2.204 E0.21216
G1 X-3.118 Y2.712 E0.24569
G1 X-3.312 Y2.368 F15000.000
G1 X-2.818 Y2.275 F15000.000
G1 F1200
G1 X-3.927 Y0.354 E0.35184
G1 X-5.271 Y-0.899 F15000.000
G1 F1200
G1 X-6.449 Y-2.939 E0.42965
G1 X-5.518 Y-3.477 E0.46516
G1 X-4.338 Y-1.433 E0.54310
G1 X-5.219 Y-0.928 E0.57663
G1 X-5.420 Y-1.270 F15000.000
G1 X-4.919 Y-1.364 F15000.000
G1 F1200
G1 X-5.869 Y-3.010 E0.66762
G92 E0
G1 X-8.250 Y-6.972 F15000.000
G1 F1200
G1 X-8.827 Y-7.972 E0.04964
G1 X-7.673 Y-7.972 E0.09928
G1 X-8.220 Y-7.024 E0.14634
G1 X-8.250 Y-6.058 F15000.000
G1 F1200
G1 X-9.619 Y-8.429 E0.23674
G1 X-6.881 Y-8.429 E0.32713
G1 X-8.220 Y-6.110 E0.41555
G1 X-7.850 Y-6.058 F15000.000
G92 E0
G1 X8.250 Y-6.972 F15000.000
G1 F1200
G1 X7.673 Y-7.972 E0.04964
G1 X8.827 Y-7.972 E0.09928
G1 X8.280 Y-7.024 E0.14634
G1 X8.250 Y-6.058 F15000.000
G1 F1200
G1 X6.881 Y-8.429 E0.23674
G1 X9.619 Y-8.429 E0.32713
G1 X8.280 Y-6.110 E0.41555
G1 X8.650 Y-6.058 F15000.000
;LAYER:17
G92 E0
G1 Z3.600 F15000.000
G1 X-0.000 Y7.317 F15000.000
G1 F1200
G1 X-0.577 Y6.317 E0.04964
G1 X0.577 Y6.317 E0.09928
G1 X0.030 Y7.265 E0.14634
G1 X-0.000 Y8.231 F15000.000
G1 F1200
G1 X-1.369 Y5.860 E0.23674
G1 X1.369 Y5.860 E0.32713
G1 X0.030 Y8.179 E0.41555
G1 X0.400 Y8.231 F15000.000
G92 E0
G1 X-3.169 Y2.742 F15000.000
G1 F1200
G1 X-4.509 Y0.422 E0.08844
G1 X-3.580 Y-0.120 E0.12396
G1 X-2.238 Y2.204 E0.21254
G1 X-3.118 Y2.712 E0.24607
G1 X-3.320 Y2.371 F15000.000
G1 X-2.818 Y2.275 F15000.000
G1 F1200
G1 X-3.930 Y0.349 E0.35250
G1 X-5.268 Y-0.893 F15000.000
G1 F1200
G1 X-6.449 Y-2.939 E0.43050
G1 X-5.518 Y-3.477 E0.46601
G1 X-4.334 Y-1.427 E0.54417
G1 X-5.216 Y-0.923 E0.57770
G1 X-5.417 Y-1.265 F15000.000
G1 X-4.916 Y-1.358 F15000.000
G1 F1200
G1 X-5.869 Y-3.010 E0.66900
G92 E0
G1 X-8.250 Y-6.972 F15000.000
G1 F1200
G1 X-8.827 Y-7.972 E0.04964
G1 X-7.673 Y-7.972 E0.09928
G1 X-8.220 Y-7.024 E0.14634
G1 X-8.250 Y-6.058 F15000.000
G1 F1200
G1 X-9.619 Y-8.429 E0.23674
G1 X-6.881 Y-8.429 E0.32713
G1 X-8.220 Y-6.110 E0.41555
G1 X-7.850 Y-6.058 F15000.000
G92 E0
G1 X8.250 Y-6.972 F15000.000
G1 F1200
G1 X7.673 Y-7.972 E0.04964
G1 X8.827 Y-7.972 E0.09928
G1 X8.280 Y-7.024 E0.14634
G1 X8.250 Y-6.058 F15000.000
G1 F1200
G1 X6.881 Y-8.429 E0.23674
G1 X9.619 Y-8.429 E0.32713
G1 X8.280 Y-6.110 E0.41555
G1 X8.650 Y-6.058 F15000.000
;LAYER:18
G92 E0
G1 Z3.800 F15000.000
G1 X-0.000 Y7.317 F15000.000
G1 F1200
G1 X-0.577 Y6.317 E0.04964
G1 X0.577 Y6.317 E0.09928
G1 X0.030 Y7.265 E0.14634
G1 X-0.000 Y8.231 F15000.000
G1 F1200
G1 X-1.369 Y5.860 E0.23674
G1 X1.369 Y5.860 E0.32713
G1 X0.030 Y8.179 E0.41555
G1 X0.400 Y8.231 F15000.000
G92 E0
G1 X-3.169 Y2.742 F15000.000
G1 F1200
G1 X-4.515 Y0.412 E0.08883
G1 X-3.583 Y-0.126 E0.12434
G1 X-2.238 Y2.204 E0.21317
G1 X-3.118 Y2.712 E0.24670
G1 X-3.324 Y2.373 F15000.000
G1 X-2.818 Y2.275 F15000.000
G1 F1200
G1 X-3.935 Y0.341 E0.35359
G1 X-5.262 Y-0.882 F15000.000
G1 F1200
G1 X-6.449 Y-2.939 E0.43203
G1 X-5.518 Y-3.477 E0.46754
G1 X-4.331 Y-1.420 E0.54595
G1 X-5.210 Y-0.912 E0.57948
G1 X-5.411 Y-1.253 F15000.000
G1 X-4.910 Y-1.349 F15000.000
G1 F1200
G1 X-5.869 Y-3.010 E0.67128
G92 E0
G1 X-8.250 Y-6.972 F15000.000
G1 F1200
G1 X-8.827 Y-7.972 E0.04964
G1 X-7.673 Y-7.972 E0.09928
G1 X-8.220 Y-7.024 E0.14634
G1 X-8.250 Y-6.058 F15000.000
G1 F1200
G1 X-9.619 Y-8.429 E0.23674
G1 X-6.881 Y-8.429 E0.32713
G1 X-8.220 Y-6.110 E0.41555
G1 X-7.850 Y-6.058 F15000.000
G92 E0
G1 X8.250 Y-6.972 F15000.000
G1 F1200
G1 X7.673 Y-7.972 E0.04964
G1 X8.827 Y-7.972 E0.09928
G1 X8.280 Y-7.024 E0.14634
G1 X8.250 Y-6.058 F15000.000
G1 F1200
G1 X6.881 Y-8.429 E0.23674
G1 X9.619 Y-8.429 E0.32713
G1 X8.280 Y-6.110 E0.41555
G1 X8.650 Y-6.058 F15000.000
;LAYER:19
G92 E0
G1 Z4.000 F15000.000
G1 X-0.000 Y7.317 F15000.000
G1 F1200
G1 X-0.577 Y6.317 E0.04964
G1 X0.577 Y6.317 E0.09928
G1 X0.030 Y7.265 E0.14634
G1 X-0.000 Y8.231 F15000.000
G1 F1200
G1 X-1.369 Y5.860 E0.23674
G1 X1.369 Y5.860 E0.32713
G1 X0.030 Y8.179 E0.41555
G1 X0.400 Y8.231 F15000.000
G92 E0
G1 X-3.169 Y2.742 F15000.000
G1 F1200
G1 X-4.532 Y0.382 E0.08996
G1 X-3.603 Y-0.160 E0.12547
G1 X-2.238 Y2.204 E0.21561
G1 X-3.118 Y2.712 E0.24914
G1 X-3.325 Y2.373 F15000.000
G1 X-2.818 Y2.275 F15000.000
G1 F1200
G1 X-3.953 Y0.309 E0.35779
G1 X-5.243 Y-0.850 F15000.000
G1 F1200
G1 X-6.449 Y-2.939 E0.43745
G1 X-5.518 Y-3.477 E0.47296
G1 X-4.308 Y-1.382 E0.55283
G1 X-5.191 Y-0.880 E0.58637
G1 X-5.393 Y-1.221 F15000.000
G1 X-4.890 Y-1.314 F15000.000
G1 F1200
G1 X-5.869 Y-3.010 E0.68011
G92 E0
G1 X-8.250 Y-6.972 F15000.000
G1 F1200
G1 X-8.827 Y-7.972 E0.04964
G1 X-7.673 Y-7.972 E0.09928
G1 X-8.220 Y-7.024 E0.14634
G1 X-8.250 Y-6.058 F15000.000
G1 F1200
G1 X-9.619 Y-8.429 E0.23674
G1 X-6.881 Y-8.429 E0.32713
G1 X-8.220 Y-6.110 E0.41555
G1 X-7.850 Y-6.058 F15000.000
G92 E0
G1 X8.250 Y-6.972 F15000.000
G1 F1200
G1 X7.673 Y-7.972 E0.04964
G1 X8.827 Y-7.972 E0.09928
G1 X8.280 Y-7.024 E0.14634
G1 X8.250 Y-6.058 F15000.000
G1 F1200
G1 X6.881 Y-8.429 E0.23674
G1 X9.619 Y-8.429 E0.32713
G1 X8.280 Y-6.110 E0.41555
G1 X8.650 Y-6.058 F15000.000
;LAYER:20
G92 E0
G1 Z4.200 F15000.000
G1 X-0.000 Y7.317 F15000.000
G1 F1200
G1 X-0.577 Y6.317 E0.04964
G1 X0.577 Y6.317 E0.09928
G1 X0.030 Y7.265 E0.14634
G1 X-0.000 Y8.231 F15000.000
G1 F1200
G1 X-1.369 Y5.860 E0.23674
G1 X1.369 Y5.860 E0.32713
G1 X0.030 Y8.179 E0.41555
G1 X0.400 Y8.231 F15000.000
G92 E0
G1 X-3.169 Y2.742 F15000.000
G1 F1200
G1 X-4.554 Y0.343 E0.09145
G1 X-3.625 Y-0.198 E0.12696
G1 X-2.238 Y2.204 E0.21852
G1 X-3.118 Y2.712 E0.25205
G1 X-3.318 Y2.370 F15000.000
G1 X-2.818 Y2.275 F15000.000
G1 F1200
G1 X-3.975 Y0.271 E0.36281
G1 X-5.219 Y-0.808 F15000.000
G1 F1200
G1 X-6.449 Y-2.939 E0.44408
G1 X-5.518 Y-3.477 E0.47959
G1 X-4.285 Y-1.342 E0.56099
G1 X-5.167 Y-0.838 E0.59452
G1 X-5.369 Y-1.178 F15000.000
G1 X-4.866 Y-1.273 F15000.000
G1 F1200
G1 X-5.869 Y-3.010 E0.69054
G92 E0
G1 X-8.250 Y-6.972 F15000.000
G1 F1200
G1 X-8.827 Y-7.972 E0.04964
G1 X-7.673 Y-7.972 E0.09928
G1 X-8.220 Y-7.024 E0.14634
G1 X-8.250 Y-6.058 F15000.000
G1 F1200
G1 X-9.619 Y-8.429 E0.23674
G1 X-6.881 Y-8.429 E0.32713
G1 X-8.220 Y-6.110 E0.41555
G1 X-7.850 Y-6.058 F15000.000
G92 E0
G1 X8.250 Y-6.972 F15000.000
G1 F1200
G1 X7.673 Y-7.972 E0.04964
G1 X8.827 Y-7.972 E0.09928
G1 X8.280 Y-7.024 E0.14634
G1 X8.250 Y-6.058 F15000.000
G1 F1200
G1 X6.881 Y-8.429 E0.23674
G1 X9.619 Y-8.429 E0.32713
G1 X8.280 Y-6.110 E0.41555
G1 X8.650 Y-6.058 F15000.000
;LAYER:21
G92 E0
G1 Z4.400 F15000.000
G1 X-0.000 Y7.317 F15000.000
G1 F1200
G1 X-0.577 Y6.317 E0.04964
G1 X0.577 Y6.317 E0.09928
G1 X0.030 Y7.265 E0.14634
G1 X-0.000 Y8.231 F15000.000
G1 F1200
G1 X-1.369 Y5.860 E0.23674
G1 X1.369 Y5.860 E0.32713
G1 X0.030 Y8.179 E0.41555
G1 X0.400 Y8.231 F15000.000
G92 E0
G1 X-3.169 Y2.742 F15000.000
G1 F1200
G1 X-3.949 Y1.391 E0.05151
G1 X-3.018 Y0.853 E0.08702
G1 X-2.238 Y2.204 E0.13853
G1 X-3.118 Y2.712 E0.17206
G1 X-3.296 Y2.362 F15000.000
G92 E0
G1 X-4.244 Y0.881 F15000.000
G1 F1200
G1 X-4.594 Y0.274 E0.02313
G1 X-3.665 Y-0.268 E0.05864
G1 X-3.312 Y0.344 E0.08198
G1 X-4.192 Y0.851 E0.11551
G1 X-4.321 Y0.488 F15000.000
G1 X-4.221 Y0.463 F15000.000
G1 F1200
G1 X-3.686 Y0.152 E0.12605
G1 X-5.177 Y-0.735 F15000.000
G1 F1200
G1 X-6.449 Y-2.939 E0.21007
G1 X-5.518 Y-3.477 E0.24559
G1 X-4.244 Y-1.271 E0.32969
G1 X-5.125 Y-0.765 E0.36322
G1 X-5.329 Y-1.105 F15000.000
G1 X-4.825 Y-1.201 F15000.000
G1 F1200
G1 X-5.869 Y-3.010 E0.46319
G92 E0
G1 X-8.250 Y-6.972 F15000.000
G1 F1200
G1 X-8.827 Y-7.972 E0.04964
G1 X-7.673 Y-7.972 E0.09928
G1 X-8.220 Y-7.024 E0.14634
G1 X-8.250 Y-6.058 F15000.000
G1 F1200
G1 X-9.619 Y-8.429 E0.23674
G1 X-6.881 Y-8.429 E0.32713
G1 X-8.220 Y-6.110 E0.41555
G1 X-7.850 Y-6.058 F15000.000
G92 E0
G1 X8.250 Y-6.972 F15000.000
G1 F1200
G1 X7.673 Y-7.972 E0.04964
G1 X8.827 Y-7.972 E0.09928
G1 X8.280 Y-7.024 E0.14634
G1 X8.250 Y-6.058 F15000.000
G1 F1200
G1 X6.881 Y-8.429 E0.23674
G1 X9.619 Y-8.429 E0.32713
G1 X8.280 Y-6.110 E0.41555
G1 X8.650 Y-6.058 F15000.000
;LAYER:22
G92 E0
G1 Z4.600 F15000.000
G1 X-0.000 Y7.317 F15000.000
G1 F1200
G1 X-0.577 Y6.317 E0.04964
G1 X0.577 Y6.317 E0.09928
G1 X0.030 Y7.265 E0.14634
G1 X-0.000 Y8.231 F15000.000
G1 F1200
G1 X-1.369 Y5.860 E0.23674
G1 X1.369 Y5.860 E0.32713
G1 X0.030 Y8.179 E0.41555
G1 X0.400 Y8.231 F15000.000
G92 E0
G1 X-3.169 Y2.742 F15000.000
G1 F1200
G1 X-3.949 Y1.391 E0.05151
G1 X-3.018 Y0.853 E0.08702
G1 X-2.238 Y2.204 E0.13853
G1 X-3.118 Y2.712 E0.17206
G1 X-3.296 Y2.362 F15000.000
G1 X-3.146 Y2.216 F15000.000
G1 F1200
G1 X-2.743 Y1.814 E0.19659
G1 X-3.006 Y1.358 E0.21926
G1 X-3.444 Y1.781 E0.24549
G1 X-4.288 Y0.804 F15000.000
G1 F1200
G1 X-4.804 Y-0.089 E0.27954

G1 F3600
G1 X-4.967 Y-0.372 E0.29663

G1 F1200
G1 X-6.449 Y-2.939 E0.39451
G1 X-5.518 Y-3.477 E0.43002
G1 X-4.035 Y-0.908 E0.52798

G1 F3600
G1 X-3.875 Y-0.632 E0.54463

G1 F1200
G1 X-3.356 Y0.267 E0.57889
G1 X-4.236 Y0.774 E0.61242
G1 X-4.389 Y0.417 F15000.000
G1 X-3.937 Y0.338 F15000.000
G1 F1200
G1 X-5.869 Y-3.010 E0.79743
G92 E0
G1 X-8.250 Y-6.972 F15000.000
G1 F1200
G1 X-8.827 Y-7.972 E0.04964
G1 X-7.673 Y-7.972 E0.09928
G1 X-8.220 Y-7.024 E0.14634
G1 X-8.250 Y-6.058 F15000.000
G1 F1200
G1 X-9.619 Y-8.429 E0.23674
G1 X-6.881 Y-8.429 E0.32713
G1 X-8.220 Y-6.110 E0.41555
G1 X-7.850 Y-6.058 F15000.000
G92 E0
G1 X8.250 Y-6.972 F15000.000
G1 F1200
G1 X7.673 Y-7.972 E0.04964
G1 X8.827 Y-7.972 E0.09928
G1 X8.280 Y-7.024 E0.14634
G1 X8.250 Y-6.058 F15000.000
G1 F1200
G1 X6.881 Y-8.429 E0.23674
G1 X9.619 Y-8.429 E0.32713
G1 X8.280 Y-6.110 E0.41555
G1 X8.650 Y-6.058 F15000.000
;LAYER:23
G92 E0
G1 Z4.800 F15000.000
G1 X-0.000 Y7.317 F15000.000
G1 F1200
G1 X-0.577 Y6.317 E0.04964
G1 X0.577 Y6.317 E0.09928
G1 X0.030 Y7.265 E0.14634
G1 X-0.000 Y8.231 F15000.000
G1 F1200
G1 X-1.369 Y5.860 E0.23674
G1 X1.369 Y5.860 E0.32713
G1 X0.030 Y8.179 E0.41555
G1 X0.400 Y8.231 F15000.000
G92 E0
G1 X-3.169 Y2.742 F15000.000
G1 F1200
G1 X-3.949 Y1.391 E0.05151
G1 X-3.018 Y0.853 E0.08702
G1 X-2.238 Y2.204 E0.13853
G1 X-3.118 Y2.712 E0.17206
G1 X-3.296 Y2.362 F15000.000
G92 E0
G1 X-4.343 Y0.709 F15000.000
G1 F1200
G1 X-6.449 Y-2.939 E0.13910
G1 X-5.518 Y-3.477 E0.17461
G1 X-3.412 Y0.171 E0.31371
G1 X-4.291 Y0.679 E0.34724
G1 X-4.514 Y0.347 F15000.000
G1 X-3.992 Y0.242 F15000.000
G1 F1200
G1 X-5.869 Y-3.010 E0.52699
G92 E0
G1 X-8.250 Y-6.972 F15000.000
G1 F1200
G1 X-8.827 Y-7.972 E0.04964
G1 X-7.673 Y-7.972 E0.09928
G1 X-8.220 Y-7.024 E0.14634
G1 X-8.250 Y-6.058 F15000.000
G1 F1200
G1 X-9.619 Y-8.429 E0.23674
G1 X-6.881 Y-8.429 E0.32713
G1 X-8.220 Y-6.110 E0.41555
G1 X-7.850 Y-6.058 F15000.000
G92 E0
G1 X8.250 Y-6.972 F15000.000
G1 F1200
G1 X7.673 Y-7.972 E0.04964
G1 X8.827 Y-7.972 E0.09928
G1 X8.280 Y-7.024 E0.14634
G1 X8.250 Y-6.058 F15000.000
G1 F1200
G1 X6.881 Y-8.429 E0.23674
G1 X9.619 Y-8.429 E0.32713
G1 X8.280 Y-6.110 E0.41555
G1 X8.650 Y-6.058 F15000.000
;LAYER:24
G92 E0
G1 Z5.000 F15000.000
G1 X-0.000 Y7.317 F15000.000
G1 F1200
G1 X-0.577 Y6.317 E0.04964
G1 X0.577 Y6.317 E0.09928
G1 X0.030 Y7.265 E0.14634
G1 X-0.000 Y8.231 F15000.000
G1 F1200
G1 X-1.369 Y5.860 E0.23674
G1 X1.369 Y5.860 E0.32713
G1 X0.030 Y8.179 E0.41555
G1 X0.400 Y8.231 F15000.000
G92 E0
G1 X-3.169 Y2.742 F15000.000
G1 F1200
G1 X-3.949 Y1.391 E0.05151
G1 X-3.018 Y0.853 E0.08702
G1 X-2.238 Y2.204 E0.13853
G1 X-3.118 Y2.712 E0.17206
G1 X-3.296 Y2.362 F15000.000
G1 X-3.146 Y2.216 F15000.000
G1 F1200
G1 X-2.743 Y1.814 E0.19659
G1 X-3.006 Y1.358 E0.21926
G1 X-3.444 Y1.781 E0.24549
G1 X-4.437 Y0.545 F15000.000
G1 F1200
G1 X-5.350 Y-1.036 E0.30578
G1 X-4.419 Y-1.573 E0.34129
G1 X-3.506 Y0.008 E0.40155
G1 X-4.386 Y0.515 E0.43508
G1 X-4.563 Y0.166 F15000.000
G1 X-4.086 Y0.079 F15000.000
G1 F1200
G1 X-4.770 Y-1.106 E0.50057
G1 X-5.669 Y-1.588 F15000.000
G1 F1200
G1 X-6.449 Y-2.939 E0.55208
G1 X-5.518 Y-3.477 E0.58759
G1 X-4.738 Y-2.126 E0.63909
G1 X-5.618 Y-1.618 E0.67262
G1 X-5.796 Y-1.968 F15000.000
G1 X-5.646 Y-2.114 F15000.000
G1 F1200
G1 X-5.243 Y-2.517 E0.69716
G1 X-5.506 Y-2.972 E0.71983
G1 X-5.944 Y-2.549 E0.74606
G92 E0
G1 X-8.250 Y-6.972 F15000.000
G1 F1200
G1 X-8.827 Y-7.972 E0.04964
G1 X-7.673 Y-7.972 E0.09928
G1 X-8.220 Y-7.024 E0.14634
G1 X-8.250 Y-6.058 F15000.000
G1 F1200
G1 X-9.619 Y-8.429 E0.23674
G1 X-6.881 Y-8.429 E0.32713
G1 X-8.220 Y-6.110 E0.41555
G1 X-7.850 Y-6.058 F15000.000
G92 E0
G1 X8.250 Y-6.972 F15000.000
G1 F1200
G1 X7.673 Y-7.972 E0.04964
G1 X8.827 Y-7.972 E0.09928
G1 X8.280 Y-7.024 E0.14634
G1 X8.250 Y-6.058 F15000.000
G1 F1200
G1 X6.881 Y-8.429 E0.23674
G1 X9.619 Y-8.429 E0.32713
G1 X8.280 Y-6.110 E0.41555
G1 X8.650 Y-6.058 F15000.000
;LAYER:25
G92 E0
G1 Z5.200 F15000.000
G1 X0.000 Y7.317 F15000.000
G1 F1200
G1 X-0.577 Y6.317 E0.04964
G1 X0.577 Y6.317 E0.09928
G1 X0.030 Y7.265 E0.14634
G92 E0
G1 X-8.250 Y-6.972 F15000.000
G1 F1200
G1 X-8.827 Y-7.972 E0.04964
G1 X-7.673 Y-7.972 E0.09928
G1 X-8.220 Y-7.024 E0.14634
G92 E0
G1 X-0.127 Y5.860 F15000.000
G1 F1200
G1 X1.369 Y5.860 E0.04939
G1 X0.000 Y8.231 E0.13979
G1 X-1.611 Y5.440 E0.24620

G1 F3600
G1 X-2.959 Y3.105 E0.38706

G1 F1200
G1 X-4.159 Y1.027 E0.46630

G1 F3600
G1 X-4.228 Y0.909 E0.47341

G1 F1200
G1 X-6.659 Y-3.303 E0.63400

G1 F3600
G1 X-8.008 Y-5.638 E0.77486

G1 F1200
G1 X-9.619 Y-8.429 E0.88127
G1 X-6.881 Y-8.429 E0.97167
G1 X-7.629 Y-7.134 E1.02106
G1 X-7.387 Y-6.714 E1.03707

G1 F3600
G1 X-5.728 Y-3.841 E1.21037

G1 F1200
G1 X-3.296 Y0.372 E1.37097

G1 F3600
G1 X-3.228 Y0.489 E1.37807

G1 F1200
G1 X-2.028 Y2.568 E1.45731

G1 F3600
G1 X-0.370 Y5.440 E1.63061

G1 F1200
G1 X-0.157 Y5.808 E1.64464
G1 X-0.090 Y6.259 F15000.000
G1 X-0.616 Y6.089 F15000.000
G1 F1200
G1 X-8.071 Y-6.824 E2.35823
G92 E0
G1 X8.250 Y-6.972 F15000.000
G1 F1200
G1 X7.673 Y-7.972 E0.04964
G1 X8.827 Y-7.972 E0.09928
G1 X8.280 Y-7.024 E0.14634
G1 X8.250 Y-6.058 F15000.000
G1 F1200
G1 X6.881 Y-8.429 E0.23674
G1 X9.619 Y-8.429 E0.32713
G1 X8.280 Y-6.110 E0.41555
G1 X8.650 Y-6.058 F15000.000
;LAYER:26
G92 E0
G1 Z5.400 F15000.000
G1 X0.000 Y7.317 F15000.000
G1 F1200
G1 X-0.577 Y6.317 E0.04964
G1 X0.577 Y6.317 E0.09928
G1 X0.030 Y7.265 E0.14634
G1 X-8.250 Y-6.972 F15000.000
G1 F1200
G1 X-8.827 Y-7.972 E0.19598
G1 X-7.673 Y-7.972 E0.24562
G1 X-8.220 Y-7.024 E0.29268
G1 X-0.127 Y5.860 F15000.000
G1 F1200
G1 X1.369 Y5.860 E0.34207
G1 X0.000 Y8.231 E0.43247
G1 X-9.619 Y-8.429 E1.06765
G1 X-6.881 Y-8.429 E1.15805
G1 X-7.629 Y-7.134 E1.20744
G1 X-0.157 Y5.808 E1.70085
G1 X-0.068 Y6.256 F15000.000
G1 X-0.616 Y6.089 F15000.000
G1 F1200
G1 X-8.071 Y-6.824 E2.41444
G92 E0
G1 X8.250 Y-6.972 F15000.000
G1 F1200
G1 X7.673 Y-7.972 E0.04964
G1 X8.827 Y-7.972 E0.09928
G1 X8.280 Y-7.024 E0.14634
G1 X8.250 Y-6.058 F15000.000
G1 F1200
G1 X6.881 Y-8.429 E0.23674
G1 X9.619 Y-8.429 E0.32713
G1 X8.280 Y-6.110 E0.41555
G1 X8.650 Y-6.058 F15000.000
;LAYER:27
G92 E0
G1 Z5.600 F15000.000
G1 X0.000 Y7.317 F15000.000
G1 F1200
G1 X-0.577 Y6.317 E0.04964
G1 X0.577 Y6.317 E0.09928
G1 X0.030 Y7.265 E0.14634
G1 X-8.250 Y-6.972 F15000.000
G1 F1200
G1 X-8.827 Y-7.972 E0.19598
G1 X-7.673 Y-7.972 E0.24562
G1 X-8.220 Y-7.024 E0.29268
G1 X-0.127 Y5.860 F15000.000
G1 F1200
G1 X1.369 Y5.860 E0.34207
G1 X0.000 Y8.231 E0.43247
G1 X-9.619 Y-8.429 E1.06765
G1 X-6.881 Y-8.429 E1.15805
G1 X-7.629 Y-7.134 E1.20744
G1 X-0.157 Y5.808 E1.70085
G1 X-0.068 Y6.256 F15000.000
G1 X-0.616 Y6.089 F15000.000
G1 F1200
G1 X-8.071 Y-6.824 E2.41444
G92 E0
G1 X8.250 Y-6.972 F15000.000
G1 F1200
G1 X7.673 Y-7.972 E0.04964
G1 X8.827 Y-7.972 E0.09928
G1 X8.280 Y-7.024 E0.14634
G1 X8.250 Y-6.058 F15000.000
G1 F1200
G1 X6.881 Y-8.429 E0.23674
G1 X9.619 Y-8.429 E0.32713
G1 X8.280 Y-6.110 E0.41555
G1 X8.650 Y-6.058 F15000.000
;LAYER:28
G92 E0
G1 Z5.800 F15000.000
G1 X0.000 Y7.317 F15000.000
G1 F1200
G1 X-0.577 Y6.317 E0.04964
G1 X0.577 Y6.317 E0.09928
G1 X0.030 Y7.265 E0.14634
G1 X-8.250 Y-6.972 F15000.000
G1 F1200
G1 X-8.827 Y-7.972 E0.19598
G1 X-7.673 Y-7.972 E0.24562
G1 X-8.220 Y-7.024 E0.29268
G1 X-0.127 Y5.860 F15000.000
G1 F1200
G1 X1.369 Y5.860 E0.34207
G1 X0.000 Y8.231 E0.43247
G1 X-9.619 Y-8.429 E1.06765
G1 X-6.881 Y-8.429 E1.15805
G1 X-7.629 Y-7.134 E1.20744
G1 X-0.157 Y5.808 E1.70085
G1 X-0.068 Y6.256 F15000.000
G1 X-0.616 Y6.089 F15000.000
G1 F1200
G1 X-8.071 Y-6.824 E2.41444
G92 E0
G1 X8.250 Y-6.972 F15000.000
G1 F1200
G1 X7.673 Y-7.972 E0.04964
G1 X8.827 Y-7.972 E0.09928
G1 X8.280 Y-7.024 E0.14634
G1 X8.250 Y-6.058 F15000.000
G1 F1200
G1 X6.881 Y-8.429 E0.23674
G1 X9.619 Y-8.429 E0.32714
G1 X8.280 Y-6.110 E0.41555
G1 X8.650 Y-6.058 F15000.000