; generated by Slic3r 1.3.0 on 2019-12-30 at 17:04:28

; external perimeters extrusion width = 0.44mm (1.59mm^3/s)
; perimeters extrusion width = 0.56mm (2.07mm^3/s)
; infill extrusion width = 0.50mm (1.83mm^3/s)
; solid infill extrusion width = 0.56mm (2.07mm^3/s)
; top infill extrusion width = 0.56mm (2.07mm^3/s)

M190 S60 ; set bed temperature and wait for it to be reached
M104 S200 ; set temperature
G28 ; home all axes
G1 Z5 F5000 ; lift nozzle

; Filament gcode

M109 S200 ; set temperature and wait for it to be reached
G21 ; set units to millimeters
G90 ; use absolute coordinates
M82 ; use absolute distances for extrusion
G92 E0
;LAYER:0
G1 E-2.00000 F900.00000
G92 E0
G1 Z0.400 F15000.000
G1 X10.093 Y12.189 F15000.000
G1 Z0.200 F15000.000
G1 E2.00000 F900.00000
G1 F1800
G1 X9.093 Y13.921 E2.05938
G1 X8.377 Y14.971 E2.09710
G1 X8.006 Y15.437 E2.11480
G1 X6.148 Y17.160 E2.19003
G1 X5.656 Y17.496 E2.20773
G1 X3.373 Y18.595 E2.28295
G1 X2.803 Y18.771 E2.30065
G1 X0.298 Y19.149 E2.37588
G1 X-0.298 Y19.149 E2.39358
G1 X-2.803 Y18.771 E2.46881
G1 X-3.373 Y18.595 E2.48651
G1 X-5.656 Y17.496 E2.56173
G1 X-6.148 Y17.160 E2.57944
G1 X-8.006 Y15.437 E2.65466
G1 X-8.377 Y14.971 E2.67236
G1 X-9.093 Y13.921 E2.71008
G1 X-19.093 Y-3.399 E3.30390
G1 X-19.644 Y-4.544 E3.34162
G1 X-19.862 Y-5.099 E3.35932
G1 X-20.426 Y-7.569 E3.43455
G1 X-20.470 Y-8.164 E3.45226
G1 X-20.281 Y-10.690 E3.52748
G1 X-20.161 Y-11.213 E3.54341
G1 X-19.223 Y-13.630 E3.62038
G1 X-18.924 Y-14.146 E3.63809
G1 X-17.345 Y-16.127 E3.71331
G1 X-16.908 Y-16.532 E3.73101
G1 X-14.814 Y-17.959 E3.80624
G1 X-14.277 Y-18.218 E3.82394
G1 X-11.856 Y-18.965 E3.89916
G1 X-11.267 Y-19.054 E3.91687
G1 X-10.000 Y-19.149 E3.95458
G1 X10.000 Y-19.149 E4.54841
G1 X11.267 Y-19.054 E4.58613
G1 X11.856 Y-18.965 E4.60383
G1 X14.277 Y-18.218 E4.67905
G1 X14.814 Y-17.959 E4.69675
G1 X16.908 Y-16.532 E4.77198
G1 X17.345 Y-16.127 E4.78968
G1 X18.924 Y-14.146 E4.86491
G1 X19.223 Y-13.630 E4.88261
G1 X20.148 Y-11.271 E4.95783
G1 X20.281 Y-10.690 E4.97553
G1 X20.470 Y-8.163 E5.05076
G1 X20.426 Y-7.569 E5.06846
G1 X19.862 Y-5.099 E5.14369
G1 X19.644 Y-4.544 E5.16139
G1 X19.093 Y-3.399 E5.19910
G1 X10.123 Y12.137 E5.73177
G1 X9.784 Y12.011 F15000.000
G1 F1800
G1 X8.784 Y13.743 E5.79115
G1 X8.098 Y14.748 E5.82728
G1 X7.726 Y15.214 E5.84499
G1 X5.947 Y16.865 E5.91705
G1 X5.455 Y17.201 E5.93475
G1 X3.268 Y18.254 E6.00681
G1 X2.698 Y18.430 E6.02452
G1 X0.298 Y18.792 E6.09658
G1 X-0.298 Y18.792 E6.11428
G1 X-2.698 Y18.430 E6.18635
G1 X-3.268 Y18.254 E6.20405
G1 X-5.455 Y17.201 E6.27611
G1 X-5.947 Y16.865 E6.29382
G1 X-7.726 Y15.214 E6.36588
G1 X-8.098 Y14.748 E6.38358
G1 X-8.784 Y13.743 E6.41971
G1 X-18.784 Y-3.578 E7.01354
G1 X-19.312 Y-4.674 E7.04967
G1 X-19.529 Y-5.229 E7.06737
G1 X-20.070 Y-7.596 E7.13944
G1 X-20.114 Y-8.190 E7.15715
G1 X-19.933 Y-10.610 E7.22921
G1 X-19.813 Y-11.133 E7.24514
G1 X-18.913 Y-13.451 E7.31895
G1 X-18.615 Y-13.967 E7.33665
G1 X-17.102 Y-15.865 E7.40872
G1 X-16.665 Y-16.270 E7.42642
G1 X-14.660 Y-17.638 E7.49849
G1 X-14.122 Y-17.896 E7.51619
G1 X-11.803 Y-18.612 E7.58825
G1 X-11.213 Y-18.701 E7.60596
G1 X-10.000 Y-18.792 E7.64209
G1 X10.000 Y-18.792 E8.23591
G1 X11.214 Y-18.701 E8.27205
G1 X11.803 Y-18.612 E8.28975
G1 X14.122 Y-17.896 E8.36181
G1 X14.660 Y-17.638 E8.37951
G1 X16.665 Y-16.270 E8.45158
G1 X17.102 Y-15.865 E8.46928
G1 X18.615 Y-13.967 E8.54134
G1 X18.913 Y-13.451 E8.55904
G1 X19.800 Y-11.192 E8.63111
G1 X19.933 Y-10.610 E8.64881
G1 X20.114 Y-8.190 E8.72088
G1 X20.070 Y-7.596 E8.73858
G1 X19.529 Y-5.229 E8.81064
G1 X19.312 Y-4.674 E8.82834
G1 X18.784 Y-3.578 E8.86448
G1 X9.814 Y11.959 E9.39714
G1 X9.474 Y11.832 F15000.000
G1 F1800
G1 X8.474 Y13.564 E9.45652
G1 X7.819 Y14.526 E9.49107
G1 X7.447 Y14.992 E9.50877
G1 X5.746 Y16.570 E9.57768
G1 X5.253 Y16.906 E9.59538
G1 X3.163 Y17.913 E9.66428
G1 X2.593 Y18.089 E9.68198
G1 X0.298 Y18.434 E9.75089
G1 X-0.298 Y18.434 E9.76859
G1 X-2.593 Y18.089 E9.83749
G1 X-3.163 Y17.913 E9.85520
G1 X-5.253 Y16.906 E9.92410
G1 X-5.697 Y16.604 E9.94003
G1 X-7.447 Y14.992 E10.01069
G1 X-7.819 Y14.526 E10.02839
G1 X-8.474 Y13.564 E10.06294
G1 X-17.474 Y-2.024 E10.59738
G1 X-18.474 Y-3.756 E10.65676
G1 X-18.979 Y-4.805 E10.69131
G1 X-19.197 Y-5.360 E10.70901
G1 X-19.713 Y-7.622 E10.77792
G1 X-19.758 Y-8.217 E10.79563
G1 X-19.585 Y-10.531 E10.86452
G1 X-19.465 Y-11.054 E10.88045
G1 X-18.604 Y-13.272 E10.95111
G1 X-18.306 Y-13.789 E10.96881
G1 X-16.859 Y-15.603 E11.03771
G1 X-16.422 Y-16.009 E11.05542
G1 X-14.505 Y-17.316 E11.12432
G1 X-13.967 Y-17.575 E11.14202
G1 X-11.750 Y-18.259 E11.21093
G1 X-11.160 Y-18.348 E11.22863
G1 X-10.000 Y-18.434 E11.26318
G1 X10.000 Y-18.434 E11.85700
G1 X11.160 Y-18.348 E11.89155
G1 X11.750 Y-18.259 E11.90926
G1 X13.967 Y-17.575 E11.97816
G1 X14.505 Y-17.316 E11.99586
G1 X16.422 Y-16.009 E12.06476
G1 X16.859 Y-15.603 E12.08247
G1 X18.306 Y-13.789 E12.15137
G1 X18.604 Y-13.272 E12.16907
G1 X19.452 Y-11.112 E12.23798
G1 X19.585 Y-10.531 E12.25568
G1 X19.758 Y-8.217 E12.32458
G1 X19.713 Y-7.622 E12.34228
G1 X19.197 Y-5.360 E12.41119
G1 X18.979 Y-4.805 E12.42889
G1 X18.474 Y-3.756 E12.46344
G1 X9.504 Y11.780 E12.99610
G1 X9.165 Y11.654 F15000.000
G1 F1800
G1 X8.165 Y13.386 E13.05548
G1 X7.540 Y14.303 E13.08844
G1 X7.168 Y14.769 E13.10615
G1 X5.545 Y16.275 E13.17189
G1 X5.052 Y16.611 E13.18959
G1 X3.057 Y17.572 E13.25534
G1 X2.488 Y17.747 E13.27304
G1 X0.298 Y18.077 E13.33878
G1 X-0.298 Y18.077 E13.35648
G1 X-2.488 Y17.747 E13.42223
G1 X-3.057 Y17.572 E13.43993
G1 X-5.052 Y16.611 E13.50567
G1 X-5.545 Y16.275 E13.52338
G1 X-7.168 Y14.769 E13.58912
G1 X-7.540 Y14.303 E13.60682
G1 X-8.165 Y13.386 E13.63978
G1 X-18.165 Y-3.935 E14.23361
G1 X-18.647 Y-4.935 E14.26657
G1 X-18.865 Y-5.490 E14.28428
G1 X-19.357 Y-7.649 E14.35002
G1 X-19.402 Y-8.244 E14.36773
G1 X-19.236 Y-10.451 E14.43346
G1 X-19.117 Y-10.975 E14.44940
G1 X-18.295 Y-13.094 E14.51689
G1 X-17.997 Y-13.610 E14.53459
G1 X-16.616 Y-15.341 E14.60034
G1 X-16.179 Y-15.747 E14.61804
G1 X-14.350 Y-16.994 E14.68378
G1 X-13.813 Y-17.253 E14.70148
G1 X-11.697 Y-17.906 E14.76723
G1 X-11.107 Y-17.994 E14.78493
G1 X-10.000 Y-18.077 E14.81789
G1 X10.000 Y-18.077 E15.41172
G1 X11.107 Y-17.994 E15.44468
G1 X11.697 Y-17.906 E15.46239
G1 X13.813 Y-17.253 E15.52813
G1 X14.350 Y-16.994 E15.54583
G1 X16.179 Y-15.747 E15.61158
G1 X16.616 Y-15.341 E15.62928
G1 X17.997 Y-13.610 E15.69502
G1 X18.295 Y-13.094 E15.71272
G1 X19.104 Y-11.033 E15.77847
G1 X19.236 Y-10.452 E15.79617
G1 X19.402 Y-8.243 E15.86191
G1 X19.357 Y-7.649 E15.87961
G1 X18.865 Y-5.490 E15.94536
G1 X18.647 Y-4.935 E15.96306
G1 X18.165 Y-3.935 E15.99602
G1 X9.195 Y11.602 E16.52868
G1 X8.856 Y11.475 F15000.000
G1 F1800
G1 X7.856 Y13.207 E16.58807
G1 X7.261 Y14.080 E16.61945
G1 X6.889 Y14.546 E16.63715
G1 X5.344 Y15.980 E16.69973
G1 X4.851 Y16.316 E16.71743
G1 X2.952 Y17.230 E16.78002
G1 X2.382 Y17.406 E16.79772
G1 X0.298 Y17.720 E16.86030
G1 X-0.298 Y17.720 E16.87800
G1 X-2.382 Y17.406 E16.94059
G1 X-2.952 Y17.230 E16.95829
G1 X-4.851 Y16.316 E17.02087
G1 X-5.344 Y15.980 E17.03857
G1 X-6.889 Y14.546 E17.10116
G1 X-7.261 Y14.080 E17.11886
G1 X-7.856 Y13.207 E17.15024
G1 X-16.856 Y-2.381 E17.68468
G1 X-17.856 Y-4.113 E17.74406
G1 X-18.314 Y-5.066 E17.77544
G1 X-18.532 Y-5.621 E17.79315
G1 X-19.001 Y-7.676 E17.85573
G1 X-19.046 Y-8.270 E17.87344
G1 X-18.888 Y-10.372 E17.93601
G1 X-18.769 Y-10.895 E17.95195
G1 X-17.986 Y-12.915 E18.01628
G1 X-17.688 Y-13.432 E18.03398
G1 X-16.373 Y-15.080 E18.09656
G1 X-15.936 Y-15.485 E18.11427
G1 X-14.195 Y-16.673 E18.17685
G1 X-13.783 Y-16.871 E18.19042
G1 X-13.658 Y-16.931 E18.19455
G1 X-11.643 Y-17.552 E18.25714
G1 X-11.054 Y-17.641 E18.27484
G1 X-10.000 Y-17.720 E18.30622
G1 X10.000 Y-17.720 E18.90004
G1 X11.054 Y-17.641 E18.93142
G1 X11.643 Y-17.552 E18.94913
G1 X13.658 Y-16.931 E19.01171
G1 X14.195 Y-16.673 E19.02941
G1 X15.936 Y-15.485 E19.09199
G1 X16.373 Y-15.080 E19.10970
G1 X17.688 Y-13.432 E19.17228
G1 X17.986 Y-12.915 E19.18998
G1 X18.756 Y-10.953 E19.25256
G1 X18.888 Y-10.372 E19.27026
G1 X19.046 Y-8.270 E19.33285
G1 X19.001 Y-7.676 E19.35055
G1 X18.532 Y-5.621 E19.41313
G1 X18.314 Y-5.066 E19.43083
G1 X17.856 Y-4.113 E19.46221
G1 X8.886 Y11.423 E19.99488
G1 X8.547 Y11.296 F15000.000
G1 F1800
G1 X7.547 Y13.029 E20.05426
G1 X6.981 Y13.858 E20.08405
G1 X6.610 Y14.324 E20.10176
G1 X5.143 Y15.685 E20.16118
G1 X4.650 Y16.021 E20.17888
G1 X2.847 Y16.889 E20.23830
G1 X2.277 Y17.065 E20.25600
G1 X0.298 Y17.363 E20.31543
G1 X-0.298 Y17.363 E20.33313
G1 X-2.277 Y17.065 E20.39255
G1 X-2.847 Y16.889 E20.41025
G1 X-4.650 Y16.021 E20.46968
G1 X-5.093 Y15.719 E20.48561
G1 X-6.610 Y14.324 E20.54678
G1 X-6.981 Y13.858 E20.56448
G1 X-7.547 Y13.029 E20.59428
G1 X-16.547 Y-2.560 E21.12872
G1 X-17.547 Y-4.292 E21.18811
G1 X-17.982 Y-5.196 E21.21790
G1 X-18.200 Y-5.751 E21.23560
G1 X-18.645 Y-7.702 E21.29503
G1 X-18.690 Y-8.297 E21.31273
G1 X-18.540 Y-10.293 E21.37215
G1 X-18.421 Y-10.816 E21.38808
G1 X-17.676 Y-12.737 E21.44925
G1 X-17.378 Y-13.253 E21.46696
G1 X-16.130 Y-14.818 E21.52638
G1 X-15.693 Y-15.223 E21.54408
G1 X-14.040 Y-16.351 E21.60351
G1 X-13.503 Y-16.609 E21.62121
G1 X-11.590 Y-17.199 E21.68063
G1 X-11.001 Y-17.288 E21.69834
G1 X-10.000 Y-17.363 E21.72813
G1 X10.000 Y-17.363 E22.32195
G1 X11.001 Y-17.288 E22.35175
G1 X11.590 Y-17.199 E22.36945
G1 X13.503 Y-16.609 E22.42887
G1 X14.040 Y-16.351 E22.44657
G1 X15.693 Y-15.223 E22.50600
G1 X16.130 Y-14.818 E22.52370
G1 X17.378 Y-13.253 E22.58312
G1 X17.676 Y-12.737 E22.60082
G1 X18.408 Y-10.874 E22.66025
G1 X18.540 Y-10.293 E22.67795
G1 X18.690 Y-8.297 E22.73737
G1 X18.645 Y-7.702 E22.75507
G1 X18.200 Y-5.751 E22.81450
G1 X17.982 Y-5.196 E22.83220
G1 X17.547 Y-4.292 E22.86199
G1 X8.577 Y11.244 E23.39465
G1 X8.237 Y11.118 F15000.000
G1 F1800
G1 X7.237 Y12.850 E23.45404
G1 X6.702 Y13.635 E23.48225
G1 X6.330 Y14.101 E23.49995
G1 X4.941 Y15.390 E23.55621
G1 X4.449 Y15.726 E23.57391
G1 X2.742 Y16.548 E23.63018
G1 X2.172 Y16.724 E23.64788
G1 X0.298 Y17.006 E23.70414
G1 X-0.298 Y17.006 E23.72184
G1 X-2.172 Y16.724 E23.77811
G1 X-2.742 Y16.548 E23.79581
G1 X-4.449 Y15.726 E23.85207
G1 X-4.941 Y15.390 E23.86977
G1 X-6.331 Y14.101 E23.92604
G1 X-6.702 Y13.635 E23.94374
G1 X-7.237 Y12.850 E23.97195
G1 X-16.237 Y-2.738 E24.50639
G1 X-17.237 Y-4.471 E24.56577
G1 X-17.650 Y-5.327 E24.59398
G1 X-17.867 Y-5.882 E24.61168
G1 X-18.289 Y-7.729 E24.66795
G1 X-18.334 Y-8.324 E24.68565
G1 X-18.192 Y-10.213 E24.74191
G1 X-18.059 Y-10.794 E24.75961
G1 X-17.367 Y-12.558 E24.81588
G1 X-17.069 Y-13.075 E24.83358
G1 X-15.888 Y-14.556 E24.88984
G1 X-15.451 Y-14.962 E24.90754
G1 X-13.885 Y-16.029 E24.96381
G1 X-13.348 Y-16.288 E24.98151
G1 X-11.537 Y-16.846 E25.03777
G1 X-10.947 Y-16.935 E25.05547
G1 X-10.000 Y-17.006 E25.08368
G1 X10.000 Y-17.006 E25.67751
G1 X10.947 Y-16.935 E25.70572
G1 X11.537 Y-16.846 E25.72342
G1 X13.348 Y-16.288 E25.77968
G1 X13.885 Y-16.029 E25.79738
G1 X15.451 Y-14.962 E25.85365
G1 X15.888 Y-14.556 E25.87135
G1 X17.069 Y-13.075 E25.92761
G1 X17.367 Y-12.558 E25.94531
G1 X18.059 Y-10.794 E26.00158
G1 X18.192 Y-10.213 E26.01928
G1 X18.334 Y-8.323 E26.07554
G1 X18.289 Y-7.729 E26.09324
G1 X17.867 Y-5.882 E26.14951
G1 X17.650 Y-5.327 E26.16721
G1 X17.237 Y-4.471 E26.19542
G1 X8.267 Y11.066 E26.72808
G1 F12000
G1 X7.237 Y12.850 E26.58130
G1 F12000
G1 X6.702 Y13.635 E26.51361
G1 F12000
G1 X6.368 Y14.054 E26.47538
G1 F12000
G1 X6.368 Y14.055 E26.47537
G1 F12000
G1 X6.330 Y14.101 E26.47113
G1 F12000
G1 X4.941 Y15.390 E26.33611
G1 F12000
G1 X4.449 Y15.726 E26.29364
G1 F12000
G1 X2.742 Y16.548 E26.15862
G1 F12000
G1 X2.172 Y16.724 E26.11615
G1 F12000
G1 X0.298 Y17.006 E25.98113
G1 F12000
G1 X-0.298 Y17.006 E25.93865
G1 F12000
G1 X-2.172 Y16.724 E25.80364
G1 F12000
G1 X-2.742 Y16.548 E25.76116
G1 F12000
G1 X-4.449 Y15.726 E25.62615
G1 F12000
G1 X-4.892 Y15.424 E25.58792
G1 F12000
G1 X-4.892 Y15.424 E25.58791
G1 F12000
G1 X-4.941 Y15.390 E25.58367
G1 F12000
G1 X-6.331 Y14.101 E25.44865
G1 F12000
G1 X-6.702 Y13.635 E25.40618
G1 F12000
G1 X-7.237 Y12.850 E25.33848
G1 F12000
G1 X-10.819 Y6.646 E24.82808
G1 E24.72808 F900.00000
G92 E0
G1 Z0.600 F15000.000
G1 X-10.665 Y-8.910 F15000.000
G1 Z0.200 F15000.000
G1 E2.00000 F900.00000
G1 F1800
G1 X-10.559 Y-9.095 E2.00632
G1 X-10.402 Y-9.239 E2.01265
G1 X-10.211 Y-9.332 E2.01897
G1 X-9.905 Y-9.378 E2.02815
G1 X9.905 Y-9.378 E2.61632
G1 X10.211 Y-9.332 E2.62550
G1 X10.402 Y-9.239 E2.63183
G1 X10.559 Y-9.095 E2.63815
G1 X10.665 Y-8.910 E2.64447
G1 X10.712 Y-8.702 E2.65080
G1 X10.696 Y-8.490 E2.65712
G1 X10.583 Y-8.202 E2.66630
G1 X0.679 Y8.953 E3.25447
G1 X0.486 Y9.195 E3.26365
G1 X0.310 Y9.315 E3.26998
G1 X0.106 Y9.378 E3.27630
G1 X-0.106 Y9.378 E3.28262
G1 X-0.310 Y9.315 E3.28895
G1 X-0.486 Y9.195 E3.29527
G1 X-0.679 Y8.953 E3.30445
G1 X-10.583 Y-8.202 E3.89262
G1 X-10.696 Y-8.490 E3.90180
G1 X-10.712 Y-8.702 E3.90813
G1 X-10.678 Y-8.852 E3.91267
G1 F12000
G1 X-10.559 Y-9.095 E3.89337
G1 F12000
G1 X-10.402 Y-9.239 E3.87820
G1 F12000
G1 X-10.211 Y-9.332 E3.86302
G1 F12000
G1 X-9.905 Y-9.378 E3.84099
G1 F12000
G1 X9.905 Y-9.378 E2.42956
G1 F12000
G1 X10.211 Y-9.332 E2.40752
G1 F12000
G1 X10.402 Y-9.239 E2.39235
G1 F12000
G1 X10.559 Y-9.095 E2.37718
G1 F12000
G1 X10.665 Y-8.910 E2.36201
G1 F12000
G1 X10.712 Y-8.702 E2.34683
G1 F12000
G1 X10.696 Y-8.490 E2.33166
G1 F12000
G1 X10.583 Y-8.202 E2.30962
G1 F12000
G1 X8.500 Y-4.593 E2.01267
G1 E1.91267 F900.00000
G92 E0
G1 Z0.600 F15000.000
G1 X0.000 Y9.735 F15000.000
G1 Z0.200 F15000.000
G1 E2.00000 F900.00000
G1 F1800
G1 X-0.160 Y9.735 E2.00476
G1 X-0.467 Y9.640 E2.01428
G1 X-0.732 Y9.460 E2.02380
G1 X-0.975 Y9.155 E2.03537
G1 X-10.906 Y-8.047 E2.62513
G1 X-11.049 Y-8.410 E2.63671
G1 X-11.073 Y-8.729 E2.64623
G1 X-11.001 Y-9.042 E2.65574
G1 X-10.841 Y-9.320 E2.66526
G1 X-10.606 Y-9.538 E2.67478
G1 X-10.317 Y-9.677 E2.68430
G1 X-9.931 Y-9.735 E2.69588
G1 X9.931 Y-9.735 E3.28563
G1 X10.317 Y-9.677 E3.29721
G1 X10.606 Y-9.538 E3.30673
G1 X10.841 Y-9.320 E3.31625
G1 X11.001 Y-9.042 E3.32577
G1 X11.073 Y-8.729 E3.33529
G1 X11.049 Y-8.410 E3.34481
G1 X10.906 Y-8.047 E3.35638
G1 X0.975 Y9.155 E3.94614
G1 X0.732 Y9.460 E3.95771
G1 X0.467 Y9.640 E3.96723
G1 X0.160 Y9.735 E3.97675
G1 X0.060 Y9.735 E3.97973
G1 X0.000 Y10.092 F15000.000
G1 F1800
G1 X-0.214 Y10.092 E3.98609
G1 X-0.623 Y9.966 E3.99880
G1 X-0.977 Y9.725 E4.01152
G1 X-1.270 Y9.357 E4.02549
G1 X-11.229 Y-7.891 E4.61683
G1 X-11.401 Y-8.329 E4.63080
G1 X-11.433 Y-8.756 E4.64352
G1 X-11.337 Y-9.174 E4.65623
G1 X-11.123 Y-9.545 E4.66895
G1 X-10.809 Y-9.836 E4.68166
G1 X-10.423 Y-10.022 E4.69438
G1 X-9.958 Y-10.092 E4.70834
G1 X9.958 Y-10.092 E5.29969
G1 X10.423 Y-10.022 E5.31366
G1 X10.809 Y-9.836 E5.32637
G1 X11.123 Y-9.545 E5.33909
G1 X11.337 Y-9.174 E5.35180
G1 X11.433 Y-8.756 E5.36452
G1 X11.401 Y-8.329 E5.37723
G1 X11.229 Y-7.891 E5.39120
G1 X1.270 Y9.357 E5.98255
G1 X0.977 Y9.725 E5.99652
G1 X0.623 Y9.966 E6.00923
G1 X0.214 Y10.092 E6.02195
G1 X0.060 Y10.092 E6.02652
G1 X0.000 Y10.449 F15000.000
G1 F1800
G1 X-0.268 Y10.449 E6.03448
G1 X-0.780 Y10.291 E6.05039
G1 X-1.223 Y9.989 E6.06630
G1 X-1.566 Y9.558 E6.08266
G1 X-11.551 Y-7.736 E6.67560
G1 X-11.753 Y-8.249 E6.69196
G1 X-11.793 Y-8.783 E6.70787
G1 X-11.673 Y-9.306 E6.72378
G1 X-11.406 Y-9.770 E6.73969
G1 X-11.013 Y-10.134 E6.75560
G1 X-10.530 Y-10.367 E6.77151
G1 X-9.985 Y-10.449 E6.78787
G1 X9.985 Y-10.449 E7.38081
G1 X10.530 Y-10.367 E7.39717
G1 X11.013 Y-10.134 E7.41308
G1 X11.406 Y-9.770 E7.42899
G1 X11.673 Y-9.306 E7.44490
G1 X11.793 Y-8.783 E7.46082
G1 X11.753 Y-8.249 E7.47673
G1 X11.551 Y-7.736 E7.49309
G1 X1.566 Y9.558 E8.08602
G1 X1.223 Y9.989 E8.10238
G1 X0.780 Y10.291 E8.11829
G1 X0.268 Y10.449 E8.13421
G1 X0.060 Y10.449 E8.14038
G1 X-0.149 Y10.226 F15000.000
G1 F12000
G1 X-0.268 Y10.449 E8.11701
G1 F12000
G1 X-0.780 Y10.291 E8.07883
G1 F12000
G1 X-1.223 Y9.989 E8.04065
G1 F12000
G1 X-1.566 Y9.558 E8.00139
G1 F12000
G1 X-11.551 Y-7.736 E6.57853
G1 F12000
G1 X-11.753 Y-8.249 E6.53926
G1 F12000
G1 X-11.793 Y-8.783 E6.50108
G1 F12000
G1 X-11.673 Y-9.306 E6.46290
G1 F12000
G1 X-11.406 Y-9.770 E6.42472
G1 F12000
G1 X-11.013 Y-10.134 E6.38654
G1 F12000
G1 X-10.530 Y-10.367 E6.34836
G1 F12000
G1 X-9.985 Y-10.449 E6.30910
G1 F12000
G1 X-9.021 Y-10.449 E6.24038
G1 E6.14038 F900.00000
G92 E0
G1 Z0.600 F15000.000
G1 X-0.577 Y-3.209 F15000.000
G1 Z0.200 F15000.000
G1 E2.00000 F900.00000
G1 F1800
G1 X0.577 Y-3.209 E2.03488
G1 X-0.000 Y-2.209 E2.06976
G1 X-0.547 Y-3.157 E2.10283
G1 X-1.207 Y-3.572 F15000.000
G1 F1800
G1 X1.207 Y-3.572 E2.17572
G1 X-0.000 Y-1.482 E2.24860
G1 X-1.177 Y-3.520 E2.31968
G1 X-1.836 Y-3.935 F15000.000
G1 F1800
G1 X1.836 Y-3.935 E2.43057
G1 X-0.000 Y-0.756 E2.54146
G1 X-1.806 Y-3.883 E2.65054
G1 X-2.465 Y-4.299 F15000.000
G1 F1800
G1 X2.465 Y-4.299 E2.79943
G1 X-0.000 Y-0.029 E2.94833
G1 X-2.435 Y-4.247 E3.09541
G1 X-3.094 Y-4.662 F15000.000
G1 F1800
G1 X3.094 Y-4.662 E3.28231
G1 X-0.000 Y0.697 E3.46921
G1 X-3.064 Y-4.610 E3.65430
G1 X-3.723 Y-5.025 F15000.000
G1 F1800
G1 X3.723 Y-5.025 E3.87921
G1 X-0.000 Y1.424 E4.10411
G1 X-3.693 Y-4.973 E4.32721
G1 X-4.352 Y-5.388 F15000.000
G1 F1800
G1 X4.352 Y-5.388 E4.59012
G1 X-0.000 Y2.150 E4.85303
G1 X-4.322 Y-5.336 E5.11412
G1 X-4.981 Y-5.752 F15000.000
G1 F1800
G1 X4.981 Y-5.752 E5.41504
G1 X-0.000 Y2.877 E5.71595
G1 X-4.951 Y-5.700 E6.01506
G1 X-5.611 Y-6.115 F15000.000
G1 F1800
G1 X5.611 Y-6.115 E6.35398
G1 X-0.000 Y3.603 E6.69290
G1 X-5.581 Y-6.063 E7.03001
G1 X-6.240 Y-6.478 F15000.000
G1 F1800
G1 X6.240 Y-6.478 E7.40693
G1 X-0.000 Y4.329 E7.78386
G1 X-6.210 Y-6.426 E8.15897
G1 X-6.869 Y-6.841 F15000.000
G1 F1800
G1 X6.869 Y-6.841 E8.57390
G1 X-0.000 Y5.056 E8.98883
G1 X-6.839 Y-6.789 E9.40195
G1 X-7.498 Y-7.205 F15000.000
G1 F1800
G1 X7.498 Y-7.205 E9.85488
G1 X-0.000 Y5.782 E10.30782
G1 X-7.468 Y-7.153 E10.75894
G1 X-8.127 Y-7.568 F15000.000
G1 F1800
G1 X8.127 Y-7.568 E11.24988
G1 X-0.000 Y6.509 E11.74082
G1 X-8.097 Y-7.516 E12.22995
G1 X-8.756 Y-7.931 F15000.000
G1 F1800
G1 X8.756 Y-7.931 E12.75889
G1 X-0.000 Y7.235 E13.28784
G1 X-8.726 Y-7.879 E13.81497
G1 X-9.386 Y-8.294 F15000.000
G1 F1800
G1 X9.386 Y-8.294 E14.38192
G1 X-0.000 Y7.962 E14.94887
G1 X-9.356 Y-8.242 E15.51401
G1 X-10.015 Y-8.658 F15000.000
G1 F1800
G1 X10.015 Y-8.658 E16.11896
G1 X-0.000 Y8.688 E16.72391
G1 X-9.985 Y-8.606 E17.32706
G1 X-10.329 Y-8.778 F15000.000
G1 F1800
G1 X-10.276 Y-8.869 E17.33024
G1 X-10.199 Y-8.941 E17.33342
G1 X-10.104 Y-8.987 E17.33660
G1 X-9.878 Y-9.021 E17.34351
G1 X9.878 Y-9.021 E17.94021
G1 X10.104 Y-8.987 E17.94711
G1 X10.199 Y-8.941 E17.95029
G1 X10.276 Y-8.869 E17.95348
G1 X10.329 Y-8.778 E17.95666
G1 X10.352 Y-8.675 E17.95984
G1 X10.344 Y-8.570 E17.96302
G1 X10.261 Y-8.358 E17.96993
G1 X0.383 Y8.752 E18.56662
G1 X0.240 Y8.930 E18.57353
G1 X0.153 Y8.990 E18.57671
G1 X0.053 Y9.021 E18.57989
G1 X-0.053 Y9.021 E18.58308
G1 X-0.153 Y8.990 E18.58626
G1 X-0.240 Y8.930 E18.58944
G1 X-0.383 Y8.752 E18.59635
G1 X-10.261 Y-8.358 E19.19304
G1 X-10.344 Y-8.570 E19.19995
G1 X-10.342 Y-8.720 E19.20446
M104 S195 ; set temperature
;LAYER:1
G1 F12000
G1 X-10.344 Y-8.570 E19.19383
G1 F12000
G1 X-10.261 Y-8.358 E19.17753
G1 F12000
G1 X-0.383 Y8.752 E17.76992
G1 F12000
G1 X-0.240 Y8.930 E17.75362
G1 F12000
G1 X-0.153 Y8.990 E17.74612
G1 F12000
G1 X-0.053 Y9.021 E17.73861
G1 F12000
G1 X0.053 Y9.021 E17.73111
G1 F12000
G1 X0.153 Y8.990 E17.72361
G1 F12000
G1 X0.240 Y8.930 E17.71610
G1 F12000
G1 X0.383 Y8.752 E17.69981
G1 F12000
G1 X3.157 Y3.946 E17.30446
G1 E17.20446 F900.00000
G92 E0
G1 Z0.600 F15000.000
G1 X-0.117 Y8.914 F15000.000
G1 Z0.400 F15000.000
G1 E2.00000 F900.00000
G1 F1200
G1 X-0.183 Y8.869 E2.00345
G1 X-0.314 Y8.705 E2.01248
G1 X-10.186 Y-8.394 E2.86136
G1 X-10.263 Y-8.589 E2.87039
G1 X-10.251 Y-8.748 E2.87722
G1 X-10.152 Y-8.872 E2.88405
G1 X-10.079 Y-8.907 E2.88750
G1 X-9.872 Y-8.938 E2.89653
G1 X9.872 Y-8.938 E3.74541
G1 X10.079 Y-8.907 E3.75444
G1 X10.152 Y-8.872 E3.75789
G1 X10.211 Y-8.817 E3.76135
G1 X10.269 Y-8.669 E3.76818
G1 X10.263 Y-8.589 E3.77163
G1 X10.186 Y-8.394 E3.78066
G1 X0.314 Y8.705 E4.62954
G1 X0.183 Y8.869 E4.63857
G1 X0.117 Y8.914 E4.64202
G1 X0.040 Y8.938 E4.64547
G1 X-0.060 Y8.932 E4.64977
G1 X-10.738 Y-8.939 F15000.000
G1 F1200
G1 X-10.619 Y-9.143 E4.65992
G1 X-10.446 Y-9.304 E4.67008
G1 X-10.234 Y-9.406 E4.68023
G1 X-9.911 Y-9.455 E4.69428
G1 X9.911 Y-9.455 E5.54649
G1 X10.234 Y-9.406 E5.56054
G1 X10.446 Y-9.304 E5.57069
G1 X10.619 Y-9.143 E5.58085
G1 X10.738 Y-8.939 E5.59100
G1 X10.790 Y-8.708 E5.60116
G1 X10.772 Y-8.473 E5.61131
G1 X10.653 Y-8.169 E5.62536
G1 X0.743 Y8.997 E6.47757
G1 X0.539 Y9.252 E6.49162
G1 X0.344 Y9.385 E6.50177
G1 X0.118 Y9.455 E6.51193
G1 X-0.118 Y9.455 E6.52208
G1 X-0.344 Y9.385 E6.53224
G1 X-0.539 Y9.252 E6.54239
G1 X-0.743 Y8.997 E6.55644
G1 X-10.653 Y-8.169 E7.40865
G1 X-10.772 Y-8.473 E7.42270
G1 X-10.790 Y-8.708 E7.43285
G1 X-10.751 Y-8.880 E7.44043
G1 X0.000 Y9.972 F15000.000
G1 F1200
G1 X-0.196 Y9.972 E7.44885
G1 X-0.571 Y9.856 E7.46571
G1 X-0.895 Y9.636 E7.48257
G1 X-1.171 Y9.289 E7.50163
G1 X-11.120 Y-7.944 E8.35718
G1 X-11.282 Y-8.356 E8.37624
G1 X-11.312 Y-8.747 E8.39310
G1 X-11.224 Y-9.130 E8.40995
G1 X-11.028 Y-9.469 E8.42681
G1 X-10.741 Y-9.736 E8.44367
G1 X-10.388 Y-9.906 E8.46052
G1 X-9.949 Y-9.972 E8.47959
G1 X9.949 Y-9.972 E9.33513
G1 X10.388 Y-9.906 E9.35419
G1 X10.741 Y-9.736 E9.37105
G1 X11.028 Y-9.469 E9.38791
G1 X11.224 Y-9.130 E9.40476
G1 X11.312 Y-8.747 E9.42162
G1 X11.282 Y-8.356 E9.43848
G1 X11.120 Y-7.944 E9.45754
G1 X1.171 Y9.289 E10.31308
G1 X0.895 Y9.636 E10.33215
G1 X0.571 Y9.856 E10.34900
G1 X0.196 Y9.972 E10.36586
G1 X0.060 Y9.972 E10.37171
G1 X0.000 Y10.429 F15000.000
G1 F1200
G1 X-0.265 Y10.429 E10.38046
G1 X-0.771 Y10.273 E10.39795
G1 X-1.209 Y9.974 E10.41545
G1 X-1.550 Y9.547 E10.43349
G1 X-11.533 Y-7.745 E11.09275
G1 X-11.733 Y-8.254 E11.11079
G1 X-11.773 Y-8.782 E11.12829
G1 X-11.655 Y-9.298 E11.14578
G1 X-11.390 Y-9.757 E11.16327
G1 X-11.001 Y-10.118 E11.18077
G1 X-10.524 Y-10.348 E11.19826
G1 X-9.984 Y-10.429 E11.21631
G1 X9.984 Y-10.429 E11.87557
G1 X10.524 Y-10.348 E11.89361
G1 X11.001 Y-10.118 E11.91110
G1 X11.390 Y-9.757 E11.92860
G1 X11.655 Y-9.298 E11.94609
G1 X11.773 Y-8.782 E11.96359
G1 X11.733 Y-8.254 E11.98108
G1 X11.533 Y-7.745 E11.99913
G1 X1.550 Y9.547 E12.65838
G1 X1.209 Y9.974 E12.67643
G1 X0.771 Y10.273 E12.69392
G1 X0.265 Y10.429 E12.71142
G1 X0.060 Y10.429 E12.71818
G1 X-0.147 Y10.209 F15000.000
G1 X0.201 Y8.416 F15000.000
G1 F1200
G1 X-0.201 Y8.013 E12.74325
G1 X-1.225 Y6.240 E12.83354
G1 X0.476 Y7.941 E12.93958
G1 X0.750 Y7.465 E12.96377
G1 X-2.250 Y4.466 E13.15076
G1 X-3.274 Y2.692 E13.24105
G1 X1.024 Y6.990 E13.50899
G1 X1.299 Y6.515 E13.53318
G1 X-4.298 Y0.918 E13.88207
G1 X-5.322 Y-0.856 E13.97235
G1 X1.573 Y6.039 E14.40219
G1 X1.848 Y5.564 E14.42638
G1 X-6.346 Y-2.630 E14.93717
G1 X-7.370 Y-4.404 E15.02746
G1 X2.122 Y5.089 E15.61919
G1 X2.396 Y4.613 E15.64338
G1 X-8.394 Y-6.177 E16.31607
G1 X-9.418 Y-7.951 E16.40635
G1 X2.671 Y4.138 E17.15999
G1 X2.945 Y3.663 E17.18418
G1 X-9.339 Y-8.622 E17.95000
G1 X-8.590 Y-8.622 E17.98304
G1 X3.220 Y3.188 E18.71923
G1 X3.494 Y2.712 E18.74342
G1 X-7.840 Y-8.622 E19.44998
G1 X-7.090 Y-8.622 E19.48302
G1 X3.769 Y2.237 E20.15995
G1 X4.043 Y1.762 E20.18414
G1 X-6.341 Y-8.622 E20.83144
G1 X-5.591 Y-8.622 E20.86449
G1 X4.317 Y1.286 E21.48215
G1 X4.592 Y0.811 E21.50635
G1 X-4.841 Y-8.622 E22.09438
G1 X-4.091 Y-8.622 E22.12743
G1 X4.866 Y0.336 E22.68584
G1 X5.141 Y-0.140 E22.71003
G1 X-3.342 Y-8.622 E23.23881
G1 X-2.592 Y-8.622 E23.27186
G1 X5.415 Y-0.615 E23.77101
G1 X5.689 Y-1.090 E23.79520
G1 X-1.842 Y-8.622 E24.26472
G1 X-1.093 Y-8.622 E24.29777
G1 X5.964 Y-1.565 E24.73766
G1 X6.238 Y-2.041 E24.76185
G1 X-0.343 Y-8.622 E25.17211
G1 X0.407 Y-8.622 E25.20516
G1 X6.513 Y-2.516 E25.58579
G1 X6.787 Y-2.991 E25.60998
G1 X1.157 Y-8.622 E25.96099
G1 X1.906 Y-8.622 E25.99403
G1 X7.061 Y-3.467 E26.31541
G1 X7.336 Y-3.942 E26.33960
G1 X2.656 Y-8.622 E26.63134
G1 X3.406 Y-8.622 E26.66439
G1 X7.610 Y-4.417 E26.92650
G1 X7.885 Y-4.893 E26.95070
G1 X4.155 Y-8.622 E27.18318
G1 X4.905 Y-8.622 E27.21623
G1 X8.159 Y-5.368 E27.41908
G1 X8.434 Y-5.843 E27.44327
G1 X5.655 Y-8.622 E27.61650
G1 X6.404 Y-8.622 E27.64955
G1 X8.708 Y-6.318 E27.79314
G1 X8.982 Y-6.794 E27.81733
G1 X7.154 Y-8.622 E27.93130
G1 X7.904 Y-8.622 E27.96435
G1 X9.257 Y-7.269 E28.04868
G1 X9.531 Y-7.744 E28.07288
G1 X8.654 Y-8.622 E28.12758
G1 X9.403 Y-8.622 E28.16063
G1 X9.806 Y-8.220 E28.18571
;LAYER:2
G1 F12000
G1 X9.403 Y-8.622 E28.14517
G1 F12000
G1 X8.654 Y-8.622 E28.09176
G1 F12000
G1 X9.531 Y-7.744 E28.00333
G1 F12000
G1 X9.257 Y-7.269 E27.96423
G1 F12000
G1 X7.904 Y-8.622 E27.82791
G1 F12000
G1 X7.154 Y-8.622 E27.77449
G1 F12000
G1 X8.982 Y-6.794 E27.59028
G1 F12000
G1 X8.708 Y-6.318 E27.55117
G1 F12000
G1 X6.404 Y-8.622 E27.31907
G1 F12000
G1 X5.655 Y-8.622 E27.26565
G1 F12000
G1 X8.434 Y-5.843 E26.98566
G1 F12000
G1 X8.159 Y-5.368 E26.94655
G1 F12000
G1 X4.905 Y-8.622 E26.61866
G1 F12000
G1 X4.155 Y-8.622 E26.56525
G1 F12000
G1 X6.930 Y-5.848 E26.28571
G1 E26.18571 F900.00000
G92 E0
G1 Z0.800 F15000.000
G1 X-0.117 Y8.914 F15000.000
G1 Z0.600 F15000.000
G1 E2.00000 F900.00000
G1 F1200
G1 X-0.183 Y8.869 E2.00345
G1 X-0.314 Y8.705 E2.01248
G1 X-10.186 Y-8.394 E2.86136
G1 X-10.263 Y-8.589 E2.87039
G1 X-10.269 Y-8.669 E2.87384
G1 X-10.211 Y-8.817 E2.88067
G1 X-10.079 Y-8.907 E2.88750
G1 X-9.872 Y-8.938 E2.89653
G1 X9.872 Y-8.938 E3.74541
G1 X10.079 Y-8.907 E3.75444
G1 X10.152 Y-8.872 E3.75789
G1 X10.211 Y-8.817 E3.76135
G1 X10.269 Y-8.669 E3.76818
G1 X10.263 Y-8.589 E3.77163
G1 X10.186 Y-8.394 E3.78066
G1 X0.314 Y8.705 E4.62954
G1 X0.183 Y8.869 E4.63857
G1 X0.117 Y8.914 E4.64202
G1 X0.040 Y8.938 E4.64547
G1 X-0.060 Y8.932 E4.64977
G1 X-10.738 Y-8.939 F15000.000
G1 F1200
G1 X-10.619 Y-9.143 E4.65992
G1 X-10.446 Y-9.304 E4.67008
G1 X-10.234 Y-9.406 E4.68023
G1 X-9.911 Y-9.455 E4.69428
G1 X9.911 Y-9.455 E5.54649
G1 X10.234 Y-9.406 E5.56054
G1 X10.446 Y-9.304 E5.57069
G1 X10.619 Y-9.143 E5.58085
G1 X10.738 Y-8.939 E5.59100
G1 X10.790 Y-8.708 E5.60116
G1 X10.772 Y-8.473 E5.61131
G1 X10.653 Y-8.169 E5.62536
G1 X0.743 Y8.997 E6.47757
G1 X0.539 Y9.252 E6.49162
G1 X0.344 Y9.385 E6.50177
G1 X0.118 Y9.455 E6.51193
G1 X-0.118 Y9.455 E6.52208
G1 X-0.344 Y9.385 E6.53224
G1 X-0.539 Y9.252 E6.54239
G1 X-0.743 Y8.997 E6.55644
G1 X-10.653 Y-8.169 E7.40865
G1 X-10.772 Y-8.473 E7.42270
G1 X-10.790 Y-8.708 E7.43285
G1 X-10.751 Y-8.880 E7.44043
G1 X0.000 Y9.972 F15000.000
G1 F1200
G1 X-0.196 Y9.972 E7.44885
G1 X-0.571 Y9.856 E7.46571
G1 X-0.895 Y9.636 E7.48257
G1 X-1.171 Y9.289 E7.50163
G1 X-11.120 Y-7.944 E8.35718
G1 X-11.282 Y-8.356 E8.37624
G1 X-11.312 Y-8.747 E8.39310
G1 X-11.224 Y-9.130 E8.40995
G1 X-11.028 Y-9.469 E8.42681
G1 X-10.741 Y-9.736 E8.44367
G1 X-10.388 Y-9.906 E8.46052
G1 X-9.949 Y-9.972 E8.47959
G1 X9.949 Y-9.972 E9.33513
G1 X10.388 Y-9.906 E9.35419
G1 X10.741 Y-9.736 E9.37105
G1 X11.028 Y-9.469 E9.38791
G1 X11.224 Y-9.130 E9.40476
G1 X11.312 Y-8.747 E9.42162
G1 X11.282 Y-8.356 E9.43848
G1 X11.120 Y-7.944 E9.45754
G1 X1.171 Y9.289 E10.31308
G1 X0.895 Y9.636 E10.33215
G1 X0.571 Y9.856 E10.34900
G1 X0.196 Y9.972 E10.36586
G1 X0.060 Y9.972 E10.37171
G1 X0.000 Y10.429 F15000.000
G1 F1200
G1 X-0.265 Y10.429 E10.38046
G1 X-0.771 Y10.273 E10.39795
G1 X-1.209 Y9.974 E10.41545
G1 X-1.550 Y9.547 E10.43349
G1 X-11.533 Y-7.745 E11.09275
G1 X-11.733 Y-8.254 E11.11079
G1 X-11.773 Y-8.782 E11.12829
G1 X-11.655 Y-9.298 E11.14578
G1 X-11.390 Y-9.757 E11.16327
G1 X-11.001 Y-10.118 E11.18077
G1 X-10.524 Y-10.348 E11.19826
G1 X-9.984 Y-10.429 E11.21631
G1 X9.984 Y-10.429 E11.87557
G1 X10.524 Y-10.348 E11.89361
G1 X11.001 Y-10.118 E11.91110
G1 X11.390 Y-9.757 E11.92860
G1 X11.655 Y-9.298 E11.94609
G1 X11.773 Y-8.782 E11.96359
G1 X11.733 Y-8.254 E11.98108
G1 X11.533 Y-7.745 E11.99913
G1 X1.550 Y9.547 E12.65838
G1 X1.209 Y9.974 E12.67643
G1 X0.771 Y10.273 E12.69392
G1 X0.265 Y10.429 E12.71142
G1 X0.060 Y10.429 E12.71818
G1 X-0.147 Y10.209 F15000.000
G1 X-0.201 Y8.416 F15000.000
G1 F1200
G1 X0.201 Y8.013 E12.74327
G1 X1.225 Y6.240 E12.83356
G1 X-0.476 Y7.941 E12.93959
G1 X-0.750 Y7.465 E12.96379
G1 X2.250 Y4.466 E13.15077
G1 X3.274 Y2.692 E13.24106
G1 X-1.024 Y6.990 E13.50899
G1 X-1.299 Y6.515 E13.53319
G1 X4.298 Y0.918 E13.88207
G1 X5.322 Y-0.856 E13.97236
G1 X-1.573 Y6.039 E14.40219
G1 X-1.848 Y5.564 E14.42638
G1 X6.346 Y-2.630 E14.93717
G1 X7.370 Y-4.403 E15.02745
G1 X-2.122 Y5.089 E15.61918
G1 X-2.396 Y4.613 E15.64338
G1 X8.394 Y-6.177 E16.31606
G1 X9.418 Y-7.951 E16.40634
G1 X-2.671 Y4.138 E17.15998
G1 X-2.945 Y3.663 E17.18417
G1 X9.339 Y-8.622 E17.94998
G1 X8.590 Y-8.622 E17.98303
G1 X-3.220 Y3.188 E18.71922
G1 X-3.494 Y2.712 E18.74341
G1 X7.840 Y-8.622 E19.44997
G1 X7.090 Y-8.622 E19.48301
G1 X-3.769 Y2.237 E20.15994
G1 X-4.043 Y1.762 E20.18413
G1 X6.341 Y-8.622 E20.83143
G1 X5.591 Y-8.622 E20.86448
G1 X-4.317 Y1.286 E21.48215
G1 X-4.592 Y0.811 E21.50634
G1 X4.841 Y-8.622 E22.09438
G1 X4.091 Y-8.622 E22.12743
G1 X-4.866 Y0.336 E22.68584
G1 X-5.141 Y-0.140 E22.71003
G1 X3.342 Y-8.622 E23.23881
G1 X2.592 Y-8.622 E23.27186
G1 X-5.415 Y-0.615 E23.77101
G1 X-5.689 Y-1.090 E23.79520
G1 X1.842 Y-8.622 E24.26472
G1 X1.093 Y-8.622 E24.29777
G1 X-5.964 Y-1.565 E24.73766
G1 X-6.238 Y-2.041 E24.76185
G1 X0.343 Y-8.622 E25.17211
G1 X-0.407 Y-8.622 E25.20516
G1 X-6.513 Y-2.516 E25.58579
G1 X-6.787 Y-2.991 E25.60999
G1 X-1.156 Y-8.622 E25.96099
G1 X-1.906 Y-8.622 E25.99404
G1 X-7.061 Y-3.467 E26.31541
G1 X-7.336 Y-3.942 E26.33960
G1 X-2.656 Y-8.622 E26.63135
G1 X-3.406 Y-8.622 E26.66439
G1 X-7.610 Y-4.417 E26.92651
G1 X-7.885 Y-4.893 E26.95070
G1 X-4.155 Y-8.622 E27.18319
G1 X-4.905 Y-8.622 E27.21623
G1 X-8.159 Y-5.368 E27.41909
G1 X-8.434 Y-5.843 E27.44328
G1 X-5.655 Y-8.622 E27.61651
G1 X-6.404 Y-8.622 E27.64956
G1 X-8.708 Y-6.318 E27.79315
G1 X-8.982 Y-6.794 E27.81734
G1 X-7.154 Y-8.622 E27.93131
G1 X-7.904 Y-8.622 E27.96436
G1 X-9.257 Y-7.269 E28.04870
G1 X-9.531 Y-7.744 E28.07289
G1 X-8.654 Y-8.622 E28.12760
G1 X-9.403 Y-8.622 E28.16064
G1 X-9.806 Y-8.220 E28.18572
M106 S255
;LAYER:3
G1 F12000
G1 X-9.403 Y-8.622 E28.14519
G1 F12000
G1 X-8.654 Y-8.622 E28.09177
G1 F12000
G1 X-9.531 Y-7.744 E28.00334
G1 F12000
G1 X-9.257 Y-7.269 E27.96424
G1 F12000
G1 X-7.904 Y-8.622 E27.82792
G1 F12000
G1 X-7.154 Y-8.622 E27.77450
G1 F12000
G1 X-8.982 Y-6.794 E27.59029
G1 F12000
G1 X-8.708 Y-6.318 E27.55118
G1 F12000
G1 X-6.404 Y-8.622 E27.31908
G1 F12000
G1 X-5.655 Y-8.622 E27.26566
G1 F12000
G1 X-8.434 Y-5.843 E26.98566
G1 F12000
G1 X-8.159 Y-5.368 E26.94656
G1 F12000
G1 X-4.905 Y-8.622 E26.61867
G1 F12000
G1 X-4.155 Y-8.622 E26.56525
G1 F12000
G1 X-6.930 Y-5.848 E26.28572
G1 E26.18572 F900.00000
G92 E0
G1 Z1.000 F15000.000
G1 X-0.117 Y8.914 F15000.000
G1 Z0.800 F15000.000
G1 E2.00000 F900.00000
G1 F1200
G1 X-0.183 Y8.869 E2.00345
G1 X-0.314 Y8.705 E2.01248
G1 X-10.186 Y-8.394 E2.86136
G1 X-10.263 Y-8.589 E2.87039
G1 X-10.251 Y-8.748 E2.87722
G1 X-10.152 Y-8.872 E2.88405
G1 X-10.079 Y-8.907 E2.88750
G1 X-9.872 Y-8.938 E2.89653
G1 X9.872 Y-8.938 E3.74541
G1 X10.079 Y-8.907 E3.75444
G1 X10.152 Y-8.872 E3.75789
G1 X10.211 Y-8.817 E3.76135
G1 X10.269 Y-8.669 E3.76818
G1 X10.263 Y-8.589 E3.77163
G1 X10.186 Y-8.394 E3.78066
G1 X0.314 Y8.705 E4.62954
G1 X0.183 Y8.869 E4.63857
G1 X0.117 Y8.914 E4.64202
G1 X0.040 Y8.938 E4.64547
G1 X-0.060 Y8.932 E4.64977
G1 X10.738 Y-8.939 F15000.000
G1 F1200
G1 X10.790 Y-8.708 E4.65992
G1 X10.772 Y-8.473 E4.67008
G1 X10.653 Y-8.169 E4.68412
G1 X0.743 Y8.997 E5.53634
G1 X0.539 Y9.252 E5.55038
G1 X0.344 Y9.385 E5.56054
G1 X0.118 Y9.455 E5.57069
G1 X-0.118 Y9.455 E5.58085
G1 X-0.344 Y9.385 E5.59100
G1 X-0.539 Y9.252 E5.60116
G1 X-0.743 Y8.997 E5.61520
G1 X-10.653 Y-8.169 E6.46742
G1 X-10.772 Y-8.473 E6.48146
G1 X-10.790 Y-8.708 E6.49162
G1 X-10.738 Y-8.939 E6.50177
G1 X-10.619 Y-9.143 E6.51193
G1 X-10.446 Y-9.304 E6.52208
G1 X-10.234 Y-9.406 E6.53224
G1 X-9.911 Y-9.455 E6.54628
G1 X9.911 Y-9.455 E7.39849
G1 X10.234 Y-9.406 E7.41254
G1 X10.446 Y-9.304 E7.42270
G1 X10.619 Y-9.143 E7.43285
G1 X10.708 Y-8.991 E7.44043
G1 X0.000 Y9.972 F15000.000
G1 F1200
G1 X-0.196 Y9.972 E7.44885
G1 X-0.571 Y9.856 E7.46571
G1 X-0.895 Y9.636 E7.48257
G1 X-1.171 Y9.289 E7.50163
G1 X-11.120 Y-7.944 E8.35717
G1 X-11.282 Y-8.356 E8.37624
G1 X-11.312 Y-8.747 E8.39309
G1 X-11.224 Y-9.130 E8.40995
G1 X-11.028 Y-9.469 E8.42681
G1 X-10.741 Y-9.736 E8.44367
G1 X-10.388 Y-9.906 E8.46052
G1 X-9.949 Y-9.972 E8.47959
G1 X9.949 Y-9.972 E9.33513
G1 X10.388 Y-9.906 E9.35419
G1 X10.741 Y-9.736 E9.37105
G1 X11.028 Y-9.469 E9.38791
G1 X11.224 Y-9.130 E9.40476
G1 X11.312 Y-8.747 E9.42162
G1 X11.282 Y-8.356 E9.43848
G1 X11.120 Y-7.944 E9.45754
G1 X1.171 Y9.289 E10.31308
G1 X0.895 Y9.636 E10.33215
G1 X0.571 Y9.856 E10.34900
G1 X0.196 Y9.972 E10.36586
G1 X0.060 Y9.972 E10.37171
G1 X0.000 Y10.429 F15000.000
G1 F1200
G1 X-0.265 Y10.429 E10.38046
G1 X-0.771 Y10.273 E10.39795
G1 X-1.209 Y9.974 E10.41545
G1 X-1.550 Y9.547 E10.43349
G1 X-11.533 Y-7.745 E11.09275
G1 X-11.733 Y-8.254 E11.11079
G1 X-11.773 Y-8.782 E11.12829
G1 X-11.655 Y-9.298 E11.14578
G1 X-11.390 Y-9.757 E11.16327
G1 X-11.001 Y-10.118 E11.18077
G1 X-10.524 Y-10.348 E11.19826
G1 X-9.984 Y-10.429 E11.21631
G1 X9.984 Y-10.429 E11.87557
G1 X10.524 Y-10.348 E11.89361
G1 X11.001 Y-10.118 E11.91110
G1 X11.390 Y-9.757 E11.92860
G1 X11.655 Y-9.298 E11.94609
G1 X11.773 Y-8.782 E11.96359
G1 X11.733 Y-8.254 E11.98108
G1 X11.533 Y-7.745 E11.99913
G1 X1.550 Y9.547 E12.65838
G1 X1.209 Y9.974 E12.67643
G1 X0.771 Y10.273 E12.69392
G1 X0.265 Y10.429 E12.71142
G1 X0.060 Y10.429 E12.71818
G1 X-0.147 Y10.209 F15000.000
G1 X0.201 Y8.416 F15000.000
G1 F1200
G1 X-0.201 Y8.013 E12.74324
G1 X-1.225 Y6.240 E12.83345
G1 X0.475 Y7.941 E12.93940
G1 X0.750 Y7.466 E12.96357
G1 X-2.249 Y4.467 E13.15041
G1 X-3.272 Y2.694 E13.24061
G1 X1.024 Y6.991 E13.50832
G1 X1.298 Y6.515 E13.53249
G1 X-4.296 Y0.921 E13.88108
G1 X-5.320 Y-0.852 E13.97128
G1 X1.573 Y6.040 E14.40075
G1 X1.847 Y5.565 E14.42492
G1 X-6.343 Y-2.625 E14.93526
G1 X-7.367 Y-4.398 E15.02546
G1 X2.121 Y5.090 E15.61668
G1 X2.395 Y4.615 E15.64085
G1 X-8.391 Y-6.171 E16.31295
G1 X-9.414 Y-7.944 E16.40315
G1 X2.670 Y4.140 E17.15612
G1 X2.944 Y3.665 E17.18030
G1 X-9.343 Y-8.622 E17.94588
G1 X-8.593 Y-8.621 E17.97892
G1 X3.218 Y3.190 E18.71488
G1 X3.493 Y2.715 E18.73905
G1 X-7.843 Y-8.621 E19.44540
G1 X-7.094 Y-8.621 E19.47843
G1 X3.767 Y2.240 E20.15516
G1 X4.041 Y1.765 E20.17933
G1 X-6.344 Y-8.620 E20.82644
G1 X-5.594 Y-8.620 E20.85947
G1 X4.316 Y1.290 E21.47695
G1 X4.590 Y0.814 E21.50112
G1 X-4.845 Y-8.620 E22.08899
G1 X-4.095 Y-8.620 E22.12202
G1 X4.864 Y0.339 E22.68026
G1 X5.138 Y-0.136 E22.70443
G1 X-3.345 Y-8.619 E23.23305
G1 X-2.596 Y-8.619 E23.26608
G1 X5.413 Y-0.611 E23.76509
G1 X5.687 Y-1.086 E23.78926
G1 X-1.846 Y-8.619 E24.25864
G1 X-1.096 Y-8.618 E24.29167
G1 X5.961 Y-1.561 E24.73143
G1 X6.236 Y-2.036 E24.75560
G1 X-0.347 Y-8.618 E25.16574
G1 X0.403 Y-8.618 E25.19877
G1 X6.510 Y-2.511 E25.57928
G1 X6.784 Y-2.986 E25.60346
G1 X1.153 Y-8.618 E25.95435
G1 X1.902 Y-8.617 E25.98738
G1 X7.058 Y-3.461 E26.30866
G1 X7.333 Y-3.936 E26.33283
G1 X2.652 Y-8.617 E26.62448
G1 X3.402 Y-8.617 E26.65751
G1 X7.607 Y-4.411 E26.91955
G1 X7.881 Y-4.887 E26.94372
G1 X4.151 Y-8.616 E27.17613
G1 X4.901 Y-8.616 E27.20916
G1 X8.156 Y-5.362 E27.41196
G1 X8.430 Y-5.837 E27.43613
G1 X5.651 Y-8.616 E27.60930
G1 X6.400 Y-8.616 E27.64233
G1 X8.704 Y-6.312 E27.78588
G1 X8.978 Y-6.787 E27.81005
G1 X7.150 Y-8.615 E27.92398
G1 X7.900 Y-8.615 E27.95701
G1 X9.253 Y-7.262 E28.04132
G1 X9.527 Y-7.737 E28.06549
G1 X8.649 Y-8.615 E28.12018
G1 X9.399 Y-8.614 E28.15321
G1 X9.801 Y-8.212 E28.17827
;LAYER:103
G1 F12000
G1 X-8.152 Y-7.891 E4.98005
G1 F12000
G1 X-8.223 Y-7.871 E4.97476
G1 E4.09207 F900.00000
G92 E0
G1 Z21.000 F15000.000
G1 X0.000 Y7.317 F15000.000
G1 Z20.800 F15000.000
G1 E2.00000 F900.00000
G1 F1200
G1 X-0.577 Y6.317 E2.04964
G1 X0.577 Y6.317 E2.09928
G1 X0.030 Y7.265 E2.14634
G1 F12000
G1 X-0.577 Y6.317 E2.06613
G1 F12000
G1 X0.577 Y6.317 E1.98387
G1 F12000
G1 X0.030 Y7.265 E1.90588
G1 E0.14634 F900.00000
G92 E0
G1 Z21.200 F15000.000
G1 X8.250 Y-6.972 F15000.000
G1 Z20.800 F15000.000
G1 E2.00000 F900.00000
G1 F1200
G1 X7.673 Y-7.972 E2.04964
G1 X8.827 Y-7.972 E2.09928
G1 X8.280 Y-7.024 E2.14634
G1 F12000
G1 X7.673 Y-7.972 E2.06613
G1 F12000
G1 X8.827 Y-7.972 E1.98387
G1 F12000
G1 X8.280 Y-7.024 E1.90588
G1 E0.14634 F900.00000
G92 E0
G1 Z21.200 F15000.000
G1 X-0.127 Y5.860 F15000.000
G1 Z20.800 F15000.000
G1 E2.00000 F900.00000
G1 F1200
G1 X1.369 Y5.860 E2.04939
G1 X0.000 Y8.231 E2.13979
G1 X-9.619 Y-8.429 E2.77497
G1 X9.619 Y-8.429 E3.41016
G1 X8.250 Y-6.058 E3.50056
G1 X7.502 Y-7.354 E3.54995
G1 X-7.756 Y-7.354 E4.05373
G1 X-0.157 Y5.808 E4.55553
G1 X-0.196 Y6.254 F15000.000
G1 X-0.616 Y6.089 F15000.000
G1 F1200
G1 X-8.420 Y-7.427 E5.30245
G1 F1200
G1 X-8.455 Y-7.572 E5.31058
G1 F1200
G1 X-8.509 Y-7.788 E5.32431
G1 X-8.366 Y-7.829 E5.33346
G1 F1200
G1 X-8.223 Y-7.871 E5.34160
G1 F1200
G1 X-8.152 Y-7.891 E5.34515
G1 X7.455 Y-7.891 E6.09207
;LAYER:104
G1 F12000
G1 X-8.152 Y-7.891 E4.98005
G1 F12000
G1 X-8.223 Y-7.871 E4.97476
G1 E4.09207 F900.00000
G92 E0
G1 Z21.200 F15000.000
G1 X0.000 Y7.317 F15000.000
G1 Z21.000 F15000.000
G1 E2.00000 F900.00000
G1 F1200
G1 X-0.577 Y6.317 E2.04964
G1 X0.577 Y6.317 E2.09928
G1 X0.030 Y7.265 E2.14634
G1 F12000
G1 X-0.577 Y6.317 E2.06613
G1 F12000
G1 X0.577 Y6.317 E1.98387
G1 F12000
G1 X0.030 Y7.265 E1.90588
G1 E0.14634 F900.00000
G92 E0
G1 Z21.400 F15000.000
G1 X8.250 Y-6.972 F15000.000
G1 Z21.000 F15000.000
G1 E2.00000 F900.00000
G1 F1200
G1 X7.673 Y-7.972 E2.04964
G1 X8.827 Y-7.972 E2.09928
G1 X8.280 Y-7.024 E2.14634
G1 F12000
G1 X7.673 Y-7.972 E2.06613
G1 F12000
G1 X8.827 Y-7.972 E1.98387
G1 F12000
G1 X8.280 Y-7.024 E1.90588
G1 E0.14634 F900.00000
G92 E0
G1 Z21.400 F15000.000
G1 X-0.127 Y5.860 F15000.000
G1 Z21.000 F15000.000
G1 E2.00000 F900.00000
G1 F1200
G1 X1.369 Y5.860 E2.04939
G1 X0.000 Y8.231 E2.13979
G1 X-9.619 Y-8.429 E2.77497
G1 X9.619 Y-8.429 E3.41016
G1 X8.250 Y-6.058 E3.50056
G1 X7.502 Y-7.354 E3.54995
G1 X-7.756 Y-7.354 E4.05373
G1 X-0.157 Y5.808 E4.55553
G1 X-0.196 Y6.254 F15000.000
G1 X-0.616 Y6.089 F15000.000
G1 F1200
G1 X-8.420 Y-7.427 E5.30245
G1 F1200
G1 X-8.455 Y-7.572 E5.31058
G1 F1200
G1 X-8.509 Y-7.788 E5.32431
G1 X-8.366 Y-7.829 E5.33346
G1 F1200
G1 X-8.223 Y-7.871 E5.34160
G1 F1200
G1 X-8.152 Y-7.891 E5.34515
G1 X7.455 Y-7.891 E6.09207
;LAYER:105
G1 F12000
G1 X-8.152 Y-7.891 E4.98005
G1 F12000
G1 X-8.223 Y-7.871 E4.97476
G1 E4.09207 F900.00000
G92 E0
G1 Z21.400 F15000.000
G1 X-0.000 Y7.317 F15000.000
G1 Z21.200 F15000.000
G1 E2.00000 F900.00000
G1 F1200
G1 X-0.577 Y6.317 E2.04964
G1 X0.577 Y6.317 E2.09928
G1 X0.030 Y7.265 E2.14634
G1 X-0.000 Y8.231 F15000.000
G1 F1200
G1 X-1.369 Y5.860 E2.23674
G1 X1.369 Y5.860 E2.32713
G1 X0.030 Y8.179 E2.41555
G1 X-0.069 Y7.837 F15000.000
G1 F12000
G1 X-1.369 Y5.860 E2.22258
G1 F12000
G1 X1.369 Y5.860 E2.02750
G1 F12000
G1 X1.146 Y6.247 E1.99568
G1 F12000
G1 X0.030 Y8.179 E1.83670
G1 E0.41555 F900.00000
G92 E0
G1 Z21.600 F15000.000
G1 X-3.169 Y2.742 F15000.000
G1 Z21.200 F15000.000
G1 E2.00000 F900.00000
G1 F1200
G1 X-6.449 Y-2.939 E2.21659
G1 X-5.518 Y-3.477 E2.25211
G1 X-2.238 Y2.204 E2.46870
G1 X-3.118 Y2.712 E2.50223
G1 X-3.350 Y2.385 F15000.000
G1 X-2.818 Y2.275 F15000.000
G1 F1200
G1 X-5.869 Y-3.010 E2.79430
G1 F12000
G1 X-2.818 Y2.275 E2.35946
G1 E0.79430 F900.00000
G92 E0
G1 Z21.600 F15000.000
G1 X-8.250 Y-6.972 F15000.000
G1 Z21.200 F15000.000
G1 E2.00000 F900.00000
G1 F1200
G1 X-8.827 Y-7.972 E2.04964
G1 X-7.673 Y-7.972 E2.09928
G1 X-8.220 Y-7.024 E2.14634
G1 X-8.250 Y-6.058 F15000.000
G1 F1200
G1 X-9.619 Y-8.429 E2.23674
G1 X-6.881 Y-8.429 E2.32714
G1 X-8.220 Y-6.110 E2.41555
G1 X-8.319 Y-6.452 F15000.000
G1 F12000
G1 X-9.619 Y-8.429 E2.22258
G1 F12000
G1 X-6.881 Y-8.429 E2.02750
G1 F12000
G1 X-7.104 Y-8.042 E1.99568
G1 F12000
G1 X-8.220 Y-6.110 E1.83670
G1 E0.41555 F900.00000
G92 E0
G1 Z21.600 F15000.000
G1 X8.250 Y-6.972 F15000.000
G1 Z21.200 F15000.000
G1 E2.00000 F900.00000
G1 F1200
G1 X7.673 Y-7.972 E2.04964
G1 X8.827 Y-7.972 E2.09928
G1 X8.280 Y-7.024 E2.14634
G1 X8.250 Y-6.058 F15000.000
G1 F1200
G1 X6.881 Y-8.429 E2.23674
G1 X9.619 Y-8.429 E2.32713
G1 X8.280 Y-6.110 E2.41555
G1 X8.181 Y-6.452 F15000.000
;LAYER:106
G1 F12000
G1 X6.881 Y-8.429 E2.22258
G1 F12000
G1 X9.619 Y-8.429 E2.02750
G1 F12000
G1 X9.396 Y-8.042 E1.99568
G1 F12000
G1 X8.280 Y-6.110 E1.83670
G1 E0.41555 F900.00000
G92 E0
G1 Z21.600 F15000.000
G1 X-0.000 Y7.317 F15000.000
G1 Z21.400 F15000.000
G1 E2.00000 F900.00000
G1 F1200
G1 X-0.577 Y6.317 E2.04964
G1 X0.577 Y6.317 E2.09928
G1 X0.030 Y7.265 E2.14634
G1 X-0.000 Y8.231 F15000.000
G1 F1200
G1 X-1.369 Y5.860 E2.23674
G1 X1.369 Y5.860 E2.32713
G1 X0.030 Y8.179 E2.41555
G1 X-0.069 Y7.838 F15000.000
G1 F12000
G1 X-1.369 Y5.860 E2.22258
G1 F12000
G1 X1.369 Y5.860 E2.02750
G1 F12000
G1 X1.142 Y6.254 E1.99510
G1 F12000
G1 X0.030 Y8.179 E1.83670
G1 E0.41555 F900.00000
G92 E0
G1 Z21.800 F15000.000
G1 X-3.169 Y2.742 F15000.000
G1 Z21.400 F15000.000
G1 E2.00000 F900.00000
G1 F1200
G1 X-6.449 Y-2.939 E2.21659
G1 X-5.518 Y-3.477 E2.25211
G1 X-2.238 Y2.204 E2.46870
G1 X-3.118 Y2.712 E2.50223
G1 X-3.349 Y2.384 F15000.000
G1 X-2.818 Y2.275 F15000.000
G1 F1200
G1 X-5.869 Y-3.010 E2.79430
G1 F12000
G1 X-2.818 Y2.275 E2.35946
G1 E0.79430 F900.00000
G92 E0
G1 Z21.800 F15000.000
G1 X-8.250 Y-6.972 F15000.000
G1 Z21.400 F15000.000
G1 E2.00000 F900.00000
G1 F1200
G1 X-8.827 Y-7.972 E2.04964
G1 X-7.673 Y-7.972 E2.09928
G1 X-8.220 Y-7.024 E2.14634
G1 X-8.250 Y-6.058 F15000.000
G1 F1200
G1 X-9.619 Y-8.429 E2.23674
G1 X-6.881 Y-8.429 E2.32713
G1 X-8.220 Y-6.110 E2.41555
G1 X-8.319 Y-6.452 F15000.000
G1 F12000
G1 X-9.619 Y-8.429 E2.22258
G1 F12000
G1 X-6.881 Y-8.429 E2.02750
G1 F12000
G1 X-7.108 Y-8.035 E1.99510
G1 F12000
G1 X-8.220 Y-6.110 E1.83670
G1 E0.41555 F900.00000
G92 E0
G1 Z21.800 F15000.000
G1 X8.250 Y-6.972 F15000.000
G1 Z21.400 F15000.000
G1 E2.00000 F900.00000
G1 F1200
G1 X7.673 Y-7.972 E2.04964
G1 X8.827 Y-7.972 E2.09928
G1 X8.280 Y-7.024 E2.14634
G1 X8.250 Y-6.058 F15000.000
G1 F1200
G1 X6.881 Y-8.429 E2.23674
G1 X9.619 Y-8.429 E2.32713
G1 X8.280 Y-6.110 E2.41555
G1 X8.181 Y-6.452 F15000.000
;LAYER:107
G1 F12000
G1 X6.881 Y-8.429 E2.22258
G1 F12000
G1 X9.619 Y-8.429 E2.02750
G1 F12000
G1 X9.392 Y-8.035 E1.99510
G1 F12000
G1 X8.280 Y-6.110 E1.83670
G1 E0.41555 F900.00000
G92 E0
G1 Z21.800 F15000.000
G1 X-0.000 Y7.317 F15000.000
G1 Z21.600 F15000.000
G1 E2.00000 F900.00000
G1 F1200
G1 X-0.577 Y6.317 E2.04964
G1 X0.577 Y6.317 E2.09928
G1 X0.030 Y7.265 E2.14634
G1 X-0.000 Y8.231 F15000.000
G1 F1200
G1 X-1.369 Y5.860 E2.23674
G1 X1.369 Y5.860 E2.32713
G1 X0.030 Y8.179 E2.41555
G1 X-0.069 Y7.838 F15000.000
G1 F12000
G1 X-1.369 Y5.860 E2.22258
G1 F12000
G1 X1.369 Y5.860 E2.02750
G1 F12000
G1 X1.137 Y6.261 E1.99451
G1 F12000
G1 X0.030 Y8.179 E1.83670
G1 E0.41555 F900.00000
G92 E0
G1 Z22.000 F15000.000
G1 X-3.169 Y2.742 F15000.000
G1 Z21.600 F15000.000
G1 E2.00000 F900.00000
G1 F1200
G1 X-6.449 Y-2.939 E2.21659
G1 X-5.518 Y-3.477 E2.25211
G1 X-2.238 Y2.204 E2.46870
G1 X-3.118 Y2.712 E2.50223
G1 X-3.350 Y2.385 F15000.000
G1 X-2.818 Y2.275 F15000.000
G1 F1200
G1 X-5.869 Y-3.010 E2.79430
G1 F12000
G1 X-2.818 Y2.275 E2.35946
G1 E0.79430 F900.00000
G92 E0
G1 Z22.000 F15000.000
G1 X-8.250 Y-6.972 F15000.000
G1 Z21.600 F15000.000
G1 E2.00000 F900.00000
G1 F1200
G1 X-8.827 Y-7.972 E2.04964
G1 X-7.673 Y-7.972 E2.09928
G1 X-8.220 Y-7.024 E2.14634
G1 X-8.250 Y-6.058 F15000.000
G1 F1200
G1 X-9.619 Y-8.429 E2.23674
G1 X-6.881 Y-8.429 E2.32713
G1 X-8.220 Y-6.110 E2.41555
G1 X-8.319 Y-6.452 F15000.000
G1 F12000
G1 X-9.619 Y-8.429 E2.22258
G1 F12000
G1 X-6.881 Y-8.429 E2.02750
G1 F12000
G1 X-7.113 Y-8.028 E1.99451
G1 F12000
G1 X-8.220 Y-6.110 E1.83670
G1 E0.41555 F900.00000
G92 E0
G1 Z22.000 F15000.000
G1 X8.250 Y-6.972 F15000.000
G1 Z21.600 F15000.000
G1 E2.00000 F900.00000
G1 F1200
G1 X7.673 Y-7.972 E2.04964
G1 X8.827 Y-7.972 E2.09928
G1 X8.280 Y-7.024 E2.14634
G1 X8.250 Y-6.058 F15000.000
G1 F1200
G1 X6.881 Y-8.429 E2.23674
G1 X9.619 Y-8.429 E2.32713
G1 X8.280 Y-6.110 E2.41555
G1 X8.181 Y-6.452 F15000.000
;LAYER:108
G1 F12000
G1 X6.881 Y-8.429 E2.22258
G1 F12000
G1 X9.619 Y-8.429 E2.02750
G1 F12000
G1 X9.387 Y-8.028 E1.99451
G1 F12000
G1 X8.280 Y-6.110 E1.83670
G1 E0.41555 F900.00000
G92 E0
G1 Z22.000 F15000.000
G1 X-0.000 Y7.317 F15000.000
G1 Z21.800 F15000.000
G1 E2.00000 F900.00000
G1 F1200
G1 X-0.577 Y6.317 E2.04964
G1 X0.577 Y6.317 E2.09928
G1 X0.030 Y7.265 E2.14634
G1 X-0.000 Y8.231 F15000.000
G1 F1200
G1 X-1.369 Y5.860 E2.23674
G1 X1.369 Y5.860 E2.32713
G1 X0.030 Y8.179 E2.41555
G1 X-0.069 Y7.838 F15000.000
G1 F12000
G1 X-1.369 Y5.860 E2.22258
G1 F12000
G1 X1.369 Y5.860 E2.02750
G1 F12000
G1 X1.133 Y6.268 E1.99392
G1 F12000
G1 X0.030 Y8.179 E1.83670
G1 E0.41555 F900.00000
G92 E0
G1 Z22.200 F15000.000
G1 X-3.169 Y2.742 F15000.000
G1 Z21.800 F15000.000
G1 E2.00000 F900.00000
G1 F1200
G1 X-6.449 Y-2.939 E2.21659
G1 X-5.518 Y-3.477 E2.25211
G1 X-2.238 Y2.204 E2.46870
G1 X-3.118 Y2.712 E2.50223
G1 X-3.350 Y2.385 F15000.000
G1 X-2.818 Y2.275 F15000.000
G1 F1200
G1 X-5.869 Y-3.010 E2.79430
G1 F12000
G1 X-2.818 Y2.275 E2.35946
G1 E0.79430 F900.00000
G92 E0
G1 Z22.200 F15000.000
G1 X-8.250 Y-6.972 F15000.000
G1 Z21.800 F15000.000
G1 E2.00000 F900.00000
G1 F1200
G1 X-8.827 Y-7.972 E2.04964
G1 X-7.673 Y-7.972 E2.09928
G1 X-8.220 Y-7.024 E2.14634
G1 X-8.250 Y-6.058 F15000.000
G1 F1200
G1 X-9.619 Y-8.429 E2.23674
G1 X-6.881 Y-8.429 E2.32713
G1 X-8.220 Y-6.110 E2.41555
G1 X-8.319 Y-6.452 F15000.000
G1 F12000
G1 X-9.619 Y-8.429 E2.22258
G1 F12000
G1 X-6.881 Y-8.429 E2.02750
G1 F12000
G1 X-7.117 Y-8.021 E1.99392
G1 F12000
G1 X-8.220 Y-6.110 E1.83670
G1 E0.41555 F900.00000
G92 E0
G1 Z22.200 F15000.000
G1 X8.250 Y-6.972 F15000.000
G1 Z21.800 F15000.000
G1 E2.00000 F900.00000
G1 F1200
G1 X7.673 Y-7.972 E2.04964
G1 X8.827 Y-7.972 E2.09928
G1 X8.280 Y-7.024 E2.14634
G1 X8.250 Y-6.058 F15000.000
G1 F1200
G1 X6.881 Y-8.429 E2.23674
G1 X9.619 Y-8.429 E2.32713
G1 X8.280 Y-6.110 E2.41555
G1 X8.181 Y-6.452 F15000.000
;LAYER:109
G1 F12000
G1 X6.881 Y-8.429 E2.22258
G1 F12000
G1 X9.619 Y-8.429 E2.02750
G1 F12000
G1 X9.383 Y-8.021 E1.99392
G1 F12000
G1 X8.280 Y-6.110 E1.83670
G1 E0.41555 F900.00000
G92 E0
G1 Z22.200 F15000.000
G1 X-0.000 Y7.317 F15000.000
G1 Z22.000 F15000.000
G1 E2.00000 F900.00000
G1 F1200
G1 X-0.577 Y6.317 E2.04964
G1 X0.577 Y6.317 E2.09928
G1 X0.030 Y7.265 E2.14634
G1 X-0.000 Y8.231 F15000.000
G1 F1200
G1 X-1.369 Y5.860 E2.23674
G1 X1.369 Y5.860 E2.32713
G1 X0.030 Y8.179 E2.41555
G1 X-0.069 Y7.837 F15000.000
G1 F12000
G1 X-1.369 Y5.860 E2.22258
G1 F12000
G1 X1.369 Y5.860 E2.02750
G1 F12000
G1 X1.129 Y6.276 E1.99334
G1 F12000
G1 X0.030 Y8.179 E1.83670
G1 E0.41555 F900.00000
G92 E0
G1 Z22.400 F15000.000
G1 X-3.169 Y2.742 F15000.000
G1 Z22.000 F15000.000
G1 E2.00000 F900.00000
G1 F1200
G1 X-6.449 Y-2.939 E2.21659
G1 X-5.518 Y-3.477 E2.25211
G1 X-2.238 Y2.204 E2.46870
G1 X-3.118 Y2.712 E2.50223
G1 X-3.350 Y2.385 F15000.000
G1 X-2.818 Y2.275 F15000.000
G1 F1200
G1 X-5.869 Y-3.010 E2.79430
G1 F12000
G1 X-2.818 Y2.275 E2.35946
G1 E0.79430 F900.00000
G92 E0
G1 Z22.400 F15000.000
G1 X-8.250 Y-6.972 F15000.000
G1 Z22.000 F15000.000
G1 E2.00000 F900.00000
G1 F1200
G1 X-8.827 Y-7.972 E2.04964
G1 X-7.673 Y-7.972 E2.09928
G1 X-8.220 Y-7.024 E2.14634
G1 X-8.250 Y-6.058 F15000.000
G1 F1200
G1 X-9.619 Y-8.429 E2.23674
G1 X-6.881 Y-8.429 E2.32713
G1 X-8.220 Y-6.110 E2.41555
G1 X-8.319 Y-6.452 F15000.000
G1 F12000
G1 X-9.619 Y-8.429 E2.22258
G1 F12000
G1 X-6.881 Y-8.429 E2.02750
G1 F12000
G1 X-7.121 Y-8.014 E1.99334
G1 F12000
G1 X-8.220 Y-6.110 E1.83670
G1 E0.41555 F900.00000
G92 E0
G1 Z22.400 F15000.000
G1 X8.250 Y-6.972 F15000.000
G1 Z22.000 F15000.000
G1 E2.00000 F900.00000
G1 F1200
G1 X7.673 Y-7.972 E2.04964
G1 X8.827 Y-7.972 E2.09928
G1 X8.280 Y-7.024 E2.14634
G1 X8.250 Y-6.058 F15000.000
G1 F1200
G1 X6.881 Y-8.429 E2.23674
G1 X9.619 Y-8.429 E2.32713
G1 X8.280 Y-6.110 E2.41555
G1 X8.181 Y-6.452 F15000.000
;LAYER:110
G1 F12000
G1 X6.881 Y-8.429 E2.22258
G1 F12000
G1 X9.619 Y-8.429 E2.02750
G1 F12000
G1 X9.379 Y-8.014 E1.99334
G1 F12000
G1 X8.280 Y-6.110 E1.83670
G1 E0.41555 F900.00000
G92 E0
G1 Z22.400 F15000.000
G1 X-0.000 Y7.317 F15000.000
G1 Z22.200 F15000.000
G1 E2.00000 F900.00000
G1 F1200
G1 X-0.577 Y6.317 E2.04964
G1 X0.577 Y6.317 E2.09928
G1 X0.030 Y7.265 E2.14634
G1 X-0.000 Y8.231 F15000.000
G1 F1200
G1 X-1.369 Y5.860 E2.23674
G1 X1.369 Y5.860 E2.32713
G1 X0.030 Y8.179 E2.41555
G1 X-0.069 Y7.837 F15000.000
G1 F12000
G1 X-1.369 Y5.860 E2.22258
G1 F12000
G1 X1.369 Y5.860 E2.02750
G1 F12000
G1 X1.125 Y6.283 E1.99275
G1 F12000
G1 X0.030 Y8.179 E1.83670
G1 E0.41555 F900.00000
G92 E0
G1 Z22.600 F15000.000
G1 X-3.169 Y2.742 F15000.000
G1 Z22.200 F15000.000
G1 E2.00000 F900.00000
G1 F1200
G1 X-3.949 Y1.391 E2.05151
G1 X-3.018 Y0.853 E2.08702
G1 X-2.238 Y2.204 E2.13853
G1 X-3.118 Y2.712 E2.17206
G1 X-3.284 Y2.359 F15000.000
G1 X-3.146 Y2.216 F15000.000
G1 F1200
G1 X-2.743 Y1.814 E2.19659
G1 X-3.006 Y1.358 E2.21926
G1 X-3.444 Y1.781 E2.24549
G1 X-4.241 Y0.886 F15000.000
G1 F1200
G1 X-4.692 Y0.105 E2.27527
G1 X-3.762 Y-0.436 E2.31078
G1 X-3.312 Y0.343 E2.34049
G1 X-4.189 Y0.856 E2.37402
G1 X-4.333 Y0.497 F15000.000
G1 F12000
G1 X-4.692 Y0.105 E2.30965
G1 F12000
G1 X-3.762 Y-0.436 E2.23302
G1 F12000
G1 X-3.312 Y0.343 E2.16891
G1 F12000
G1 X-4.189 Y0.856 E2.09655
G1 E0.37402 F900.00000
G92 E0
G1 Z22.600 F15000.000
G1 X-5.669 Y-1.588 F15000.000
G1 Z22.200 F15000.000
G1 E2.00000 F900.00000
G1 F1200
G1 X-6.449 Y-2.939 E2.05151
G1 X-5.518 Y-3.477 E2.08702
G1 X-4.738 Y-2.126 E2.13853
G1 X-5.618 Y-1.618 E2.17206
G1 X-5.784 Y-1.972 F15000.000
G1 X-5.646 Y-2.114 F15000.000
G1 F1200
G1 X-5.243 Y-2.517 E2.19659
G1 X-5.506 Y-2.972 E2.21926
G1 X-5.944 Y-2.549 E2.24549
G1 F12000
G1 X-5.506 Y-2.972 E2.20214
G1 F12000
G1 X-5.243 Y-2.517 E2.16468
G1 F12000
G1 X-5.646 Y-2.114 E2.12412
G1 E0.24549 F900.00000
G92 E0
G1 Z22.600 F15000.000
G1 X-8.250 Y-6.972 F15000.000
G1 Z22.200 F15000.000
G1 E2.00000 F900.00000
G1 F1200
G1 X-8.827 Y-7.972 E2.04964
G1 X-7.673 Y-7.972 E2.09928
G1 X-8.220 Y-7.024 E2.14634
G1 X-8.250 Y-6.058 F15000.000
G1 F1200
G1 X-9.619 Y-8.429 E2.23674
G1 X-6.881 Y-8.429 E2.32713
G1 X-8.220 Y-6.110 E2.41555
G1 X-8.319 Y-6.452 F15000.000
G1 F12000
G1 X-9.619 Y-8.429 E2.22258
G1 F12000
G1 X-6.881 Y-8.429 E2.02750
G1 F12000
G1 X-7.125 Y-8.007 E1.99275
G1 F12000
G1 X-8.220 Y-6.110 E1.83670
G1 E0.41555 F900.00000
G92 E0
G1 Z22.600 F15000.000
G1 X8.250 Y-6.972 F15000.000
G1 Z22.200 F15000.000
G1 E2.00000 F900.00000
G1 F1200
G1 X7.673 Y-7.972 E2.04964
G1 X8.827 Y-7.972 E2.09928
G1 X8.280 Y-7.024 E2.14634
G1 X8.250 Y-6.058 F15000.000
G1 F1200
G1 X6.881 Y-8.429 E2.23674
G1 X9.619 Y-8.429 E2.32713
G1 X8.280 Y-6.110 E2.41555
G1 X8.181 Y-6.452 F15000.000
;LAYER:111
G1 F12000
G1 X6.881 Y-8.429 E2.22258
G1 F12000
G1 X9.619 Y-8.429 E2.02750
G1 F12000
G1 X9.375 Y-8.007 E1.99275
G1 F12000
G1 X8.280 Y-6.110 E1.83670
G1 E0.41555 F900.00000
G92 E0
G1 Z22.600 F15000.000
G1 X-0.000 Y7.317 F15000.000
G1 Z22.400 F15000.000
G1 E2.00000 F900.00000
G1 F1200
G1 X-0.577 Y6.317 E2.04964
G1 X0.577 Y6.317 E2.09928
G1 X0.030 Y7.265 E2.14634
G1 X-0.000 Y8.231 F15000.000
G1 F1200
G1 X-1.369 Y5.860 E2.23674
G1 X1.369 Y5.860 E2.32713
G1 X0.030 Y8.179 E2.41555
G1 X-0.069 Y7.838 F15000.000
G1 F12000
G1 X-1.369 Y5.860 E2.22258
G1 F12000
G1 X1.369 Y5.860 E2.02750
G1 F12000
G1 X1.121 Y6.290 E1.99216
G1 F12000
G1 X0.030 Y8.179 E1.83670
G1 E0.41555 F900.00000
G92 E0
G1 Z22.800 F15000.000
G1 X-3.169 Y2.742 F15000.000
G1 Z22.400 F15000.000
G1 E2.00000 F900.00000
G1 F1200
G1 X-3.949 Y1.391 E2.05151
G1 X-3.018 Y0.853 E2.08702
G1 X-2.238 Y2.204 E2.13853
G1 X-3.118 Y2.712 E2.17206
G1 X-3.284 Y2.358 F15000.000
G1 F12000
G1 X-3.949 Y1.391 E2.06082
G1 F12000
G1 X-3.018 Y0.853 E1.98419
G1 F12000
G1 X-2.877 Y1.096 E1.96416
G1 F12000
G1 X-2.238 Y2.204 E1.87304
G1 F12000
G1 X-3.118 Y2.712 E1.80068
G1 E0.17206 F900.00000
G92 E0
G1 Z22.800 F15000.000
G1 X-4.328 Y0.735 F15000.000
G1 Z22.400 F15000.000
G1 E2.00000 F900.00000
G1 F1200
G1 X-4.816 Y-0.111 E2.03223
G1 X-3.887 Y-0.652 E2.06774
G1 X-3.402 Y0.188 E2.09978
G1 X-4.277 Y0.704 E2.13331
G1 X-4.426 Y0.347 F15000.000
G1 F12000
G1 X-4.816 Y-0.111 E2.06367
G1 F12000
G1 X-3.887 Y-0.652 E1.98703
G1 F12000
G1 X-3.402 Y0.188 E1.91790
G1 F12000
G1 X-4.277 Y0.704 E1.84554
G1 E0.13331 F900.00000
G92 E0
G1 Z22.800 F15000.000
G1 X-5.669 Y-1.588 F15000.000
G1 Z22.400 F15000.000
G1 E2.00000 F900.00000
G1 F1200
G1 X-6.449 Y-2.939 E2.05151
G1 X-5.518 Y-3.477 E2.08702
G1 X-4.738 Y-2.126 E2.13853
G1 X-5.618 Y-1.618 E2.17206
G1 X-5.784 Y-1.972 F15000.000
G1 F12000
G1 X-6.449 Y-2.939 E2.06082
G1 F12000
G1 X-5.518 Y-3.477 E1.98419
G1 F12000
G1 X-5.377 Y-3.234 E1.96416
G1 F12000
G1 X-4.738 Y-2.126 E1.87304
G1 F12000
G1 X-5.618 Y-1.618 E1.80068
G1 E0.17206 F900.00000
G92 E0
G1 Z22.800 F15000.000
G1 X-8.250 Y-6.972 F15000.000
G1 Z22.400 F15000.000
G1 E2.00000 F900.00000
G1 F1200
G1 X-8.827 Y-7.972 E2.04964
G1 X-7.673 Y-7.972 E2.09928
G1 X-8.220 Y-7.024 E2.14634
G1 X-8.250 Y-6.058 F15000.000
G1 F1200
G1 X-9.619 Y-8.429 E2.23674
G1 X-6.881 Y-8.429 E2.32714
G1 X-8.220 Y-6.110 E2.41555
G1 X-8.319 Y-6.452 F15000.000
G1 F12000
G1 X-9.619 Y-8.429 E2.22258
G1 F12000
G1 X-6.881 Y-8.429 E2.02750
G1 F12000
G1 X-7.129 Y-8.000 E1.99216
G1 F12000
G1 X-8.220 Y-6.110 E1.83670
G1 E0.41555 F900.00000
G92 E0
G1 Z22.800 F15000.000
G1 X8.250 Y-6.972 F15000.000
G1 Z22.400 F15000.000
G1 E2.00000 F900.00000
G1 F1200
G1 X7.673 Y-7.972 E2.04964
G1 X8.827 Y-7.972 E2.09928
G1 X8.280 Y-7.024 E2.14634
G1 X8.250 Y-6.058 F15000.000
G1 F1200
G1 X6.881 Y-8.429 E2.23674
G1 X9.619 Y-8.429 E2.32713
G1 X8.280 Y-6.110 E2.41555
G1 X8.181 Y-6.452 F15000.000
;LAYER:112
G1 F12000
G1 X6.881 Y-8.429 E2.22258
G1 F12000
G1 X9.619 Y-8.429 E2.02750
G1 F12000
G1 X9.371 Y-8.000 E1.99216
G1 F12000
G1 X8.280 Y-6.110 E1.83670
G1 E0.41555 F900.00000
G92 E0
G1 Z22.800 F15000.000
G1 X-0.000 Y7.317 F15000.000
G1 Z22.600 F15000.000
G1 E2.00000 F900.00000
G1 F1200
G1 X-0.577 Y6.317 E2.04964
G1 X0.577 Y6.317 E2.09928
G1 X0.030 Y7.265 E2.14634
G1 X-0.000 Y8.231 F15000.000
G1 F1200
G1 X-1.369 Y5.860 E2.23674
G1 X1.369 Y5.860 E2.32713
G1 X0.030 Y8.179 E2.41555
G1 X-0.069 Y7.837 F15000.000
G1 F12000
G1 X-1.369 Y5.860 E2.22258
G1 F12000
G1 X1.369 Y5.860 E2.02750
G1 F12000
G1 X1.117 Y6.297 E1.99158
G1 F12000
G1 X0.030 Y8.179 E1.83670
G1 E0.41555 F900.00000
G92 E0
G1 Z23.000 F15000.000
G1 X-3.169 Y2.742 F15000.000
G1 Z22.600 F15000.000
G1 E2.00000 F900.00000
G1 F1200
G1 X-3.949 Y1.391 E2.05151
G1 X-3.018 Y0.853 E2.08702
G1 X-2.238 Y2.204 E2.13853
G1 X-3.118 Y2.712 E2.17206
G1 X-3.284 Y2.358 F15000.000
G1 X-3.146 Y2.216 F15000.000
G1 F1200
G1 X-2.743 Y1.814 E2.19659
G1 X-3.006 Y1.358 E2.21926
G1 X-3.444 Y1.781 E2.24549
G1 X-4.424 Y0.568 F15000.000
G1 F1200
G1 X-4.957 Y-0.354 E2.28064
G1 X-4.026 Y-0.892 E2.31615
G1 X-3.493 Y0.030 E2.35132
G1 X-4.372 Y0.538 E2.38485
G1 X-4.510 Y0.177 F15000.000
G1 F12000
G1 X-4.957 Y-0.354 E2.30888
G1 F12000
G1 X-4.026 Y-0.892 E2.23225
G1 F12000
G1 X-3.896 Y-0.668 E2.21380
G1 F12000
G1 X-3.493 Y0.030 E2.15637
G1 F12000
G1 X-4.372 Y0.538 E2.08401
G1 E0.38485 F900.00000
G92 E0
G1 Z23.000 F15000.000
G1 X-5.669 Y-1.588 F15000.000
G1 Z22.600 F15000.000
G1 E2.00000 F900.00000
G1 F1200
G1 X-6.449 Y-2.939 E2.05151
G1 X-5.518 Y-3.477 E2.08702
G1 X-4.738 Y-2.126 E2.13853
G1 X-5.618 Y-1.618 E2.17206
G1 X-5.784 Y-1.972 F15000.000
G1 X-5.646 Y-2.114 F15000.000
G1 F1200
G1 X-5.243 Y-2.517 E2.19659
G1 X-5.506 Y-2.972 E2.21926
G1 X-5.944 Y-2.549 E2.24549
G1 F12000
G1 X-5.506 Y-2.972 E2.20214
G1 F12000
G1 X-5.243 Y-2.517 E2.16468
G1 F12000
G1 X-5.646 Y-2.114 E2.12412
G1 E0.24549 F900.00000
G92 E0
G1 Z23.000 F15000.000
G1 X-8.250 Y-6.972 F15000.000
G1 Z22.600 F15000.000
G1 E2.00000 F900.00000
G1 F1200
G1 X-8.827 Y-7.972 E2.04964
G1 X-7.673 Y-7.972 E2.09928
G1 X-8.220 Y-7.024 E2.14634
G1 X-8.250 Y-6.058 F15000.000
G1 F1200
G1 X-9.619 Y-8.429 E2.23674
G1 X-6.881 Y-8.429 E2.32713
G1 X-8.220 Y-6.110 E2.41555
G1 X-8.319 Y-6.452 F15000.000
G1 F12000
G1 X-9.619 Y-8.429 E2.22258
G1 F12000
G1 X-6.881 Y-8.429 E2.02750
G1 F12000
G1 X-7.133 Y-7.992 E1.99158
G1 F12000
G1 X-8.220 Y-6.110 E1.83670
G1 E0.41555 F900.00000
G92 E0
G1 Z23.000 F15000.000
G1 X8.250 Y-6.972 F15000.000
G1 Z22.600 F15000.000
G1 E2.00000 F900.00000
G1 F1200
G1 X7.673 Y-7.972 E2.04964
G1 X8.827 Y-7.972 E2.09928
G1 X8.280 Y-7.024 E2.14634
G1 X8.250 Y-6.058 F15000.000
G1 F1200
G1 X6.881 Y-8.429 E2.23674
G1 X9.619 Y-8.429 E2.32713
G1 X8.280 Y-6.110 E2.41555
G1 X8.181 Y-6.452 F15000.000
;LAYER:113
G1 F12000
G1 X6.881 Y-8.429 E2.22258
G1 F12000
G1 X9.619 Y-8.429 E2.02750
G1 F12000
G1 X9.367 Y-7.992 E1.99158
G1 F12000
G1 X8.280 Y-6.110 E1.83670
G1 E0.41555 F900.00000
G92 E0
G1 Z23.000 F15000.000
G1 X-0.000 Y7.317 F15000.000
G1 Z22.800 F15000.000
G1 E2.00000 F900.00000
G1 F1200
G1 X-0.577 Y6.317 E2.04964
G1 X0.577 Y6.317 E2.09928
G1 X0.030 Y7.265 E2.14634
G1 X-0.000 Y8.231 F15000.000
G1 F1200
G1 X-1.369 Y5.860 E2.23674
G1 X1.369 Y5.860 E2.32713
G1 X0.030 Y8.179 E2.41555
G1 X-0.069 Y7.838 F15000.000
G1 F12000
G1 X-1.369 Y5.860 E2.22258
G1 F12000
G1 X1.369 Y5.860 E2.02750
G1 F12000
G1 X1.113 Y6.304 E1.99099
G1 F12000
G1 X0.030 Y8.179 E1.83670
G1 E0.41555 F900.00000
G92 E0
G1 Z23.200 F15000.000
G1 X-3.169 Y2.742 F15000.000
G1 Z22.800 F15000.000
G1 E2.00000 F900.00000
G1 F1200
G1 X-3.949 Y1.391 E2.05151
G1 X-3.018 Y0.853 E2.08702
G1 X-2.238 Y2.204 E2.13853
G1 X-3.118 Y2.712 E2.17206
G1 X-3.284 Y2.358 F15000.000
G1 F12000
G1 X-3.949 Y1.391 E2.06082
G1 F12000
G1 X-3.018 Y0.853 E1.98419
G1 F12000
G1 X-2.873 Y1.105 E1.96349
G1 F12000
G1 X-2.238 Y2.204 E1.87304
G1 F12000
G1 X-3.118 Y2.712 E1.80068
G1 E0.17206 F900.00000
G92 E0
G1 Z23.200 F15000.000
G1 X-4.539 Y0.369 F15000.000
G1 Z22.800 F15000.000
G1 E2.00000 F900.00000
G1 F1200
G1 X-5.092 Y-0.588 E2.03650
G1 X-4.156 Y-1.118 E2.07202
G1 X-3.612 Y-0.176 E2.10794
G1 X-4.487 Y0.339 E2.14148
G1 X-4.644 Y-0.017 F15000.000
G1 F12000
G1 X-5.092 Y-0.588 E2.06262
G1 F12000
G1 X-4.156 Y-1.118 E1.98598
G1 F12000
G1 X-3.612 Y-0.176 E1.90845
G1 F12000
G1 X-4.487 Y0.339 E1.83609
G1 E0.14148 F900.00000
G92 E0
G1 Z23.200 F15000.000
G1 X-5.669 Y-1.588 F15000.000
G1 Z22.800 F15000.000
G1 E2.00000 F900.00000
G1 F1200
G1 X-6.449 Y-2.939 E2.05151
G1 X-5.518 Y-3.477 E2.08702
G1 X-4.738 Y-2.126 E2.13853
G1 X-5.618 Y-1.618 E2.17206
G1 X-5.784 Y-1.972 F15000.000
G1 F12000
G1 X-6.449 Y-2.939 E2.06082
G1 F12000
G1 X-5.518 Y-3.477 E1.98419
G1 F12000
G1 X-5.373 Y-3.226 E1.96349
G1 F12000
G1 X-4.738 Y-2.126 E1.87304
G1 F12000
G1 X-5.618 Y-1.618 E1.80068
G1 E0.17206 F900.00000
G92 E0
G1 Z23.200 F15000.000
G1 X-8.250 Y-6.972 F15000.000
G1 Z22.800 F15000.000
G1 E2.00000 F900.00000
G1 F1200
G1 X-8.827 Y-7.972 E2.04964
G1 X-7.673 Y-7.972 E2.09928
G1 X-8.220 Y-7.024 E2.14634
G1 X-8.250 Y-6.058 F15000.000
G1 F1200
G1 X-9.619 Y-8.429 E2.23674
G1 X-6.881 Y-8.429 E2.32714
G1 X-8.220 Y-6.110 E2.41555
G1 X-8.319 Y-6.452 F15000.000
G1 F12000
G1 X-9.619 Y-8.429 E2.22258
G1 F12000
G1 X-6.881 Y-8.429 E2.02750
G1 F12000
G1 X-7.137 Y-7.985 E1.99099
G1 F12000
G1 X-8.220 Y-6.110 E1.83670
G1 E0.41555 F900.00000
G92 E0
G1 Z23.200 F15000.000
G1 X8.250 Y-6.972 F15000.000
G1 Z22.800 F15000.000
G1 E2.00000 F900.00000
G1 F1200
G1 X7.673 Y-7.972 E2.04964
G1 X8.827 Y-7.972 E2.09928
G1 X8.280 Y-7.024 E2.14634
G1 X8.250 Y-6.058 F15000.000
G1 F1200
G1 X6.881 Y-8.429 E2.23674
G1 X9.619 Y-8.429 E2.32714
G1 X8.280 Y-6.110 E2.41555
G1 X8.181 Y-6.452 F15000.000
;LAYER:114
G1 F12000
G1 X6.881 Y-8.429 E2.22258
G1 F12000
G1 X9.619 Y-8.429 E2.02750
G1 F12000
G1 X9.363 Y-7.985 E1.99099
G1 F12000
G1 X8.280 Y-6.110 E1.83670
G1 E0.41555 F900.00000
G92 E0
G1 Z23.200 F15000.000
G1 X-0.000 Y7.317 F15000.000
G1 Z23.000 F15000.000
G1 E2.00000 F900.00000
G1 F1200
G1 X-0.577 Y6.317 E2.04964
G1 X0.577 Y6.317 E2.09928
G1 X0.030 Y7.265 E2.14634
G1 X-0.000 Y8.231 F15000.000
G1 F1200
G1 X-1.369 Y5.860 E2.23674
G1 X1.369 Y5.860 E2.32713
G1 X0.030 Y8.179 E2.41555
G1 X-0.069 Y7.838 F15000.000
G1 F12000
G1 X-1.369 Y5.860 E2.22258
G1 F12000
G1 X1.369 Y5.860 E2.02750
G1 F12000
G1 X1.109 Y6.311 E1.99040
G1 F12000
G1 X0.030 Y8.179 E1.83670
G1 E0.41555 F900.00000
G92 E0
G1 Z23.400 F15000.000
G1 X-3.169 Y2.742 F15000.000
G1 Z23.000 F15000.000
G1 E2.00000 F900.00000
G1 F1200
G1 X-3.949 Y1.391 E2.05151
G1 X-3.018 Y0.853 E2.08702
G1 X-2.238 Y2.204 E2.13853
G1 X-3.118 Y2.712 E2.17206
G1 X-3.283 Y2.358 F15000.000
G1 X-3.146 Y2.216 F15000.000
G1 F1200
G1 X-2.743 Y1.814 E2.19659
G1 X-3.006 Y1.358 E2.21926
G1 X-3.444 Y1.781 E2.24549
G1 F12000
G1 X-3.006 Y1.358 E2.20214
G1 F12000
G1 X-2.743 Y1.814 E2.16468
G1 F12000
G1 X-3.146 Y2.216 E2.12412
G1 E0.24549 F900.00000
G92 E0
G1 Z23.400 F15000.000
G1 X-4.665 Y0.152 F15000.000
G1 Z23.000 F15000.000
G1 E2.00000 F900.00000
G1 F1200
G1 X-5.209 Y-0.791 E2.03596
G1 X-4.277 Y-1.328 E2.07148
G1 X-3.736 Y-0.391 E2.10720
G1 X-4.613 Y0.122 E2.14073
G1 X-4.769 Y-0.234 F15000.000
G1 F12000
G1 X-5.209 Y-0.791 E2.06303
G1 F12000
G1 X-4.277 Y-1.328 E1.98640
G1 F12000
G1 X-3.736 Y-0.391 E1.90930
G1 F12000
G1 X-4.613 Y0.122 E1.83695
G1 E0.14073 F900.00000
G92 E0
G1 Z23.400 F15000.000
G1 X-5.669 Y-1.588 F15000.000
G1 Z23.000 F15000.000
G1 E2.00000 F900.00000
G1 F1200
G1 X-6.449 Y-2.939 E2.05151
G1 X-5.518 Y-3.477 E2.08702
G1 X-4.738 Y-2.126 E2.13853
G1 X-5.618 Y-1.618 E2.17206
G1 X-5.783 Y-1.972 F15000.000
G1 X-5.646 Y-2.114 F15000.000
G1 F1200
G1 X-5.243 Y-2.517 E2.19659
G1 X-5.506 Y-2.972 E2.21926
G1 X-5.944 Y-2.549 E2.24549
G1 F12000
G1 X-5.506 Y-2.972 E2.20214
G1 F12000
G1 X-5.243 Y-2.517 E2.16468
G1 F12000
G1 X-5.646 Y-2.114 E2.12412
G1 E0.24549 F900.00000
G92 E0
G1 Z23.400 F15000.000
G1 X-8.250 Y-6.972 F15000.000
G1 Z23.000 F15000.000
G1 E2.00000 F900.00000
G1 F1200
G1 X-8.827 Y-7.972 E2.04964
G1 X-7.673 Y-7.972 E2.09928
G1 X-8.220 Y-7.024 E2.14634
G1 X-8.250 Y-6.058 F15000.000
G1 F1200
G1 X-9.619 Y-8.429 E2.23674
G1 X-6.881 Y-8.429 E2.32713
G1 X-8.220 Y-6.110 E2.41555
G1 X-8.319 Y-6.452 F15000.000
G1 F12000
G1 X-9.619 Y-8.429 E2.22258
G1 F12000
G1 X-6.881 Y-8.429 E2.02750
G1 F12000
G1 X-7.141 Y-7.978 E1.99040
G1 F12000
G1 X-8.220 Y-6.110 E1.83670
G1 E0.41555 F900.00000
G92 E0
G1 Z23.400 F15000.000
G1 X8.250 Y-6.972 F15000.000
G1 Z23.000 F15000.000
G1 E2.00000 F900.00000
G1 F1200
G1 X7.673 Y-7.972 E2.04964
G1 X8.827 Y-7.972 E2.09928
G1 X8.280 Y-7.024 E2.14634
G1 X8.250 Y-6.058 F15000.000
G1 F1200
G1 X6.881 Y-8.429 E2.23674
G1 X9.619 Y-8.429 E2.32713
G1 X8.280 Y-6.110 E2.41555
G1 X8.181 Y-6.452 F15000.000
;LAYER:115
G1 F12000
G1 X6.881 Y-8.429 E2.22258
G1 F12000
G1 X9.619 Y-8.429 E2.02750
G1 F12000
G1 X9.359 Y-7.978 E1.99040
G1 F12000
G1 X8.280 Y-6.110 E1.83670
G1 E0.41555 F900.00000
G92 E0
G1 Z23.400 F15000.000
G1 X-0.000 Y7.317 F15000.000
G1 Z23.200 F15000.000
G1 E2.00000 F900.00000
G1 F1200
G1 X-0.577 Y6.317 E2.04964
G1 X0.577 Y6.317 E2.09928
G1 X0.030 Y7.265 E2.14634
G1 X-0.000 Y8.231 F15000.000
G1 F1200
G1 X-1.369 Y5.860 E2.23674
G1 X1.369 Y5.860 E2.32713
G1 X0.030 Y8.179 E2.41555
G1 X-0.069 Y7.838 F15000.000
G1 F12000
G1 X-1.369 Y5.860 E2.22258
G1 F12000
G1 X1.369 Y5.860 E2.02750
G1 F12000
G1 X1.104 Y6.318 E1.98982
G1 F12000
G1 X0.030 Y8.179 E1.83670
G1 E0.41555 F900.00000
G92 E0
G1 Z23.600 F15000.000
G1 X-3.169 Y2.742 F15000.000
G1 Z23.200 F15000.000
G1 E2.00000 F900.00000
G1 F1200
G1 X-3.949 Y1.391 E2.05151
G1 X-3.018 Y0.853 E2.08702
G1 X-2.238 Y2.204 E2.13853
G1 X-3.118 Y2.712 E2.17206
G1 X-3.283 Y2.358 F15000.000
G1 F12000
G1 X-3.949 Y1.391 E2.06082
G1 F12000
G1 X-3.018 Y0.853 E1.98419
G1 F12000
G1 X-2.868 Y1.113 E1.96282
G1 F12000
G1 X-2.238 Y2.204 E1.87304
G1 F12000
G1 X-3.118 Y2.712 E1.80068
G1 E0.17206 F900.00000
G92 E0
G1 Z23.600 F15000.000
G1 X-4.796 Y-0.076 F15000.000
G1 Z23.200 F15000.000
G1 E2.00000 F900.00000
G1 F1200
G1 X-5.302 Y-0.952 E2.03342
G1 X-4.367 Y-1.483 E2.06893
G1 X-3.863 Y-0.611 E2.10218
G1 X-4.744 Y-0.105 E2.13571
G1 X-4.886 Y-0.465 F15000.000
G1 X-5.669 Y-1.588 F15000.000
G1 F1200
G1 X-6.449 Y-2.939 E2.18721
G1 X-5.518 Y-3.477 E2.22273
G1 X-4.738 Y-2.126 E2.27423
G1 X-5.618 Y-1.618 E2.30776
G1 X-5.783 Y-1.972 F15000.000
G1 F12000
G1 X-6.449 Y-2.939 E2.19653
G1 F12000
G1 X-5.518 Y-3.477 E2.11990
G1 F12000
G1 X-5.368 Y-3.217 E2.09852
G1 F12000
G1 X-4.738 Y-2.126 E2.00875
G1 F12000
G1 X-5.618 Y-1.618 E1.93639
G1 E0.30776 F900.00000
G92 E0
G1 Z23.600 F15000.000
G1 X-8.250 Y-6.972 F15000.000
G1 Z23.200 F15000.000
G1 E2.00000 F900.00000
G1 F1200
G1 X-8.827 Y-7.972 E2.04964
G1 X-7.673 Y-7.972 E2.09928
G1 X-8.220 Y-7.024 E2.14634
G1 X-8.250 Y-6.058 F15000.000
G1 F1200
G1 X-9.619 Y-8.429 E2.23674
G1 X-6.881 Y-8.429 E2.32713
G1 X-8.220 Y-6.110 E2.41555
G1 X-8.319 Y-6.452 F15000.000
G1 F12000
G1 X-9.619 Y-8.429 E2.22258
G1 F12000
G1 X-6.881 Y-8.429 E2.02750
G1 F12000
G1 X-7.146 Y-7.971 E1.98982
G1 F12000
G1 X-8.220 Y-6.110 E1.83670
G1 E0.41555 F900.00000
G92 E0
G1 Z23.600 F15000.000
G1 X8.250 Y-6.972 F15000.000
G1 Z23.200 F15000.000
G1 E2.00000 F900.00000
G1 F1200
G1 X7.673 Y-7.972 E2.04964
G1 X8.827 Y-7.972 E2.09928
G1 X8.280 Y-7.024 E2.14634
G1 X8.250 Y-6.058 F15000.000
G1 F1200
G1 X6.881 Y-8.429 E2.23674
G1 X9.619 Y-8.429 E2.32713
G1 X8.280 Y-6.110 E2.41555
G1 X8.181 Y-6.452 F15000.000
;LAYER:116
G1 F12000
G1 X6.881 Y-8.429 E2.22258
G1 F12000
G1 X9.619 Y-8.429 E2.02750
G1 F12000
G1 X9.354 Y-7.971 E1.98982
G1 F12000
G1 X8.280 Y-6.110 E1.83670
G1 E0.41555 F900.00000
G92 E0
G1 Z23.600 F15000.000
G1 X-0.000 Y7.317 F15000.000
G1 Z23.400 F15000.000
G1 E2.00000 F900.00000
G1 F1200
G1 X-0.577 Y6.317 E2.04964
G1 X0.577 Y6.317 E2.09928
G1 X0.030 Y7.265 E2.14634
G1 X-0.000 Y8.231 F15000.000
G1 F1200
G1 X-1.369 Y5.860 E2.23674
G1 X1.369 Y5.860 E2.32713
G1 X0.030 Y8.179 E2.41555
G1 X-0.069 Y7.838 F15000.000
G1 F12000
G1 X-1.369 Y5.860 E2.22258
G1 F12000
G1 X1.369 Y5.860 E2.02750
G1 F12000
G1 X1.100 Y6.326 E1.98923
G1 F12000
G1 X0.030 Y8.179 E1.83670
G1 E0.41555 F900.00000
G92 E0
G1 Z23.800 F15000.000
G1 X-3.169 Y2.742 F15000.000
G1 Z23.400 F15000.000
G1 E2.00000 F900.00000
G1 F1200
G1 X-3.949 Y1.391 E2.05151
G1 X-3.018 Y0.853 E2.08702
G1 X-2.238 Y2.204 E2.13853
G1 X-3.118 Y2.712 E2.17206
G1 X-3.281 Y2.358 F15000.000
G1 X-3.146 Y2.216 F15000.000
G1 F1200
G1 X-2.743 Y1.814 E2.19659
G1 X-3.006 Y1.358 E2.21926
G1 X-3.444 Y1.781 E2.24549
G1 F12000
G1 X-3.006 Y1.358 E2.20214
G1 F12000
G1 X-2.743 Y1.814 E2.16468
G1 F12000
G1 X-3.146 Y2.216 E2.12412
G1 E0.24549 F900.00000
G92 E0
G1 Z23.800 F15000.000
G1 X-4.922 Y-0.293 F15000.000
G1 Z23.400 F15000.000
G1 E2.00000 F900.00000
G1 F1200
G1 X-5.382 Y-1.090 E2.03038
G1 X-4.450 Y-1.627 E2.06590
G1 X-3.991 Y-0.831 E2.09623
G1 X-4.870 Y-0.323 E2.12976
G1 X-5.015 Y-0.682 F15000.000
G1 X-5.669 Y-1.588 F15000.000
G1 F1200
G1 X-6.449 Y-2.939 E2.18127
G1 X-5.518 Y-3.477 E2.21678
G1 X-4.738 Y-2.126 E2.26829
G1 X-5.618 Y-1.618 E2.30182
G1 X-5.783 Y-1.972 F15000.000
G1 X-5.646 Y-2.114 F15000.000
G1 F1200
G1 X-5.244 Y-2.516 E2.32634
G1 X-5.542 Y-2.951 F15000.000
G1 F1200
G1 X-5.944 Y-2.549 E2.35088
G1 F12000
G1 X-5.542 Y-2.951 E2.31032
G1 E0.35088 F900.00000
G92 E0
G1 Z23.800 F15000.000
G1 X-8.250 Y-6.972 F15000.000
G1 Z23.400 F15000.000
G1 E2.00000 F900.00000
G1 F1200
G1 X-8.827 Y-7.972 E2.04964
G1 X-7.673 Y-7.972 E2.09928
G1 X-8.220 Y-7.024 E2.14634
G1 X-8.250 Y-6.058 F15000.000
G1 F1200
G1 X-9.619 Y-8.429 E2.23674
G1 X-6.881 Y-8.429 E2.32714
G1 X-8.220 Y-6.110 E2.41555
G1 X-8.319 Y-6.452 F15000.000
G1 F12000
G1 X-9.619 Y-8.429 E2.22258
G1 F12000
G1 X-6.881 Y-8.429 E2.02750
G1 F12000
G1 X-7.150 Y-7.964 E1.98923
G1 F12000
G1 X-8.220 Y-6.110 E1.83670
G1 E0.41555 F900.00000
G92 E0
G1 Z23.800 F15000.000
G1 X8.250 Y-6.972 F15000.000
G1 Z23.400 F15000.000
G1 E2.00000 F900.00000
G1 F1200
G1 X7.673 Y-7.972 E2.04964
G1 X8.827 Y-7.972 E2.09928
G1 X8.280 Y-7.024 E2.14634
G1 X8.250 Y-6.058 F15000.000
G1 F1200
G1 X6.881 Y-8.429 E2.23674
G1 X9.619 Y-8.429 E2.32713
G1 X8.280 Y-6.110 E2.41555
G1 X8.181 Y-6.452 F15000.000
;LAYER:117
G1 F12000
G1 X6.881 Y-8.429 E2.22258
G1 F12000
G1 X9.619 Y-8.429 E2.02750
G1 F12000
G1 X9.350 Y-7.964 E1.98923
G1 F12000
G1 X8.280 Y-6.110 E1.83670
G1 E0.41555 F900.00000
G92 E0
G1 Z23.800 F15000.000
G1 X-0.000 Y7.317 F15000.000
G1 Z23.600 F15000.000
G1 E2.00000 F900.00000
G1 F1200
G1 X-0.577 Y6.317 E2.04964
G1 X0.577 Y6.317 E2.09928
G1 X0.030 Y7.265 E2.14634
G1 X-0.000 Y8.231 F15000.000
G1 F1200
G1 X-1.369 Y5.860 E2.23674
G1 X1.369 Y5.860 E2.32713
G1 X0.030 Y8.179 E2.41555
G1 X-0.069 Y7.838 F15000.000
G1 F12000
G1 X-1.369 Y5.860 E2.22258
G1 F12000
G1 X1.369 Y5.860 E2.02750
G1 F12000
G1 X1.096 Y6.333 E1.98864
G1 F12000
G1 X0.030 Y8.179 E1.83670
G1 E0.41555 F900.00000
G92 E0
G1 Z24.000 F15000.000
G1 X-3.169 Y2.742 F15000.000
G1 Z23.600 F15000.000
G1 E2.00000 F900.00000
G1 F1200
G1 X-3.949 Y1.391 E2.05151
G1 X-3.018 Y0.853 E2.08702
G1 X-2.238 Y2.204 E2.13853
G1 X-3.118 Y2.712 E2.17206
G1 X-3.283 Y2.358 F15000.000
G1 F12000
G1 X-3.949 Y1.391 E2.06082
G1 F12000
G1 X-3.018 Y0.853 E1.98419
G1 F12000
G1 X-2.863 Y1.121 E1.96215
G1 F12000
G1 X-2.238 Y2.204 E1.87304
G1 F12000
G1 X-3.118 Y2.712 E1.80068
G1 E0.17206 F900.00000
G92 E0
G1 Z24.000 F15000.000
G1 X-5.023 Y-0.469 F15000.000
G1 Z23.600 F15000.000
G1 E2.00000 F900.00000
G1 F1200
G1 X-6.449 Y-2.939 E2.09417
G1 X-5.518 Y-3.477 E2.12968
G1 X-4.090 Y-1.004 E2.22396
G1 X-4.971 Y-0.499 E2.25749
G1 X-5.176 Y-0.839 F15000.000
G1 X-4.671 Y-0.935 F15000.000
G1 F1200
G1 X-5.869 Y-3.010 E2.37218
G1 F12000
G1 X-4.671 Y-0.935 E2.20142
G1 E0.37218 F900.00000
G92 E0
G1 Z24.000 F15000.000
G1 X-8.250 Y-6.972 F15000.000
G1 Z23.600 F15000.000
G1 E2.00000 F900.00000
G1 F1200
G1 X-8.827 Y-7.972 E2.04964
G1 X-7.673 Y-7.972 E2.09928
G1 X-8.220 Y-7.024 E2.14634
G1 X-8.250 Y-6.058 F15000.000
G1 F1200
G1 X-9.619 Y-8.429 E2.23674
G1 X-6.881 Y-8.429 E2.32713
G1 X-8.220 Y-6.110 E2.41555
G1 X-8.319 Y-6.452 F15000.000
G1 F12000
G1 X-9.619 Y-8.429 E2.22258
G1 F12000
G1 X-6.881 Y-8.429 E2.02750
G1 F12000
G1 X-7.154 Y-7.957 E1.98864
G1 F12000
G1 X-8.220 Y-6.110 E1.83670
G1 E0.41555 F900.00000
G92 E0
G1 Z24.000 F15000.000
G1 X8.250 Y-6.972 F15000.000
G1 Z23.600 F15000.000
G1 E2.00000 F900.00000
G1 F1200
G1 X7.673 Y-7.972 E2.04964
G1 X8.827 Y-7.972 E2.09928
G1 X8.280 Y-7.024 E2.14634
G1 X8.250 Y-6.058 F15000.000
G1 F1200
G1 X6.881 Y-8.429 E2.23674
G1 X9.619 Y-8.429 E2.32713
G1 X8.280 Y-6.110 E2.41555
G1 X8.181 Y-6.452 F15000.000
;LAYER:118
G1 F12000
G1 X6.881 Y-8.429 E2.22258
G1 F12000
G1 X9.619 Y-8.429 E2.02750
G1 F12000
G1 X9.346 Y-7.957 E1.98864
G1 F12000
G1 X8.280 Y-6.110 E1.83670
G1 E0.41555 F900.00000
G92 E0
G1 Z24.000 F15000.000
G1 X-0.000 Y7.317 F15000.000
G1 Z23.800 F15000.000
G1 E2.00000 F900.00000
G1 F1200
G1 X-0.577 Y6.317 E2.04964
G1 X0.577 Y6.317 E2.09928
G1 X0.030 Y7.265 E2.14634
G1 X-0.000 Y8.231 F15000.000
G1 F1200
G1 X-1.369 Y5.860 E2.23674
G1 X1.369 Y5.860 E2.32713
G1 X0.030 Y8.179 E2.41555
G1 X-0.069 Y7.838 F15000.000
G1 F12000
G1 X-1.369 Y5.860 E2.22258
G1 F12000
G1 X1.369 Y5.860 E2.02750
G1 F12000
G1 X1.092 Y6.340 E1.98806
G1 F12000
G1 X0.030 Y8.179 E1.83670
G1 E0.41555 F900.00000
G92 E0
G1 Z24.200 F15000.000
G1 X-3.169 Y2.742 F15000.000
G1 Z23.800 F15000.000
G1 E2.00000 F900.00000
G1 F1200
G1 X-3.949 Y1.391 E2.05151
G1 X-3.018 Y0.853 E2.08702
G1 X-2.238 Y2.204 E2.13853
G1 X-3.118 Y2.712 E2.17206
G1 X-3.281 Y2.358 F15000.000
G1 X-3.146 Y2.216 F15000.000
G1 F1200
G1 X-2.743 Y1.814 E2.19659
G1 X-3.006 Y1.358 E2.21926
G1 X-3.444 Y1.781 E2.24549
G1 F12000
G1 X-3.006 Y1.358 E2.20214
G1 F12000
G1 X-2.743 Y1.814 E2.16468
G1 F12000
G1 X-3.146 Y2.216 E2.12412
G1 E0.24549 F900.00000
G92 E0
G1 Z24.200 F15000.000
G1 X-5.100 Y-0.601 F15000.000
G1 Z23.800 F15000.000
G1 E2.00000 F900.00000
G1 F1200
G1 X-6.449 Y-2.939 E2.08914
G1 X-5.518 Y-3.477 E2.12465
G1 X-4.167 Y-1.136 E2.21389
G1 X-5.048 Y-0.631 E2.24742
G1 X-5.249 Y-0.972 F15000.000
G1 X-4.747 Y-1.067 F15000.000
G1 F1200
G1 X-5.869 Y-3.010 E2.35483
G1 F12000
G1 X-4.747 Y-1.067 E2.19492
G1 E0.35483 F900.00000
G92 E0
G1 Z24.200 F15000.000
G1 X-8.250 Y-6.972 F15000.000
G1 Z23.800 F15000.000
G1 E2.00000 F900.00000
G1 F1200
G1 X-8.827 Y-7.972 E2.04964
G1 X-7.673 Y-7.972 E2.09928
G1 X-8.220 Y-7.024 E2.14634
G1 X-8.250 Y-6.058 F15000.000
G1 F1200
G1 X-9.619 Y-8.429 E2.23674
G1 X-6.881 Y-8.429 E2.32713
G1 X-8.220 Y-6.110 E2.41555
G1 X-8.319 Y-6.452 F15000.000
G1 F12000
G1 X-9.619 Y-8.429 E2.22258
G1 F12000
G1 X-6.881 Y-8.429 E2.02750
G1 F12000
G1 X-7.158 Y-7.950 E1.98806
G1 F12000
G1 X-8.220 Y-6.110 E1.83670
G1 E0.41555 F900.00000
G92 E0
G1 Z24.200 F15000.000
G1 X8.250 Y-6.972 F15000.000
G1 Z23.800 F15000.000
G1 E2.00000 F900.00000
G1 F1200
G1 X7.673 Y-7.972 E2.04964
G1 X8.827 Y-7.972 E2.09928
G1 X8.280 Y-7.024 E2.14634
G1 X8.250 Y-6.058 F15000.000
G1 F1200
G1 X6.881 Y-8.429 E2.23674
G1 X9.619 Y-8.429 E2.32714
G1 X8.280 Y-6.110 E2.41555
G1 X8.181 Y-6.452 F15000.000
;LAYER:119
G1 F12000
G1 X6.881 Y-8.429 E2.22258
G1 F12000
G1 X9.619 Y-8.429 E2.02750
G1 F12000
G1 X9.342 Y-7.950 E1.98806
G1 F12000
G1 X8.280 Y-6.110 E1.83670
G1 E0.41555 F900.00000
G92 E0
G1 Z24.200 F15000.000
G1 X-0.000 Y7.317 F15000.000
G1 Z24.000 F15000.000
G1 E2.00000 F900.00000
G1 F1200
G1 X-0.577 Y6.317 E2.04964
G1 X0.577 Y6.317 E2.09928
G1 X0.030 Y7.265 E2.14634
G1 X-0.000 Y8.231 F15000.000
G1 F1200
G1 X-1.369 Y5.860 E2.23674
G1 X1.369 Y5.860 E2.32713
G1 X0.030 Y8.179 E2.41555
G1 X-0.069 Y7.838 F15000.000
G1 F12000
G1 X-1.369 Y5.860 E2.22258
G1 F12000
G1 X1.369 Y5.860 E2.02750
G1 F12000
G1 X1.088 Y6.347 E1.98747
G1 F12000
G1 X0.030 Y8.179 E1.83670
G1 E0.41555 F900.00000
G92 E0
G1 Z24.400 F15000.000
G1 X-3.169 Y2.742 F15000.000
G1 Z24.000 F15000.000
G1 E2.00000 F900.00000
G1 F1200
G1 X-4.159 Y1.027 E2.06537

G1 F3600
G1 X-4.409 Y0.594 E2.09148
G1 X-3.480 Y0.053 E2.14767
G1 X-3.228 Y0.489 E2.17400

G1 F1200
G1 X-2.238 Y2.204 E2.23937
G1 X-3.118 Y2.712 E2.27290
G1 X-3.310 Y2.367 F15000.000
G1 X-2.818 Y2.275 F15000.000
G1 F1200
G1 X-3.830 Y0.521 E2.36980
G1 X-5.132 Y-0.657 F15000.000
G1 F1200
G1 X-6.449 Y-2.939 E2.45680
G1 X-5.518 Y-3.477 E2.49232
G1 X-4.199 Y-1.193 E2.57941
G1 X-5.080 Y-0.687 E2.61294
G1 X-5.280 Y-1.029 F15000.000
G1 X-4.780 Y-1.123 F15000.000
G1 F1200
G1 X-5.869 Y-3.010 E2.71723
G1 F12000
G1 X-4.780 Y-1.123 E2.56196
G1 E0.71723 F900.00000
G92 E0
G1 Z24.400 F15000.000
G1 X-8.250 Y-6.972 F15000.000
G1 Z24.000 F15000.000
G1 E2.00000 F900.00000
G1 F1200
G1 X-8.827 Y-7.972 E2.04964
G1 X-7.673 Y-7.972 E2.09928
G1 X-8.220 Y-7.024 E2.14634
G1 X-8.250 Y-6.058 F15000.000
G1 F1200
G1 X-9.619 Y-8.429 E2.23674
G1 X-6.881 Y-8.429 E2.32713
G1 X-8.220 Y-6.110 E2.41555
G1 X-8.319 Y-6.452 F15000.000
G1 F12000
G1 X-9.619 Y-8.429 E2.22258
G1 F12000
G1 X-6.881 Y-8.429 E2.02750
G1 F12000
G1 X-7.240 Y-7.808 E1.97641
G1 F12000
G1 X-8.220 Y-6.110 E1.83670
G1 E0.41555 F900.00000
G92 E0
G1 Z24.400 F15000.000
G1 X8.250 Y-6.972 F15000.000
G1 Z24.000 F15000.000
G1 E2.00000 F900.00000
G1 F1200
G1 X7.673 Y-7.972 E2.04964
G1 X8.827 Y-7.972 E2.09928
G1 X8.280 Y-7.024 E2.14634
G1 X8.250 Y-6.058 F15000.000
G1 F1200
G1 X6.881 Y-8.429 E2.23674
G1 X9.619 Y-8.429 E2.32713
G1 X8.280 Y-6.110 E2.41555
G1 X8.181 Y-6.452 F15000.000
;LAYER:120
G1 F12000
G1 X6.881 Y-8.429 E2.22258
G1 F12000
G1 X9.619 Y-8.429 E2.02750
G1 F12000
G1 X9.260 Y-7.808 E1.97641
G1 F12000
G1 X8.280 Y-6.110 E1.83670
G1 E0.41555 F900.00000
G92 E0
G1 Z24.400 F15000.000
G1 X-0.000 Y7.317 F15000.000
G1 Z24.200 F15000.000
G1 E2.00000 F900.00000
G1 F1200
G1 X-0.577 Y6.317 E2.04964
G1 X0.577 Y6.317 E2.09928
G1 X0.030 Y7.265 E2.14634
G1 X0.000 Y8.231 F15000.000
G1 F1200
G1 X-1.369 Y5.860 E2.23674
G1 X1.369 Y5.860 E2.32713
G1 X0.030 Y8.179 E2.41555
G1 X-0.069 Y7.837 F15000.000
G1 F12000
G1 X-1.369 Y5.860 E2.22258
G1 F12000
G1 X1.369 Y5.860 E2.02750
G1 F12000
G1 X1.084 Y6.354 E1.98688
G1 F12000
G1 X0.030 Y8.179 E1.83670
G1 E0.41555 F900.00000
G92 E0
G1 Z24.600 F15000.000
G1 X-3.169 Y2.742 F15000.000
G1 Z24.200 F15000.000
G1 E2.00000 F900.00000
G1 F1200
G1 X-4.441 Y0.540 E2.08394
G1 X-3.511 Y-0.000 E2.11945
G1 X-2.238 Y2.204 E2.20348
G1 X-3.118 Y2.712 E2.23702
G1 X-3.322 Y2.372 F15000.000
G1 X-2.818 Y2.275 F15000.000
G1 F1200
G1 X-3.861 Y0.468 E2.33687
G1 X-5.123 Y-0.642 F15000.000
G1 F1200
G1 X-6.449 Y-2.939 E2.42444
G1 X-5.518 Y-3.477 E2.45996
G1 X-4.191 Y-1.179 E2.54759
G1 X-5.071 Y-0.672 E2.58112
G1 X-5.273 Y-1.014 F15000.000
G1 X-4.771 Y-1.108 F15000.000
G1 F1200
G1 X-5.869 Y-3.010 E2.68622
G1 F12000
G1 X-4.771 Y-1.108 E2.52975
G1 E0.68622 F900.00000
G92 E0
G1 Z24.600 F15000.000
G1 X-8.250 Y-6.972 F15000.000
G1 Z24.200 F15000.000
G1 E2.00000 F900.00000
G1 F1200
G1 X-8.827 Y-7.972 E2.04964
G1 X-7.673 Y-7.972 E2.09928
G1 X-8.220 Y-7.024 E2.14634
G1 X-8.250 Y-6.058 F15000.000
G1 F1200
G1 X-9.619 Y-8.429 E2.23674
G1 X-6.881 Y-8.429 E2.32713
G1 X-8.220 Y-6.110 E2.41555
G1 X-8.319 Y-6.452 F15000.000
G1 F12000
G1 X-9.619 Y-8.429 E2.22258
G1 F12000
G1 X-6.881 Y-8.429 E2.02750
G1 F12000
G1 X-7.166 Y-7.935 E1.98688
G1 F12000
G1 X-8.220 Y-6.110 E1.83670
G1 E0.41555 F900.00000
G92 E0
G1 Z24.600 F15000.000
G1 X8.250 Y-6.972 F15000.000
G1 Z24.200 F15000.000
G1 E2.00000 F900.00000
G1 F1200
G1 X7.673 Y-7.972 E2.04964
G1 X8.827 Y-7.972 E2.09928
G1 X8.280 Y-7.024 E2.14634
G1 X8.250 Y-6.058 F15000.000
G1 F1200
G1 X6.881 Y-8.429 E2.23674
G1 X9.619 Y-8.429 E2.32713
G1 X8.280 Y-6.110 E2.41555
G1 X8.181 Y-6.452 F15000.000
;LAYER:121
G1 F12000
G1 X6.881 Y-8.429 E2.22258
G1 F12000
G1 X9.619 Y-8.429 E2.02750
G1 F12000
G1 X9.334 Y-7.935 E1.98688
G1 F12000
G1 X8.280 Y-6.110 E1.83670
G1 E0.41555 F900.00000
G92 E0
G1 Z24.600 F15000.000
G1 X-0.000 Y7.317 F15000.000
G1 Z24.400 F15000.000
G1 E2.00000 F900.00000
G1 F1200
G1 X-0.577 Y6.317 E2.04964
G1 X0.577 Y6.317 E2.09928
G1 X0.030 Y7.265 E2.14634
G1 X-0.000 Y8.231 F15000.000
G1 F1200
G1 X-1.369 Y5.860 E2.23674
G1 X1.369 Y5.860 E2.32713
G1 X0.030 Y8.179 E2.41555
G1 X-0.069 Y7.838 F15000.000
G1 F12000
G1 X-1.369 Y5.860 E2.22258
G1 F12000
G1 X1.369 Y5.860 E2.02750
G1 F12000
G1 X1.080 Y6.361 E1.98629
G1 F12000
G1 X0.030 Y8.179 E1.83670
G1 E0.41555 F900.00000
G92 E0
G1 Z24.800 F15000.000
G1 X-3.169 Y2.742 F15000.000
G1 Z24.400 F15000.000
G1 E2.00000 F900.00000
G1 F1200
G1 X-4.510 Y0.420 E2.08852
G1 X-3.581 Y-0.121 E2.12404
G1 X-2.238 Y2.204 E2.21269
G1 X-3.118 Y2.712 E2.24622
G1 X-3.324 Y2.373 F15000.000
G1 X-2.818 Y2.275 F15000.000
G1 F1200
G1 X-3.931 Y0.347 E2.35276
G1 X-5.053 Y-0.520 F15000.000
G1 F1200
G1 X-6.449 Y-2.939 E2.44499
G1 X-5.518 Y-3.477 E2.48051
G1 X-4.120 Y-1.055 E2.57285
G1 X-5.001 Y-0.550 E2.60638
G1 X-5.203 Y-0.891 F15000.000
G1 X-4.700 Y-0.985 F15000.000
G1 F1200
G1 X-5.869 Y-3.010 E2.71828
G1 F12000
G1 X-4.700 Y-0.985 E2.55169
G1 E0.71828 F900.00000
G92 E0
G1 Z24.800 F15000.000
G1 X-8.250 Y-6.972 F15000.000
G1 Z24.400 F15000.000
G1 E2.00000 F900.00000
G1 F1200
G1 X-8.827 Y-7.972 E2.04964
G1 X-7.673 Y-7.972 E2.09928
G1 X-8.220 Y-7.024 E2.14634
G1 X-8.250 Y-6.058 F15000.000
G1 F1200
G1 X-9.619 Y-8.429 E2.23674
G1 X-6.881 Y-8.429 E2.32713
G1 X-8.220 Y-6.110 E2.41555
G1 X-8.319 Y-6.452 F15000.000
G1 F12000
G1 X-9.619 Y-8.429 E2.22258
G1 F12000
G1 X-6.881 Y-8.429 E2.02750
G1 F12000
G1 X-7.156 Y-7.953 E1.98835
G1 F12000
G1 X-8.220 Y-6.110 E1.83670
G1 E0.41555 F900.00000
G92 E0
G1 Z24.800 F15000.000
G1 X8.250 Y-6.972 F15000.000
G1 Z24.400 F15000.000
G1 E2.00000 F900.00000
G1 F1200
G1 X7.673 Y-7.972 E2.04964
G1 X8.827 Y-7.972 E2.09928
G1 X8.280 Y-7.024 E2.14634
G1 X8.250 Y-6.058 F15000.000
G1 F1200
G1 X6.881 Y-8.429 E2.23674
G1 X9.619 Y-8.429 E2.32713
G1 X8.280 Y-6.110 E2.41555
G1 X8.181 Y-6.452 F15000.000
;LAYER:122
G1 F12000
G1 X6.881 Y-8.429 E2.22258
G1 F12000
G1 X9.619 Y-8.429 E2.02750
G1 F12000
G1 X9.344 Y-7.953 E1.98835
G1 F12000
G1 X8.280 Y-6.110 E1.83670
G1 E0.41555 F900.00000
G92 E0
G1 Z24.800 F15000.000
G1 X-0.000 Y7.317 F15000.000
G1 Z24.600 F15000.000
G1 E2.00000 F900.00000
G1 F1200
G1 X-0.577 Y6.317 E2.04964
G1 X0.577 Y6.317 E2.09928
G1 X0.030 Y7.265 E2.14634
G1 X-0.000 Y8.231 F15000.000
G1 F1200
G1 X-1.369 Y5.860 E2.23674
G1 X1.369 Y5.860 E2.32713
G1 X0.030 Y8.179 E2.41555
G1 X-0.069 Y7.838 F15000.000
G1 F12000
G1 X-1.369 Y5.860 E2.22258
G1 F12000
G1 X1.369 Y5.860 E2.02750
G1 F12000
G1 X1.076 Y6.368 E1.98571
G1 F12000
G1 X0.030 Y8.179 E1.83670
G1 E0.41555 F900.00000
G92 E0
G1 Z25.000 F15000.000
G1 X-3.169 Y2.742 F15000.000
G1 Z24.600 F15000.000
G1 E2.00000 F900.00000
G1 F1200
G1 X-4.720 Y0.057 E2.10236

G1 F3600
G1 X-4.843 Y-0.157 E2.11526

G1 F1200
G1 X-6.449 Y-2.939 E2.22134
G1 X-5.518 Y-3.477 E2.25685
G1 X-3.910 Y-0.692 E2.36302

G1 F3600
G1 X-3.790 Y-0.484 E2.37558

G1 F1200
G1 X-2.238 Y2.204 E2.47806
G1 X-3.118 Y2.712 E2.51159
G1 X-3.330 Y2.375 F15000.000
G1 X-2.818 Y2.275 F15000.000
G1 F1200
G1 X-5.869 Y-3.010 E2.80366
G1 F12000
G1 X-2.818 Y2.275 E2.36883
G1 E0.80366 F900.00000
G92 E0
G1 Z25.000 F15000.000
G1 X-8.250 Y-6.972 F15000.000
G1 Z24.600 F15000.000
G1 E2.00000 F900.00000
G1 F1200
G1 X-8.827 Y-7.972 E2.04964
G1 X-7.673 Y-7.972 E2.09928
G1 X-8.220 Y-7.024 E2.14634
G1 X-8.250 Y-6.058 F15000.000
G1 F1200
G1 X-9.619 Y-8.429 E2.23674
G1 X-6.881 Y-8.429 E2.32714
G1 X-8.220 Y-6.110 E2.41555
G1 X-8.319 Y-6.452 F15000.000
G1 F12000
G1 X-9.619 Y-8.429 E2.22258
G1 F12000
G1 X-6.881 Y-8.429 E2.02750
G1 F12000
G1 X-7.174 Y-7.921 E1.98571
G1 F12000
G1 X-8.220 Y-6.110 E1.83670
G1 E0.41555 F900.00000
G92 E0
G1 Z25.000 F15000.000
G1 X8.250 Y-6.972 F15000.000
G1 Z24.600 F15000.000
G1 E2.00000 F900.00000
G1 F1200
G1 X7.673 Y-7.972 E2.04964
G1 X8.827 Y-7.972 E2.09928
G1 X8.280 Y-7.024 E2.14634
G1 X8.250 Y-6.058 F15000.000
G1 F1200
G1 X6.881 Y-8.429 E2.23674
G1 X9.619 Y-8.429 E2.32713
G1 X8.280 Y-6.110 E2.41555
G1 X8.181 Y-6.452 F15000.000
;LAYER:123
G1 F12000
G1 X6.881 Y-8.429 E2.22258
G1 F12000
G1 X9.619 Y-8.429 E2.02750
G1 F12000
G1 X9.326 Y-7.921 E1.98571
G1 F12000
G1 X8.280 Y-6.110 E1.83670
G1 E0.41555 F900.00000
G92 E0
G1 Z25.000 F15000.000
G1 X-0.000 Y7.317 F15000.000
G1 Z24.800 F15000.000
G1 E2.00000 F900.00000
G1 F1200
G1 X-0.577 Y6.317 E2.04964
G1 X0.577 Y6.317 E2.09928
G1 X0.030 Y7.265 E2.14634
G1 X-0.000 Y8.231 F15000.000
G1 F1200
G1 X-1.369 Y5.860 E2.23674
G1 X1.369 Y5.860 E2.32713
G1 X0.030 Y8.179 E2.41555
G1 X-0.069 Y7.838 F15000.000
G1 F12000
G1 X-1.369 Y5.860 E2.22258
G1 F12000
G1 X1.369 Y5.860 E2.02750
G1 F12000
G1 X1.072 Y6.375 E1.98512
G1 F12000
G1 X0.030 Y8.179 E1.83670
G1 E0.41555 F900.00000
G92 E0
G1 Z25.200 F15000.000
G1 X-3.169 Y2.742 F15000.000
G1 Z24.800 F15000.000
G1 E2.00000 F900.00000
G1 F1200
G1 X-5.363 Y-1.058 E2.14487
G1 X-4.430 Y-1.592 E2.18038
G1 X-2.238 Y2.204 E2.32511
G1 X-3.118 Y2.712 E2.35864
G1 X-3.340 Y2.380 F15000.000
G1 X-2.818 Y2.275 F15000.000
G1 F1200
G1 X-4.782 Y-1.127 E2.54664
G1 X-5.669 Y-1.588 F15000.000
G1 F1200
G1 X-6.449 Y-2.939 E2.59815
G1 X-5.518 Y-3.477 E2.63366
G1 X-4.738 Y-2.126 E2.68517
G1 X-5.618 Y-1.618 E2.71870
G1 X-5.781 Y-1.972 F15000.000
G1 F12000
G1 X-6.449 Y-2.939 E2.60747
G1 F12000
G1 X-5.518 Y-3.477 E2.53084
G1 F12000
G1 X-5.349 Y-3.185 E2.50678
G1 F12000
G1 X-4.738 Y-2.126 E2.41969
G1 F12000
G1 X-5.618 Y-1.618 E2.34733
G1 E0.71870 F900.00000
G92 E0
G1 Z25.200 F15000.000
G1 X-8.250 Y-6.972 F15000.000
G1 Z24.800 F15000.000
G1 E2.00000 F900.00000
G1 F1200
G1 X-8.827 Y-7.972 E2.04964
G1 X-7.673 Y-7.972 E2.09928
G1 X-8.220 Y-7.024 E2.14634
G1 X-8.250 Y-6.058 F15000.000
G1 F1200
G1 X-9.619 Y-8.429 E2.23674
G1 X-6.881 Y-8.429 E2.32713
G1 X-8.220 Y-6.110 E2.41555
G1 X-8.319 Y-6.452 F15000.000
G1 F12000
G1 X-9.619 Y-8.429 E2.22258
G1 F12000
G1 X-6.881 Y-8.429 E2.02750
G1 F12000
G1 X-7.178 Y-7.914 E1.98512
G1 F12000
G1 X-8.220 Y-6.110 E1.83670
G1 E0.41555 F900.00000
G92 E0
G1 Z25.200 F15000.000
G1 X8.250 Y-6.972 F15000.000
G1 Z24.800 F15000.000
G1 E2.00000 F900.00000
G1 F1200
G1 X7.673 Y-7.972 E2.04964
G1 X8.827 Y-7.972 E2.09928
G1 X8.280 Y-7.024 E2.14634
G1 X8.250 Y-6.058 F15000.000
G1 F1200
G1 X6.881 Y-8.429 E2.23674
G1 X9.619 Y-8.429 E2.32713
G1 X8.280 Y-6.110 E2.41555
G1 X8.181 Y-6.452 F15000.000
;LAYER:124
G1 F12000
G1 X6.881 Y-8.429 E2.22258
G1 F12000
G1 X9.619 Y-8.429 E2.02750
G1 F12000
G1 X9.278 Y-7.839 E1.97896
G1 F12000
G1 X8.280 Y-6.110 E1.83670
G1 E0.41555 F900.00000
G92 E0
G1 Z25.200 F15000.000
G1 X-0.000 Y7.317 F15000.000
G1 Z25.000 F15000.000
G1 E2.00000 F900.00000
G1 F1200
G1 X-0.577 Y6.317 E2.04964
G1 X0.577 Y6.317 E2.09928
G1 X0.030 Y7.265 E2.14634
G1 X-0.000 Y8.231 F15000.000
G1 F1200
G1 X-1.369 Y5.860 E2.23674
G1 X1.369 Y5.860 E2.32713
G1 X0.030 Y8.179 E2.41555
G1 X-0.069 Y7.837 F15000.000
G1 F12000
G1 X-1.369 Y5.860 E2.22258
G1 F12000
G1 X1.369 Y5.860 E2.02750
G1 F12000
G1 X1.067 Y6.383 E1.98453
G1 F12000
G1 X0.030 Y8.179 E1.83670
G1 E0.41555 F900.00000
G92 E0
G1 Z25.400 F15000.000
G1 X-3.169 Y2.742 F15000.000
G1 Z25.000 F15000.000
G1 E2.00000 F900.00000
G1 F1200
G1 X-3.949 Y1.391 E2.05151
G1 X-3.018 Y0.853 E2.08702
G1 X-2.238 Y2.204 E2.13853
G1 X-3.118 Y2.712 E2.17206
G1 X-3.281 Y2.358 F15000.000
G1 X-3.146 Y2.216 F15000.000
G1 F1200
G1 X-2.743 Y1.814 E2.19659
G1 X-3.006 Y1.358 E2.21926
G1 X-3.444 Y1.781 E2.24549
G1 X-4.297 Y0.789 F15000.000
G1 F1200
G1 X-5.264 Y-0.887 E2.30939
G1 X-4.332 Y-1.423 E2.34490
G1 X-3.366 Y0.249 E2.40866
G1 X-4.245 Y0.759 E2.44219
G1 X-4.432 Y0.413 F15000.000
G1 X-3.946 Y0.322 F15000.000
G1 F1200
G1 X-4.684 Y-0.957 E2.51283
G1 X-5.669 Y-1.588 F15000.000
G1 F1200
G1 X-6.449 Y-2.939 E2.56434
G1 X-5.518 Y-3.477 E2.59985
G1 X-4.738 Y-2.126 E2.65136
G1 X-5.618 Y-1.618 E2.68489
G1 X-5.781 Y-1.973 F15000.000
G1 X-5.646 Y-2.114 F15000.000
G1 F1200
G1 X-5.243 Y-2.517 E2.70942
G1 X-5.506 Y-2.972 E2.73209
G1 X-5.944 Y-2.549 E2.75832
G1 F12000
G1 X-5.506 Y-2.972 E2.71497
G1 F12000
G1 X-5.243 Y-2.517 E2.67751
G1 F12000
G1 X-5.646 Y-2.114 E2.63695
G1 E0.75832 F900.00000
G92 E0
G1 Z25.400 F15000.000
G1 X-8.250 Y-6.972 F15000.000
G1 Z25.000 F15000.000
G1 E2.00000 F900.00000
G1 F1200
G1 X-8.827 Y-7.972 E2.04964
G1 X-7.673 Y-7.972 E2.09928
G1 X-8.220 Y-7.024 E2.14634
G1 X-8.250 Y-6.058 F15000.000
G1 F1200
G1 X-9.619 Y-8.429 E2.23674
G1 X-6.881 Y-8.429 E2.32714
G1 X-8.220 Y-6.110 E2.41555
G1 X-8.319 Y-6.452 F15000.000
G1 F12000
G1 X-9.619 Y-8.429 E2.22258
G1 F12000
G1 X-6.881 Y-8.429 E2.02750
G1 F12000
G1 X-7.183 Y-7.907 E1.98453
G1 F12000
G1 X-8.220 Y-6.110 E1.83670
G1 E0.41555 F900.00000
G92 E0
G1 Z25.400 F15000.000
G1 X8.250 Y-6.972 F15000.000
G1 Z25.000 F15000.000
G1 E2.00000 F900.00000
G1 F1200
G1 X7.673 Y-7.972 E2.04964
G1 X8.827 Y-7.972 E2.09928
G1 X8.280 Y-7.024 E2.14634
G1 X8.250 Y-6.058 F15000.000
G1 F1200
G1 X6.881 Y-8.429 E2.23674
G1 X9.619 Y-8.429 E2.32714
G1 X8.280 Y-6.110 E2.41555
G1 X8.181 Y-6.452 F15000.000
;LAYER:125
G1 F12000
G1 X6.881 Y-8.429 E2.22258
G1 F12000
G1 X9.619 Y-8.429 E2.02750
G1 F12000
G1 X9.317 Y-7.907 E1.98453
G1 F12000
G1 X8.280 Y-6.110 E1.83670
G1 E0.41555 F900.00000
G92 E0
G1 Z25.400 F15000.000
G1 X0.000 Y7.317 F15000.000
G1 Z25.200 F15000.000
G1 E2.00000 F900.00000
G1 F1200
G1 X-0.577 Y6.317 E2.04964
G1 X0.577 Y6.317 E2.09928
G1 X0.030 Y7.265 E2.14634
G1 F12000
G1 X-0.577 Y6.317 E2.06613
G1 F12000
G1 X0.577 Y6.317 E1.98387
G1 F12000
G1 X0.030 Y7.265 E1.90588
G1 E0.14634 F900.00000
G92 E0
G1 Z25.600 F15000.000
G1 X-8.250 Y-6.972 F15000.000
G1 Z25.200 F15000.000
G1 E2.00000 F900.00000
G1 F1200
G1 X-8.827 Y-7.972 E2.04964
G1 X-7.673 Y-7.972 E2.09928
G1 X-8.220 Y-7.024 E2.14634
G1 F12000
G1 X-8.827 Y-7.972 E2.06613
G1 F12000
G1 X-7.673 Y-7.972 E1.98387
G1 F12000
G1 X-8.220 Y-7.024 E1.90588
G1 E0.14634 F900.00000
G92 E0
G1 Z25.600 F15000.000
G1 X-0.127 Y5.860 F15000.000
G1 Z25.200 F15000.000
G1 E2.00000 F900.00000
G1 F1200
G1 X1.369 Y5.860 E2.04939
G1 X0.000 Y8.231 E2.13979
G1 X-1.611 Y5.440 E2.24620

G1 F3600
G1 X-2.959 Y3.105 E2.38706

G1 F1200
G1 X-6.659 Y-3.303 E2.63139

G1 F3600
G1 X-8.008 Y-5.638 E2.77224

G1 F1200
G1 X-9.619 Y-8.429 E2.87865
G1 X-6.881 Y-8.429 E2.96905
G1 X-7.629 Y-7.134 E3.01844
G1 X-7.387 Y-6.714 E3.03446

G1 F3600
G1 X-5.728 Y-3.841 E3.20775

G1 F1200
G1 X-2.028 Y2.568 E3.45208

G1 F3600
G1 X-0.370 Y5.440 E3.62538

G1 F1200
G1 X-0.157 Y5.808 E3.63941
G1 X-0.091 Y6.259 F15000.000
G1 X-0.616 Y6.089 F15000.000
G1 F1200
G1 X-8.071 Y-6.824 E4.35300
G1 F12000
G1 X-0.616 Y6.089 E3.29060
G1 E2.35300 F900.00000
G92 E0
G1 Z25.600 F15000.000
G1 X8.250 Y-6.972 F15000.000
G1 Z25.200 F15000.000
G1 E2.00000 F900.00000
G1 F1200
G1 X7.673 Y-7.972 E2.04964
G1 X8.827 Y-7.972 E2.09928
G1 X8.280 Y-7.024 E2.14634
G1 X8.250 Y-6.058 F15000.000
G1 F1200
G1 X6.881 Y-8.429 E2.23674
G1 X9.619 Y-8.429 E2.32713
G1 X8.280 Y-6.110 E2.41555
G1 X8.181 Y-6.452 F15000.000
;LAYER:126
G1 F12000
G1 X6.881 Y-8.429 E2.22258
G1 F12000
G1 X9.619 Y-8.429 E2.02750
G1 F12000
G1 X9.313 Y-7.900 E1.98395
G1 F12000
G1 X8.280 Y-6.110 E1.83670
G1 E0.41555 F900.00000
G92 E0
G1 Z25.600 F15000.000
G1 X0.000 Y7.317 F15000.000
G1 Z25.400 F15000.000
G1 E2.00000 F900.00000
G1 F1200
G1 X-0.577 Y6.317 E2.04964
G1 X0.577 Y6.317 E2.09928
G1 X0.030 Y7.265 E2.14634
G1 X-8.250 Y-6.972 F15000.000
G1 F1200
G1 X-8.827 Y-7.972 E2.19598
G1 X-7.673 Y-7.972 E2.24562
G1 X-8.220 Y-7.024 E2.29268
G1 X-0.127 Y5.860 F15000.000
G1 F1200
G1 X1.369 Y5.860 E2.34207
G1 X0.000 Y8.231 E2.43247
G1 X-9.619 Y-8.429 E3.06765
G1 X-6.881 Y-8.429 E3.15805
G1 X-7.629 Y-7.134 E3.20744
G1 X-0.157 Y5.808 E3.70085
G1 X-0.064 Y6.255 F15000.000
G1 X-0.616 Y6.089 F15000.000
G1 F1200
G1 X-8.071 Y-6.824 E4.41444
G1 F12000
G1 X-0.616 Y6.089 E3.35204
G1 E2.41444 F900.00000
G92 E0
G1 Z25.800 F15000.000
G1 X8.250 Y-6.972 F15000.000
G1 Z25.400 F15000.000
G1 E2.00000 F900.00000
G1 F1200
G1 X7.673 Y-7.972 E2.04964
G1 X8.827 Y-7.972 E2.09928
G1 X8.280 Y-7.024 E2.14634
G1 X8.250 Y-6.058 F15000.000
G1 F1200
G1 X6.881 Y-8.429 E2.23674
G1 X9.619 Y-8.429 E2.32713
G1 X8.280 Y-6.110 E2.41555
G1 X8.181 Y-6.452 F15000.000
;LAYER:127
G1 F12000
G1 X6.881 Y-8.429 E2.22258
G1 F12000
G1 X9.619 Y-8.429 E2.02750
G1 F12000
G1 X9.309 Y-7.893 E1.98336
G1 F12000
G1 X8.280 Y-6.110 E1.83670
G1 E0.41555 F900.00000
G92 E0
G1 Z25.800 F15000.000
G1 X0.000 Y7.317 F15000.000
G1 Z25.600 F15000.000
G1 E2.00000 F900.00000
G1 F1200
G1 X-0.577 Y6.317 E2.04964
G1 X0.577 Y6.317 E2.09928
G1 X0.030 Y7.265 E2.14634
G1 X-8.250 Y-6.972 F15000.000
G1 F1200
G1 X-8.827 Y-7.972 E2.19598
G1 X-7.673 Y-7.972 E2.24562
G1 X-8.220 Y-7.024 E2.29268
G1 X-0.127 Y5.860 F15000.000
G1 F1200
G1 X1.369 Y5.860 E2.34207
G1 X0.000 Y8.231 E2.43247
G1 X-9.619 Y-8.429 E3.06765
G1 X-6.881 Y-8.429 E3.15805
G1 X-7.629 Y-7.134 E3.20744
G1 X-0.157 Y5.808 E3.70085
G1 X-0.064 Y6.255 F15000.000
G1 X-0.616 Y6.089 F15000.000
G1 F1200
G1 X-8.071 Y-6.824 E4.41444
G1 F12000
G1 X-0.616 Y6.089 E3.35204
G1 E2.41444 F900.00000
G92 E0
G1 Z26.000 F15000.000
G1 X8.250 Y-6.972 F15000.000
G1 Z25.600 F15000.000
G1 E2.00000 F900.00000
G1 F1200
G1 X7.673 Y-7.972 E2.04964
G1 X8.827 Y-7.972 E2.09928
G1 X8.280 Y-7.024 E2.14634
G1 X8.250 Y-6.058 F15000.000
G1 F1200
G1 X6.881 Y-8.429 E2.23674
G1 X9.619 Y-8.429 E2.32713
G1 X8.280 Y-6.110 E2.41555
G1 X8.181 Y-6.452 F15000.000
;LAYER:128
G1 F12000
G1 X6.881 Y-8.429 E2.22258
G1 F12000
G1 X9.619 Y-8.429 E2.02750
G1 F12000
G1 X9.305 Y-7.885 E1.98277
G1 F12000
G1 X8.280 Y-6.110 E1.83670
G1 E0.41555 F900.00000
G92 E0
G1 Z26.000 F15000.000
G1 X0.000 Y7.317 F15000.000
G1 Z25.800 F15000.000
G1 E2.00000 F900.00000
G1 F1200
G1 X-0.577 Y6.317 E2.04964
G1 X0.577 Y6.317 E2.09928
G1 X0.030 Y7.265 E2.14634
G1 X-8.250 Y-6.972 F15000.000
G1 F1200
G1 X-8.827 Y-7.972 E2.19598
G1 X-7.673 Y-7.972 E2.24562
G1 X-8.220 Y-7.024 E2.29268
G1 X-0.127 Y5.860 F15000.000
G1 F1200
G1 X1.369 Y5.860 E2.34207
G1 X0.000 Y8.231 E2.43247
G1 X-9.619 Y-8.429 E3.06765
G1 X-6.881 Y-8.429 E3.15805
G1 X-7.629 Y-7.134 E3.20744
G1 X-0.157 Y5.808 E3.70085
G1 X-0.064 Y6.255 F15000.000
G1 X-0.616 Y6.089 F15000.000
G1 F1200
G1 X-8.071 Y-6.824 E4.41444
G1 F12000
G1 X-0.616 Y6.089 E3.35204
G1 E2.41444 F900.00000
G92 E0
G1 Z26.200 F15000.000
G1 X8.250 Y-6.972 F15000.000
G1 Z25.800 F15000.000
G1 E2.00000 F900.00000
G1 F1200
G1 X7.673 Y-7.972 E2.04964
G1 X8.827 Y-7.972 E2.09928
G1 X8.280 Y-7.024 E2.14634
G1 X8.250 Y-6.058 F15000.000
G1 F1200
G1 X6.881 Y-8.429 E2.23674
G1 X9.619 Y-8.429 E2.32713
G1 X8.280 Y-6.110 E2.41555
G1 X8.181 Y-6.452 F15000.000